%YAML 1.1
%TAG !u! tag:unity3d.com,2011:
--- !u!1 &2619317647149537563
GameObject:
  m_ObjectHideFlags: 0
  m_CorrespondingSourceObject: {fileID: 0}
  m_PrefabInstance: {fileID: 0}
  m_PrefabAsset: {fileID: 0}
  serializedVersion: 6
  m_Component:
  - component: {fileID: 654612791816625342}
  - component: {fileID: 4640022124961097951}
  m_Layer: 5
  m_Name: FloatTextEffect
  m_TagString: Untagged
  m_Icon: {fileID: 0}
  m_NavMeshLayer: 0
  m_StaticEditorFlags: 0
  m_IsActive: 1
--- !u!224 &654612791816625342
RectTransform:
  m_ObjectHideFlags: 0
  m_CorrespondingSourceObject: {fileID: 0}
  m_PrefabInstance: {fileID: 0}
  m_PrefabAsset: {fileID: 0}
  m_GameObject: {fileID: 2619317647149537563}
  m_LocalRotation: {x: 0, y: 0, z: 0, w: 1}
  m_LocalPosition: {x: 0, y: 0, z: 0}
  m_LocalScale: {x: 1, y: 1, z: 1}
  m_Children:
  - {fileID: 775229896279099834}
  m_Father: {fileID: 0}
  m_RootOrder: 0
  m_LocalEulerAnglesHint: {x: 0, y: 0, z: 0}
  m_AnchorMin: {x: 0.5, y: 0.5}
  m_AnchorMax: {x: 0.5, y: 0.5}
  m_AnchoredPosition: {x: 0, y: 0}
  m_SizeDelta: {x: 100, y: 100}
  m_Pivot: {x: 0.5, y: 0.5}
--- !u!114 &4640022124961097951
MonoBehaviour:
  m_ObjectHideFlags: 0
  m_CorrespondingSourceObject: {fileID: 0}
  m_PrefabInstance: {fileID: 0}
  m_PrefabAsset: {fileID: 0}
  m_GameObject: {fileID: 2619317647149537563}
  m_Enabled: 1
  m_EditorHideFlags: 0
  m_Script: {fileID: 11500000, guid: fe447c448df0f8c48bdd9afab954bfdb, type: 3}
  m_Name: 
  m_EditorClassIdentifier: 
  floatSetTemplate: {fileID: 7900208373241748485}
--- !u!1001 &546850908276432615
PrefabInstance:
  m_ObjectHideFlags: 0
  serializedVersion: 2
  m_Modification:
    m_TransformParent: {fileID: 654612791816625342}
    m_Modifications:
    - target: {fileID: 943554790921228951, guid: a5b9d851713055842b2f3bcd11891662,
        type: 3}
      propertyPath: m_AnchoredPosition.x
      value: 0
      objectReference: {fileID: 0}
    - target: {fileID: 943554790921228951, guid: a5b9d851713055842b2f3bcd11891662,
        type: 3}
      propertyPath: m_SizeDelta.x
      value: 0
      objectReference: {fileID: 0}
    - target: {fileID: 943554790921228951, guid: a5b9d851713055842b2f3bcd11891662,
        type: 3}
      propertyPath: m_AnchoredPosition.y
      value: 0
      objectReference: {fileID: 0}
    - target: {fileID: 943554790921228951, guid: a5b9d851713055842b2f3bcd11891662,
        type: 3}
      propertyPath: m_SizeDelta.y
      value: 0
      objectReference: {fileID: 0}
    - target: {fileID: 960644938290173789, guid: a5b9d851713055842b2f3bcd11891662,
        type: 3}
      propertyPath: m_LocalPosition.x
      value: 0
      objectReference: {fileID: 0}
    - target: {fileID: 960644938290173789, guid: a5b9d851713055842b2f3bcd11891662,
        type: 3}
      propertyPath: m_LocalPosition.y
      value: 0
      objectReference: {fileID: 0}
    - target: {fileID: 960644938290173789, guid: a5b9d851713055842b2f3bcd11891662,
        type: 3}
      propertyPath: m_LocalPosition.z
      value: 0
      objectReference: {fileID: 0}
    - target: {fileID: 960644938290173789, guid: a5b9d851713055842b2f3bcd11891662,
        type: 3}
      propertyPath: m_LocalRotation.x
      value: -0
      objectReference: {fileID: 0}
    - target: {fileID: 960644938290173789, guid: a5b9d851713055842b2f3bcd11891662,
        type: 3}
      propertyPath: m_LocalRotation.y
      value: -0
      objectReference: {fileID: 0}
    - target: {fileID: 960644938290173789, guid: a5b9d851713055842b2f3bcd11891662,
        type: 3}
      propertyPath: m_LocalRotation.z
      value: -0
      objectReference: {fileID: 0}
    - target: {fileID: 960644938290173789, guid: a5b9d851713055842b2f3bcd11891662,
        type: 3}
      propertyPath: m_LocalRotation.w
      value: 1
      objectReference: {fileID: 0}
    - target: {fileID: 960644938290173789, guid: a5b9d851713055842b2f3bcd11891662,
        type: 3}
      propertyPath: m_RootOrder
      value: 0
      objectReference: {fileID: 0}
    - target: {fileID: 960644938290173789, guid: a5b9d851713055842b2f3bcd11891662,
        type: 3}
      propertyPath: m_LocalEulerAnglesHint.x
      value: 0
      objectReference: {fileID: 0}
    - target: {fileID: 960644938290173789, guid: a5b9d851713055842b2f3bcd11891662,
        type: 3}
      propertyPath: m_LocalEulerAnglesHint.y
      value: 0
      objectReference: {fileID: 0}
    - target: {fileID: 960644938290173789, guid: a5b9d851713055842b2f3bcd11891662,
        type: 3}
      propertyPath: m_LocalEulerAnglesHint.z
      value: 0
      objectReference: {fileID: 0}
    - target: {fileID: 960644938290173789, guid: a5b9d851713055842b2f3bcd11891662,
        type: 3}
      propertyPath: m_AnchoredPosition.x
      value: 0
      objectReference: {fileID: 0}
    - target: {fileID: 960644938290173789, guid: a5b9d851713055842b2f3bcd11891662,
        type: 3}
      propertyPath: m_AnchoredPosition.y
      value: 0
      objectReference: {fileID: 0}
    - target: {fileID: 960644938290173789, guid: a5b9d851713055842b2f3bcd11891662,
        type: 3}
      propertyPath: m_SizeDelta.x
      value: 125
      objectReference: {fileID: 0}
    - target: {fileID: 960644938290173789, guid: a5b9d851713055842b2f3bcd11891662,
        type: 3}
      propertyPath: m_SizeDelta.y
      value: 50
      objectReference: {fileID: 0}
    - target: {fileID: 960644938290173789, guid: a5b9d851713055842b2f3bcd11891662,
        type: 3}
      propertyPath: m_AnchorMin.x
      value: 0.5
      objectReference: {fileID: 0}
    - target: {fileID: 960644938290173789, guid: a5b9d851713055842b2f3bcd11891662,
        type: 3}
      propertyPath: m_AnchorMin.y
      value: 0.5
      objectReference: {fileID: 0}
    - target: {fileID: 960644938290173789, guid: a5b9d851713055842b2f3bcd11891662,
        type: 3}
      propertyPath: m_AnchorMax.x
      value: 0.5
      objectReference: {fileID: 0}
    - target: {fileID: 960644938290173789, guid: a5b9d851713055842b2f3bcd11891662,
        type: 3}
      propertyPath: m_AnchorMax.y
      value: 0.5
      objectReference: {fileID: 0}
    - target: {fileID: 960644938290173789, guid: a5b9d851713055842b2f3bcd11891662,
        type: 3}
      propertyPath: m_Pivot.x
      value: 0.5
      objectReference: {fileID: 0}
    - target: {fileID: 960644938290173789, guid: a5b9d851713055842b2f3bcd11891662,
        type: 3}
      propertyPath: m_Pivot.y
      value: 0.5
      objectReference: {fileID: 0}
    - target: {fileID: 6817808734985473899, guid: a5b9d851713055842b2f3bcd11891662,
        type: 3}
      propertyPath: m_Sprite
      value: 
      objectReference: {fileID: -7872583164333320029, guid: a89411effdb2b264eb07328c0cfae008,
        type: 3}
    - target: {fileID: 8205701803514304316, guid: a5b9d851713055842b2f3bcd11891662,
        type: 3}
      propertyPath: m_Sprite
      value: 
      objectReference: {fileID: 21300000, guid: 1d8ff408224a2b142b1ce7ebb4abe9a2,
        type: 3}
    - target: {fileID: 8942371605191989295, guid: a5b9d851713055842b2f3bcd11891662,
        type: 3}
      propertyPath: m_Name
      value: icon_text_a_s
      objectReference: {fileID: 0}
    - target: {fileID: 8942371605191989295, guid: a5b9d851713055842b2f3bcd11891662,
        type: 3}
      propertyPath: m_IsActive
      value: 0
      objectReference: {fileID: 0}
    - target: {fileID: 9112822277373514266, guid: a5b9d851713055842b2f3bcd11891662,
        type: 3}
      propertyPath: m_fontSize
      value: 36
      objectReference: {fileID: 0}
    - target: {fileID: 9112822277373514266, guid: a5b9d851713055842b2f3bcd11891662,
        type: 3}
      propertyPath: m_fontSizeBase
      value: 36
      objectReference: {fileID: 0}
    - target: {fileID: 9112822277373514266, guid: a5b9d851713055842b2f3bcd11891662,
        type: 3}
      propertyPath: m_text
      value: 100
      objectReference: {fileID: 0}
    m_RemovedComponents: []
  m_SourcePrefab: {fileID: 100100000, guid: a5b9d851713055842b2f3bcd11891662, type: 3}
--- !u!224 &775229896279099834 stripped
RectTransform:
  m_CorrespondingSourceObject: {fileID: 960644938290173789, guid: a5b9d851713055842b2f3bcd11891662,
    type: 3}
  m_PrefabInstance: {fileID: 546850908276432615}
  m_PrefabAsset: {fileID: 0}
--- !u!114 &7900208373241748485 stripped
MonoBehaviour:
  m_CorrespondingSourceObject: {fileID: 7653273454599111394, guid: a5b9d851713055842b2f3bcd11891662,
    type: 3}
  m_PrefabInstance: {fileID: 546850908276432615}
  m_PrefabAsset: {fileID: 0}
  m_GameObject: {fileID: 0}
  m_Enabled: 1
  m_EditorHideFlags: 0
  m_Script: {fileID: 11500000, guid: 4755952f1d8588c42a54e93891b7a4a2, type: 3}
  m_Name: 
  m_EditorClassIdentifier: 
