%YAML 1.1
%TAG !u! tag:unity3d.com,2011:
--- !u!1001 &1024680154265801058
PrefabInstance:
  m_ObjectHideFlags: 0
  serializedVersion: 2
  m_Modification:
    m_TransformParent: {fileID: 0}
    m_Modifications:
    - target: {fileID: 1082405738629211401, guid: 85c3b0aea9a6b08468f07d940ca25396,
        type: 3}
      propertyPath: m_Sprite
      value: 
      objectReference: {fileID: 1766896385167877425, guid: 03ae290c95f48994e940e94b71a55a02,
        type: 3}
    - target: {fileID: 3589647763370127757, guid: 85c3b0aea9a6b08468f07d940ca25396,
        type: 3}
      propertyPath: m_Name
      value: container_s_hor
      objectReference: {fileID: 0}
    - target: {fileID: 8532757215625930905, guid: 85c3b0aea9a6b08468f07d940ca25396,
        type: 3}
      propertyPath: m_LocalPosition.x
      value: 0
      objectReference: {fileID: 0}
    - target: {fileID: 8532757215625930905, guid: 85c3b0aea9a6b08468f07d940ca25396,
        type: 3}
      propertyPath: m_LocalPosition.y
      value: 0
      objectReference: {fileID: 0}
    - target: {fileID: 8532757215625930905, guid: 85c3b0aea9a6b08468f07d940ca25396,
        type: 3}
      propertyPath: m_LocalPosition.z
      value: 0
      objectReference: {fileID: 0}
    - target: {fileID: 8532757215625930905, guid: 85c3b0aea9a6b08468f07d940ca25396,
        type: 3}
      propertyPath: m_LocalRotation.x
      value: -0
      objectReference: {fileID: 0}
    - target: {fileID: 8532757215625930905, guid: 85c3b0aea9a6b08468f07d940ca25396,
        type: 3}
      propertyPath: m_LocalRotation.y
      value: -0
      objectReference: {fileID: 0}
    - target: {fileID: 8532757215625930905, guid: 85c3b0aea9a6b08468f07d940ca25396,
        type: 3}
      propertyPath: m_LocalRotation.z
      value: -0
      objectReference: {fileID: 0}
    - target: {fileID: 8532757215625930905, guid: 85c3b0aea9a6b08468f07d940ca25396,
        type: 3}
      propertyPath: m_LocalRotation.w
      value: 1
      objectReference: {fileID: 0}
    - target: {fileID: 8532757215625930905, guid: 85c3b0aea9a6b08468f07d940ca25396,
        type: 3}
      propertyPath: m_RootOrder
      value: 0
      objectReference: {fileID: 0}
    - target: {fileID: 8532757215625930905, guid: 85c3b0aea9a6b08468f07d940ca25396,
        type: 3}
      propertyPath: m_LocalEulerAnglesHint.x
      value: 0
      objectReference: {fileID: 0}
    - target: {fileID: 8532757215625930905, guid: 85c3b0aea9a6b08468f07d940ca25396,
        type: 3}
      propertyPath: m_LocalEulerAnglesHint.y
      value: 0
      objectReference: {fileID: 0}
    - target: {fileID: 8532757215625930905, guid: 85c3b0aea9a6b08468f07d940ca25396,
        type: 3}
      propertyPath: m_LocalEulerAnglesHint.z
      value: 0
      objectReference: {fileID: 0}
    - target: {fileID: 8532757215625930905, guid: 85c3b0aea9a6b08468f07d940ca25396,
        type: 3}
      propertyPath: m_AnchoredPosition.x
      value: 0
      objectReference: {fileID: 0}
    - target: {fileID: 8532757215625930905, guid: 85c3b0aea9a6b08468f07d940ca25396,
        type: 3}
      propertyPath: m_AnchoredPosition.y
      value: 0
      objectReference: {fileID: 0}
    - target: {fileID: 8532757215625930905, guid: 85c3b0aea9a6b08468f07d940ca25396,
        type: 3}
      propertyPath: m_SizeDelta.x
      value: 650
      objectReference: {fileID: 0}
    - target: {fileID: 8532757215625930905, guid: 85c3b0aea9a6b08468f07d940ca25396,
        type: 3}
      propertyPath: m_SizeDelta.y
      value: 400
      objectReference: {fileID: 0}
    - target: {fileID: 8532757215625930905, guid: 85c3b0aea9a6b08468f07d940ca25396,
        type: 3}
      propertyPath: m_AnchorMin.x
      value: 0.5
      objectReference: {fileID: 0}
    - target: {fileID: 8532757215625930905, guid: 85c3b0aea9a6b08468f07d940ca25396,
        type: 3}
      propertyPath: m_AnchorMin.y
      value: 0.5
      objectReference: {fileID: 0}
    - target: {fileID: 8532757215625930905, guid: 85c3b0aea9a6b08468f07d940ca25396,
        type: 3}
      propertyPath: m_Pivot.x
      value: 0.5
      objectReference: {fileID: 0}
    - target: {fileID: 8532757215625930905, guid: 85c3b0aea9a6b08468f07d940ca25396,
        type: 3}
      propertyPath: m_Pivot.y
      value: 0.5
      objectReference: {fileID: 0}
    m_RemovedComponents: []
  m_SourcePrefab: {fileID: 100100000, guid: 85c3b0aea9a6b08468f07d940ca25396, type: 3}
