%YAML 1.1
%TAG !u! tag:unity3d.com,2011:
--- !u!1001 &3679586114290163894
PrefabInstance:
  m_ObjectHideFlags: 0
  serializedVersion: 2
  m_Modification:
    m_TransformParent: {fileID: 0}
    m_Modifications:
    - target: {fileID: 699793992848004983, guid: 8ad2abf5f6c30be42989f2dffc92fc38,
        type: 3}
      propertyPath: m_Sprite
      value: 
      objectReference: {fileID: -5190648554304268181, guid: 03ae290c95f48994e940e94b71a55a02,
        type: 3}
    - target: {fileID: 3991224160105612275, guid: 8ad2abf5f6c30be42989f2dffc92fc38,
        type: 3}
      propertyPath: m_Name
      value: selection_s
      objectReference: {fileID: 0}
    - target: {fileID: 8131567847050975975, guid: 8ad2abf5f6c30be42989f2dffc92fc38,
        type: 3}
      propertyPath: m_LocalPosition.x
      value: 0
      objectReference: {fileID: 0}
    - target: {fileID: 8131567847050975975, guid: 8ad2abf5f6c30be42989f2dffc92fc38,
        type: 3}
      propertyPath: m_LocalPosition.y
      value: 0
      objectReference: {fileID: 0}
    - target: {fileID: 8131567847050975975, guid: 8ad2abf5f6c30be42989f2dffc92fc38,
        type: 3}
      propertyPath: m_LocalPosition.z
      value: 0
      objectReference: {fileID: 0}
    - target: {fileID: 8131567847050975975, guid: 8ad2abf5f6c30be42989f2dffc92fc38,
        type: 3}
      propertyPath: m_LocalRotation.x
      value: -0
      objectReference: {fileID: 0}
    - target: {fileID: 8131567847050975975, guid: 8ad2abf5f6c30be42989f2dffc92fc38,
        type: 3}
      propertyPath: m_LocalRotation.y
      value: -0
      objectReference: {fileID: 0}
    - target: {fileID: 8131567847050975975, guid: 8ad2abf5f6c30be42989f2dffc92fc38,
        type: 3}
      propertyPath: m_LocalRotation.z
      value: -0
      objectReference: {fileID: 0}
    - target: {fileID: 8131567847050975975, guid: 8ad2abf5f6c30be42989f2dffc92fc38,
        type: 3}
      propertyPath: m_LocalRotation.w
      value: 1
      objectReference: {fileID: 0}
    - target: {fileID: 8131567847050975975, guid: 8ad2abf5f6c30be42989f2dffc92fc38,
        type: 3}
      propertyPath: m_RootOrder
      value: 0
      objectReference: {fileID: 0}
    - target: {fileID: 8131567847050975975, guid: 8ad2abf5f6c30be42989f2dffc92fc38,
        type: 3}
      propertyPath: m_LocalEulerAnglesHint.x
      value: 0
      objectReference: {fileID: 0}
    - target: {fileID: 8131567847050975975, guid: 8ad2abf5f6c30be42989f2dffc92fc38,
        type: 3}
      propertyPath: m_LocalEulerAnglesHint.y
      value: 0
      objectReference: {fileID: 0}
    - target: {fileID: 8131567847050975975, guid: 8ad2abf5f6c30be42989f2dffc92fc38,
        type: 3}
      propertyPath: m_LocalEulerAnglesHint.z
      value: 0
      objectReference: {fileID: 0}
    - target: {fileID: 8131567847050975975, guid: 8ad2abf5f6c30be42989f2dffc92fc38,
        type: 3}
      propertyPath: m_AnchoredPosition.x
      value: 0
      objectReference: {fileID: 0}
    - target: {fileID: 8131567847050975975, guid: 8ad2abf5f6c30be42989f2dffc92fc38,
        type: 3}
      propertyPath: m_AnchoredPosition.y
      value: 0
      objectReference: {fileID: 0}
    - target: {fileID: 8131567847050975975, guid: 8ad2abf5f6c30be42989f2dffc92fc38,
        type: 3}
      propertyPath: m_SizeDelta.x
      value: 250
      objectReference: {fileID: 0}
    - target: {fileID: 8131567847050975975, guid: 8ad2abf5f6c30be42989f2dffc92fc38,
        type: 3}
      propertyPath: m_SizeDelta.y
      value: 250
      objectReference: {fileID: 0}
    - target: {fileID: 8131567847050975975, guid: 8ad2abf5f6c30be42989f2dffc92fc38,
        type: 3}
      propertyPath: m_AnchorMin.x
      value: 0.5
      objectReference: {fileID: 0}
    - target: {fileID: 8131567847050975975, guid: 8ad2abf5f6c30be42989f2dffc92fc38,
        type: 3}
      propertyPath: m_AnchorMin.y
      value: 0.5
      objectReference: {fileID: 0}
    - target: {fileID: 8131567847050975975, guid: 8ad2abf5f6c30be42989f2dffc92fc38,
        type: 3}
      propertyPath: m_AnchorMax.x
      value: 0.5
      objectReference: {fileID: 0}
    - target: {fileID: 8131567847050975975, guid: 8ad2abf5f6c30be42989f2dffc92fc38,
        type: 3}
      propertyPath: m_AnchorMax.y
      value: 0.5
      objectReference: {fileID: 0}
    - target: {fileID: 8131567847050975975, guid: 8ad2abf5f6c30be42989f2dffc92fc38,
        type: 3}
      propertyPath: m_Pivot.x
      value: 0.5
      objectReference: {fileID: 0}
    - target: {fileID: 8131567847050975975, guid: 8ad2abf5f6c30be42989f2dffc92fc38,
        type: 3}
      propertyPath: m_Pivot.y
      value: 0.5
      objectReference: {fileID: 0}
    m_RemovedComponents: []
  m_SourcePrefab: {fileID: 100100000, guid: 8ad2abf5f6c30be42989f2dffc92fc38, type: 3}
