%YAML 1.1
%TAG !u! tag:unity3d.com,2011:
--- !u!114 &11400000
MonoBehaviour:
  m_ObjectHideFlags: 0
  m_CorrespondingSourceObject: {fileID: 0}
  m_PrefabInstance: {fileID: 0}
  m_PrefabAsset: {fileID: 0}
  m_GameObject: {fileID: 0}
  m_Enabled: 1
  m_EditorHideFlags: 0
  m_Script: {fileID: 11500000, guid: 76951c3540c51a34595ae14337fbfd4f, type: 3}
  m_Name: All Keywords
  m_EditorClassIdentifier: 
  list:
  - tagKeyword: natural
    group: natural
    sortOrder: 11
  - tagKeyword: animal
    group: animal
    sortOrder: 12
  - tagKeyword: structure
    group: structure
    sortOrder: 13
  - tagKeyword: sea
    group: geo
    sortOrder: 41
  - tagKeyword: forest
    group: geo
    sortOrder: 42
  - tagKeyword: swamp
    group: geo
    sortOrder: 43
  - tagKeyword: mountain
    group: geo
    sortOrder: 44
  - tagKeyword: desert
    group: geo
    sortOrder: 45
  - tagKeyword: river
    group: geo
    sortOrder: 46
  - tagKeyword: lake
    group: geo
    sortOrder: 47
  - tagKeyword: cave
    group: geo
    sortOrder: 48
  - tagKeyword: plain
    group: geo
    sortOrder: 49
  - tagKeyword: sad
    group: feeling
    sortOrder: 31
  - tagKeyword: happy
    group: feeling
    sortOrder: 32
  - tagKeyword: calm
    group: feeling
    sortOrder: 33
  - tagKeyword: giant
    group: feeling
    sortOrder: 34
  - tagKeyword: sublime
    group: feeling
    sortOrder: 35
  - tagKeyword: mysterious
    group: feeling
    sortOrder: 36
  - tagKeyword: spring
    group: season
    sortOrder: 21
  - tagKeyword: summer
    group: season
    sortOrder: 22
  - tagKeyword: autumn
    group: season
    sortOrder: 23
  - tagKeyword: winter
    group: season
    sortOrder: 24
  - tagKeyword: rare
    group: special
    sortOrder: 2
  - tagKeyword: religious
    group: special
    sortOrder: 1
  - tagKeyword: lore
    group: special
    sortOrder: 0
