%YAML 1.1
%TAG !u! tag:unity3d.com,2011:
--- !u!1001 &7429750592199194197
PrefabInstance:
  m_ObjectHideFlags: 0
  serializedVersion: 2
  m_Modification:
    m_TransformParent: {fileID: 0}
    m_Modifications:
    - target: {fileID: 12569968846519385, guid: 752f45f5255243c4e8d21755089b76d5,
        type: 3}
      propertyPath: m_SizeDelta.x
      value: 0
      objectReference: {fileID: 0}
    - target: {fileID: 12569968846519385, guid: 752f45f5255243c4e8d21755089b76d5,
        type: 3}
      propertyPath: m_SizeDelta.y
      value: 0
      objectReference: {fileID: 0}
    - target: {fileID: 181664187010990319, guid: 752f45f5255243c4e8d21755089b76d5,
        type: 3}
      propertyPath: m_AnchorMin.y
      value: 0
      objectReference: {fileID: 0}
    - target: {fileID: 181664187010990319, guid: 752f45f5255243c4e8d21755089b76d5,
        type: 3}
      propertyPath: m_AnchorMax.y
      value: 0
      objectReference: {fileID: 0}
    - target: {fileID: 181664187010990319, guid: 752f45f5255243c4e8d21755089b76d5,
        type: 3}
      propertyPath: m_AnchoredPosition.x
      value: 0
      objectReference: {fileID: 0}
    - target: {fileID: 181664187010990319, guid: 752f45f5255243c4e8d21755089b76d5,
        type: 3}
      propertyPath: m_AnchoredPosition.y
      value: 0
      objectReference: {fileID: 0}
    - target: {fileID: 181664187010990319, guid: 752f45f5255243c4e8d21755089b76d5,
        type: 3}
      propertyPath: m_SizeDelta.x
      value: 0
      objectReference: {fileID: 0}
    - target: {fileID: 181664187010990319, guid: 752f45f5255243c4e8d21755089b76d5,
        type: 3}
      propertyPath: m_SizeDelta.y
      value: 0
      objectReference: {fileID: 0}
    - target: {fileID: 755091903147981797, guid: 752f45f5255243c4e8d21755089b76d5,
        type: 3}
      propertyPath: tier.maxInt
      value: 4
      objectReference: {fileID: 0}
    - target: {fileID: 925484253116400076, guid: 752f45f5255243c4e8d21755089b76d5,
        type: 3}
      propertyPath: m_AnchorMin.y
      value: 0
      objectReference: {fileID: 0}
    - target: {fileID: 925484253116400076, guid: 752f45f5255243c4e8d21755089b76d5,
        type: 3}
      propertyPath: m_AnchorMax.y
      value: 0
      objectReference: {fileID: 0}
    - target: {fileID: 925484253116400076, guid: 752f45f5255243c4e8d21755089b76d5,
        type: 3}
      propertyPath: m_AnchoredPosition.x
      value: 0
      objectReference: {fileID: 0}
    - target: {fileID: 925484253116400076, guid: 752f45f5255243c4e8d21755089b76d5,
        type: 3}
      propertyPath: m_AnchoredPosition.y
      value: 0
      objectReference: {fileID: 0}
    - target: {fileID: 925484253116400076, guid: 752f45f5255243c4e8d21755089b76d5,
        type: 3}
      propertyPath: m_SizeDelta.x
      value: 0
      objectReference: {fileID: 0}
    - target: {fileID: 925484253116400076, guid: 752f45f5255243c4e8d21755089b76d5,
        type: 3}
      propertyPath: m_SizeDelta.y
      value: 0
      objectReference: {fileID: 0}
    - target: {fileID: 953276478037919728, guid: 752f45f5255243c4e8d21755089b76d5,
        type: 3}
      propertyPath: m_SizeDelta.x
      value: 0
      objectReference: {fileID: 0}
    - target: {fileID: 953276478037919728, guid: 752f45f5255243c4e8d21755089b76d5,
        type: 3}
      propertyPath: m_SizeDelta.y
      value: 0
      objectReference: {fileID: 0}
    - target: {fileID: 1095527900626592000, guid: 752f45f5255243c4e8d21755089b76d5,
        type: 3}
      propertyPath: m_SizeDelta.x
      value: 0
      objectReference: {fileID: 0}
    - target: {fileID: 1095527900626592000, guid: 752f45f5255243c4e8d21755089b76d5,
        type: 3}
      propertyPath: m_SizeDelta.y
      value: 0
      objectReference: {fileID: 0}
    - target: {fileID: 1149513597062183268, guid: 752f45f5255243c4e8d21755089b76d5,
        type: 3}
      propertyPath: m_AnchorMin.y
      value: 0
      objectReference: {fileID: 0}
    - target: {fileID: 1149513597062183268, guid: 752f45f5255243c4e8d21755089b76d5,
        type: 3}
      propertyPath: m_AnchorMax.y
      value: 0
      objectReference: {fileID: 0}
    - target: {fileID: 1149513597062183268, guid: 752f45f5255243c4e8d21755089b76d5,
        type: 3}
      propertyPath: m_AnchoredPosition.x
      value: 0
      objectReference: {fileID: 0}
    - target: {fileID: 1149513597062183268, guid: 752f45f5255243c4e8d21755089b76d5,
        type: 3}
      propertyPath: m_AnchoredPosition.y
      value: 0
      objectReference: {fileID: 0}
    - target: {fileID: 1149513597062183268, guid: 752f45f5255243c4e8d21755089b76d5,
        type: 3}
      propertyPath: m_SizeDelta.x
      value: 0
      objectReference: {fileID: 0}
    - target: {fileID: 1149513597062183268, guid: 752f45f5255243c4e8d21755089b76d5,
        type: 3}
      propertyPath: m_SizeDelta.y
      value: 0
      objectReference: {fileID: 0}
    - target: {fileID: 1303264546344904446, guid: 752f45f5255243c4e8d21755089b76d5,
        type: 3}
      propertyPath: m_SizeDelta.x
      value: 0
      objectReference: {fileID: 0}
    - target: {fileID: 1303264546344904446, guid: 752f45f5255243c4e8d21755089b76d5,
        type: 3}
      propertyPath: m_SizeDelta.y
      value: 0
      objectReference: {fileID: 0}
    - target: {fileID: 1332983771050591791, guid: 752f45f5255243c4e8d21755089b76d5,
        type: 3}
      propertyPath: tier.minInt
      value: 4
      objectReference: {fileID: 0}
    - target: {fileID: 1551262650271221824, guid: 752f45f5255243c4e8d21755089b76d5,
        type: 3}
      propertyPath: m_SizeDelta.x
      value: 0
      objectReference: {fileID: 0}
    - target: {fileID: 1551262650271221824, guid: 752f45f5255243c4e8d21755089b76d5,
        type: 3}
      propertyPath: m_SizeDelta.y
      value: 0
      objectReference: {fileID: 0}
    - target: {fileID: 1591596189070869479, guid: 752f45f5255243c4e8d21755089b76d5,
        type: 3}
      propertyPath: m_AnchorMin.y
      value: 0
      objectReference: {fileID: 0}
    - target: {fileID: 1591596189070869479, guid: 752f45f5255243c4e8d21755089b76d5,
        type: 3}
      propertyPath: m_AnchorMax.y
      value: 0
      objectReference: {fileID: 0}
    - target: {fileID: 1591596189070869479, guid: 752f45f5255243c4e8d21755089b76d5,
        type: 3}
      propertyPath: m_AnchoredPosition.x
      value: 0
      objectReference: {fileID: 0}
    - target: {fileID: 1591596189070869479, guid: 752f45f5255243c4e8d21755089b76d5,
        type: 3}
      propertyPath: m_AnchoredPosition.y
      value: 0
      objectReference: {fileID: 0}
    - target: {fileID: 1591596189070869479, guid: 752f45f5255243c4e8d21755089b76d5,
        type: 3}
      propertyPath: m_SizeDelta.x
      value: 0
      objectReference: {fileID: 0}
    - target: {fileID: 1591596189070869479, guid: 752f45f5255243c4e8d21755089b76d5,
        type: 3}
      propertyPath: m_SizeDelta.y
      value: 0
      objectReference: {fileID: 0}
    - target: {fileID: 1701099356206454378, guid: 752f45f5255243c4e8d21755089b76d5,
        type: 3}
      propertyPath: m_AnchorMin.y
      value: 0
      objectReference: {fileID: 0}
    - target: {fileID: 1701099356206454378, guid: 752f45f5255243c4e8d21755089b76d5,
        type: 3}
      propertyPath: m_AnchorMax.y
      value: 0
      objectReference: {fileID: 0}
    - target: {fileID: 1701099356206454378, guid: 752f45f5255243c4e8d21755089b76d5,
        type: 3}
      propertyPath: m_AnchoredPosition.x
      value: 0
      objectReference: {fileID: 0}
    - target: {fileID: 1701099356206454378, guid: 752f45f5255243c4e8d21755089b76d5,
        type: 3}
      propertyPath: m_AnchoredPosition.y
      value: 0
      objectReference: {fileID: 0}
    - target: {fileID: 1701099356206454378, guid: 752f45f5255243c4e8d21755089b76d5,
        type: 3}
      propertyPath: m_SizeDelta.x
      value: 0
      objectReference: {fileID: 0}
    - target: {fileID: 1701099356206454378, guid: 752f45f5255243c4e8d21755089b76d5,
        type: 3}
      propertyPath: m_SizeDelta.y
      value: 0
      objectReference: {fileID: 0}
    - target: {fileID: 1729721983382679809, guid: 752f45f5255243c4e8d21755089b76d5,
        type: 3}
      propertyPath: m_AnchorMin.y
      value: 0
      objectReference: {fileID: 0}
    - target: {fileID: 1729721983382679809, guid: 752f45f5255243c4e8d21755089b76d5,
        type: 3}
      propertyPath: m_AnchorMax.y
      value: 0
      objectReference: {fileID: 0}
    - target: {fileID: 1729721983382679809, guid: 752f45f5255243c4e8d21755089b76d5,
        type: 3}
      propertyPath: m_AnchoredPosition.x
      value: 0
      objectReference: {fileID: 0}
    - target: {fileID: 1729721983382679809, guid: 752f45f5255243c4e8d21755089b76d5,
        type: 3}
      propertyPath: m_AnchoredPosition.y
      value: 0
      objectReference: {fileID: 0}
    - target: {fileID: 1729721983382679809, guid: 752f45f5255243c4e8d21755089b76d5,
        type: 3}
      propertyPath: m_SizeDelta.x
      value: 0
      objectReference: {fileID: 0}
    - target: {fileID: 1729721983382679809, guid: 752f45f5255243c4e8d21755089b76d5,
        type: 3}
      propertyPath: m_SizeDelta.y
      value: 0
      objectReference: {fileID: 0}
    - target: {fileID: 1758152627889785718, guid: 752f45f5255243c4e8d21755089b76d5,
        type: 3}
      propertyPath: m_AnchorMin.y
      value: 0
      objectReference: {fileID: 0}
    - target: {fileID: 1758152627889785718, guid: 752f45f5255243c4e8d21755089b76d5,
        type: 3}
      propertyPath: m_AnchorMax.y
      value: 0
      objectReference: {fileID: 0}
    - target: {fileID: 1758152627889785718, guid: 752f45f5255243c4e8d21755089b76d5,
        type: 3}
      propertyPath: m_AnchoredPosition.x
      value: 0
      objectReference: {fileID: 0}
    - target: {fileID: 1758152627889785718, guid: 752f45f5255243c4e8d21755089b76d5,
        type: 3}
      propertyPath: m_AnchoredPosition.y
      value: 0
      objectReference: {fileID: 0}
    - target: {fileID: 1758152627889785718, guid: 752f45f5255243c4e8d21755089b76d5,
        type: 3}
      propertyPath: m_SizeDelta.x
      value: 0
      objectReference: {fileID: 0}
    - target: {fileID: 1758152627889785718, guid: 752f45f5255243c4e8d21755089b76d5,
        type: 3}
      propertyPath: m_SizeDelta.y
      value: 0
      objectReference: {fileID: 0}
    - target: {fileID: 1818606598531468907, guid: 752f45f5255243c4e8d21755089b76d5,
        type: 3}
      propertyPath: m_SizeDelta.x
      value: 0
      objectReference: {fileID: 0}
    - target: {fileID: 1818606598531468907, guid: 752f45f5255243c4e8d21755089b76d5,
        type: 3}
      propertyPath: m_SizeDelta.y
      value: 0
      objectReference: {fileID: 0}
    - target: {fileID: 1829851782341168511, guid: 752f45f5255243c4e8d21755089b76d5,
        type: 3}
      propertyPath: m_SizeDelta.x
      value: 0
      objectReference: {fileID: 0}
    - target: {fileID: 1829851782341168511, guid: 752f45f5255243c4e8d21755089b76d5,
        type: 3}
      propertyPath: m_SizeDelta.y
      value: 0
      objectReference: {fileID: 0}
    - target: {fileID: 1857461660528577151, guid: 752f45f5255243c4e8d21755089b76d5,
        type: 3}
      propertyPath: m_AnchorMin.y
      value: 0
      objectReference: {fileID: 0}
    - target: {fileID: 1857461660528577151, guid: 752f45f5255243c4e8d21755089b76d5,
        type: 3}
      propertyPath: m_AnchorMax.y
      value: 0
      objectReference: {fileID: 0}
    - target: {fileID: 1857461660528577151, guid: 752f45f5255243c4e8d21755089b76d5,
        type: 3}
      propertyPath: m_AnchoredPosition.x
      value: 0
      objectReference: {fileID: 0}
    - target: {fileID: 1857461660528577151, guid: 752f45f5255243c4e8d21755089b76d5,
        type: 3}
      propertyPath: m_AnchoredPosition.y
      value: 0
      objectReference: {fileID: 0}
    - target: {fileID: 1857461660528577151, guid: 752f45f5255243c4e8d21755089b76d5,
        type: 3}
      propertyPath: m_SizeDelta.x
      value: 0
      objectReference: {fileID: 0}
    - target: {fileID: 1857461660528577151, guid: 752f45f5255243c4e8d21755089b76d5,
        type: 3}
      propertyPath: m_SizeDelta.y
      value: 0
      objectReference: {fileID: 0}
    - target: {fileID: 1925991911768620408, guid: 752f45f5255243c4e8d21755089b76d5,
        type: 3}
      propertyPath: m_SizeDelta.x
      value: 0
      objectReference: {fileID: 0}
    - target: {fileID: 1925991911768620408, guid: 752f45f5255243c4e8d21755089b76d5,
        type: 3}
      propertyPath: m_SizeDelta.y
      value: 0
      objectReference: {fileID: 0}
    - target: {fileID: 1992744782139332267, guid: 752f45f5255243c4e8d21755089b76d5,
        type: 3}
      propertyPath: m_AnchorMin.y
      value: 0
      objectReference: {fileID: 0}
    - target: {fileID: 1992744782139332267, guid: 752f45f5255243c4e8d21755089b76d5,
        type: 3}
      propertyPath: m_AnchorMax.y
      value: 0
      objectReference: {fileID: 0}
    - target: {fileID: 1992744782139332267, guid: 752f45f5255243c4e8d21755089b76d5,
        type: 3}
      propertyPath: m_AnchoredPosition.x
      value: 0
      objectReference: {fileID: 0}
    - target: {fileID: 1992744782139332267, guid: 752f45f5255243c4e8d21755089b76d5,
        type: 3}
      propertyPath: m_AnchoredPosition.y
      value: 0
      objectReference: {fileID: 0}
    - target: {fileID: 1992744782139332267, guid: 752f45f5255243c4e8d21755089b76d5,
        type: 3}
      propertyPath: m_SizeDelta.x
      value: 0
      objectReference: {fileID: 0}
    - target: {fileID: 1992744782139332267, guid: 752f45f5255243c4e8d21755089b76d5,
        type: 3}
      propertyPath: m_SizeDelta.y
      value: 0
      objectReference: {fileID: 0}
    - target: {fileID: 2008482636342452124, guid: 752f45f5255243c4e8d21755089b76d5,
        type: 3}
      propertyPath: m_SizeDelta.x
      value: 0
      objectReference: {fileID: 0}
    - target: {fileID: 2008482636342452124, guid: 752f45f5255243c4e8d21755089b76d5,
        type: 3}
      propertyPath: m_SizeDelta.y
      value: 0
      objectReference: {fileID: 0}
    - target: {fileID: 2137223122218350236, guid: 752f45f5255243c4e8d21755089b76d5,
        type: 3}
      propertyPath: m_SizeDelta.x
      value: 0
      objectReference: {fileID: 0}
    - target: {fileID: 2137223122218350236, guid: 752f45f5255243c4e8d21755089b76d5,
        type: 3}
      propertyPath: m_SizeDelta.y
      value: 0
      objectReference: {fileID: 0}
    - target: {fileID: 2142013141672324653, guid: 752f45f5255243c4e8d21755089b76d5,
        type: 3}
      propertyPath: m_SizeDelta.x
      value: 0
      objectReference: {fileID: 0}
    - target: {fileID: 2142013141672324653, guid: 752f45f5255243c4e8d21755089b76d5,
        type: 3}
      propertyPath: m_SizeDelta.y
      value: 0
      objectReference: {fileID: 0}
    - target: {fileID: 2242452191469381772, guid: 752f45f5255243c4e8d21755089b76d5,
        type: 3}
      propertyPath: m_SizeDelta.x
      value: 0
      objectReference: {fileID: 0}
    - target: {fileID: 2242452191469381772, guid: 752f45f5255243c4e8d21755089b76d5,
        type: 3}
      propertyPath: m_SizeDelta.y
      value: 0
      objectReference: {fileID: 0}
    - target: {fileID: 2347676280425271764, guid: 752f45f5255243c4e8d21755089b76d5,
        type: 3}
      propertyPath: m_SizeDelta.x
      value: 0
      objectReference: {fileID: 0}
    - target: {fileID: 2347676280425271764, guid: 752f45f5255243c4e8d21755089b76d5,
        type: 3}
      propertyPath: m_SizeDelta.y
      value: 0
      objectReference: {fileID: 0}
    - target: {fileID: 2442253197581758293, guid: 752f45f5255243c4e8d21755089b76d5,
        type: 3}
      propertyPath: m_SizeDelta.x
      value: 0
      objectReference: {fileID: 0}
    - target: {fileID: 2442253197581758293, guid: 752f45f5255243c4e8d21755089b76d5,
        type: 3}
      propertyPath: m_SizeDelta.y
      value: 0
      objectReference: {fileID: 0}
    - target: {fileID: 2553098189807036564, guid: 752f45f5255243c4e8d21755089b76d5,
        type: 3}
      propertyPath: m_SizeDelta.x
      value: 0
      objectReference: {fileID: 0}
    - target: {fileID: 2553098189807036564, guid: 752f45f5255243c4e8d21755089b76d5,
        type: 3}
      propertyPath: m_SizeDelta.y
      value: 0
      objectReference: {fileID: 0}
    - target: {fileID: 2693304323668569031, guid: 752f45f5255243c4e8d21755089b76d5,
        type: 3}
      propertyPath: m_SizeDelta.x
      value: 0
      objectReference: {fileID: 0}
    - target: {fileID: 2693304323668569031, guid: 752f45f5255243c4e8d21755089b76d5,
        type: 3}
      propertyPath: m_SizeDelta.y
      value: 0
      objectReference: {fileID: 0}
    - target: {fileID: 2728342882079749428, guid: 752f45f5255243c4e8d21755089b76d5,
        type: 3}
      propertyPath: m_SizeDelta.x
      value: 0
      objectReference: {fileID: 0}
    - target: {fileID: 2728342882079749428, guid: 752f45f5255243c4e8d21755089b76d5,
        type: 3}
      propertyPath: m_SizeDelta.y
      value: 0
      objectReference: {fileID: 0}
    - target: {fileID: 2768723114385974375, guid: 752f45f5255243c4e8d21755089b76d5,
        type: 3}
      propertyPath: m_AnchorMin.y
      value: 0
      objectReference: {fileID: 0}
    - target: {fileID: 2768723114385974375, guid: 752f45f5255243c4e8d21755089b76d5,
        type: 3}
      propertyPath: m_AnchorMax.y
      value: 0
      objectReference: {fileID: 0}
    - target: {fileID: 2768723114385974375, guid: 752f45f5255243c4e8d21755089b76d5,
        type: 3}
      propertyPath: m_AnchoredPosition.x
      value: 0
      objectReference: {fileID: 0}
    - target: {fileID: 2768723114385974375, guid: 752f45f5255243c4e8d21755089b76d5,
        type: 3}
      propertyPath: m_AnchoredPosition.y
      value: 0
      objectReference: {fileID: 0}
    - target: {fileID: 2768723114385974375, guid: 752f45f5255243c4e8d21755089b76d5,
        type: 3}
      propertyPath: m_SizeDelta.x
      value: 0
      objectReference: {fileID: 0}
    - target: {fileID: 2768723114385974375, guid: 752f45f5255243c4e8d21755089b76d5,
        type: 3}
      propertyPath: m_SizeDelta.y
      value: 0
      objectReference: {fileID: 0}
    - target: {fileID: 2860623881163471626, guid: 752f45f5255243c4e8d21755089b76d5,
        type: 3}
      propertyPath: tier.minInt
      value: 4
      objectReference: {fileID: 0}
    - target: {fileID: 2873903610154206444, guid: 752f45f5255243c4e8d21755089b76d5,
        type: 3}
      propertyPath: m_SizeDelta.x
      value: 0
      objectReference: {fileID: 0}
    - target: {fileID: 2873903610154206444, guid: 752f45f5255243c4e8d21755089b76d5,
        type: 3}
      propertyPath: m_SizeDelta.y
      value: 0
      objectReference: {fileID: 0}
    - target: {fileID: 2916894883700668530, guid: 752f45f5255243c4e8d21755089b76d5,
        type: 3}
      propertyPath: tier.minInt
      value: 4
      objectReference: {fileID: 0}
    - target: {fileID: 3260619562052345520, guid: 752f45f5255243c4e8d21755089b76d5,
        type: 3}
      propertyPath: m_AnchorMin.y
      value: 0
      objectReference: {fileID: 0}
    - target: {fileID: 3260619562052345520, guid: 752f45f5255243c4e8d21755089b76d5,
        type: 3}
      propertyPath: m_AnchorMax.y
      value: 0
      objectReference: {fileID: 0}
    - target: {fileID: 3260619562052345520, guid: 752f45f5255243c4e8d21755089b76d5,
        type: 3}
      propertyPath: m_AnchoredPosition.x
      value: 0
      objectReference: {fileID: 0}
    - target: {fileID: 3260619562052345520, guid: 752f45f5255243c4e8d21755089b76d5,
        type: 3}
      propertyPath: m_AnchoredPosition.y
      value: 0
      objectReference: {fileID: 0}
    - target: {fileID: 3260619562052345520, guid: 752f45f5255243c4e8d21755089b76d5,
        type: 3}
      propertyPath: m_SizeDelta.x
      value: 0
      objectReference: {fileID: 0}
    - target: {fileID: 3260619562052345520, guid: 752f45f5255243c4e8d21755089b76d5,
        type: 3}
      propertyPath: m_SizeDelta.y
      value: 0
      objectReference: {fileID: 0}
    - target: {fileID: 3301755222000923761, guid: 752f45f5255243c4e8d21755089b76d5,
        type: 3}
      propertyPath: m_AnchorMin.y
      value: 0
      objectReference: {fileID: 0}
    - target: {fileID: 3301755222000923761, guid: 752f45f5255243c4e8d21755089b76d5,
        type: 3}
      propertyPath: m_AnchorMax.y
      value: 0
      objectReference: {fileID: 0}
    - target: {fileID: 3301755222000923761, guid: 752f45f5255243c4e8d21755089b76d5,
        type: 3}
      propertyPath: m_AnchoredPosition.x
      value: 0
      objectReference: {fileID: 0}
    - target: {fileID: 3301755222000923761, guid: 752f45f5255243c4e8d21755089b76d5,
        type: 3}
      propertyPath: m_AnchoredPosition.y
      value: 0
      objectReference: {fileID: 0}
    - target: {fileID: 3301755222000923761, guid: 752f45f5255243c4e8d21755089b76d5,
        type: 3}
      propertyPath: m_SizeDelta.x
      value: 0
      objectReference: {fileID: 0}
    - target: {fileID: 3301755222000923761, guid: 752f45f5255243c4e8d21755089b76d5,
        type: 3}
      propertyPath: m_SizeDelta.y
      value: 0
      objectReference: {fileID: 0}
    - target: {fileID: 3306015598848555435, guid: 752f45f5255243c4e8d21755089b76d5,
        type: 3}
      propertyPath: m_AnchorMin.y
      value: 0
      objectReference: {fileID: 0}
    - target: {fileID: 3306015598848555435, guid: 752f45f5255243c4e8d21755089b76d5,
        type: 3}
      propertyPath: m_AnchorMax.y
      value: 0
      objectReference: {fileID: 0}
    - target: {fileID: 3306015598848555435, guid: 752f45f5255243c4e8d21755089b76d5,
        type: 3}
      propertyPath: m_AnchoredPosition.x
      value: 0
      objectReference: {fileID: 0}
    - target: {fileID: 3306015598848555435, guid: 752f45f5255243c4e8d21755089b76d5,
        type: 3}
      propertyPath: m_AnchoredPosition.y
      value: 0
      objectReference: {fileID: 0}
    - target: {fileID: 3306015598848555435, guid: 752f45f5255243c4e8d21755089b76d5,
        type: 3}
      propertyPath: m_SizeDelta.x
      value: 0
      objectReference: {fileID: 0}
    - target: {fileID: 3306015598848555435, guid: 752f45f5255243c4e8d21755089b76d5,
        type: 3}
      propertyPath: m_SizeDelta.y
      value: 0
      objectReference: {fileID: 0}
    - target: {fileID: 3377128448874932963, guid: 752f45f5255243c4e8d21755089b76d5,
        type: 3}
      propertyPath: tier.minInt
      value: 2
      objectReference: {fileID: 0}
    - target: {fileID: 3437032414039744748, guid: 752f45f5255243c4e8d21755089b76d5,
        type: 3}
      propertyPath: m_AnchorMin.y
      value: 0
      objectReference: {fileID: 0}
    - target: {fileID: 3437032414039744748, guid: 752f45f5255243c4e8d21755089b76d5,
        type: 3}
      propertyPath: m_AnchorMax.y
      value: 0
      objectReference: {fileID: 0}
    - target: {fileID: 3437032414039744748, guid: 752f45f5255243c4e8d21755089b76d5,
        type: 3}
      propertyPath: m_AnchoredPosition.x
      value: 0
      objectReference: {fileID: 0}
    - target: {fileID: 3437032414039744748, guid: 752f45f5255243c4e8d21755089b76d5,
        type: 3}
      propertyPath: m_AnchoredPosition.y
      value: 0
      objectReference: {fileID: 0}
    - target: {fileID: 3437032414039744748, guid: 752f45f5255243c4e8d21755089b76d5,
        type: 3}
      propertyPath: m_SizeDelta.x
      value: 0
      objectReference: {fileID: 0}
    - target: {fileID: 3437032414039744748, guid: 752f45f5255243c4e8d21755089b76d5,
        type: 3}
      propertyPath: m_SizeDelta.y
      value: 0
      objectReference: {fileID: 0}
    - target: {fileID: 3504270233541068854, guid: 752f45f5255243c4e8d21755089b76d5,
        type: 3}
      propertyPath: m_AnchorMin.y
      value: 0
      objectReference: {fileID: 0}
    - target: {fileID: 3504270233541068854, guid: 752f45f5255243c4e8d21755089b76d5,
        type: 3}
      propertyPath: m_AnchorMax.y
      value: 0
      objectReference: {fileID: 0}
    - target: {fileID: 3504270233541068854, guid: 752f45f5255243c4e8d21755089b76d5,
        type: 3}
      propertyPath: m_AnchoredPosition.x
      value: 0
      objectReference: {fileID: 0}
    - target: {fileID: 3504270233541068854, guid: 752f45f5255243c4e8d21755089b76d5,
        type: 3}
      propertyPath: m_AnchoredPosition.y
      value: 0
      objectReference: {fileID: 0}
    - target: {fileID: 3504270233541068854, guid: 752f45f5255243c4e8d21755089b76d5,
        type: 3}
      propertyPath: m_SizeDelta.x
      value: 0
      objectReference: {fileID: 0}
    - target: {fileID: 3504270233541068854, guid: 752f45f5255243c4e8d21755089b76d5,
        type: 3}
      propertyPath: m_SizeDelta.y
      value: 0
      objectReference: {fileID: 0}
    - target: {fileID: 3511383948780960531, guid: 752f45f5255243c4e8d21755089b76d5,
        type: 3}
      propertyPath: m_AnchorMin.y
      value: 0
      objectReference: {fileID: 0}
    - target: {fileID: 3511383948780960531, guid: 752f45f5255243c4e8d21755089b76d5,
        type: 3}
      propertyPath: m_AnchorMax.y
      value: 0
      objectReference: {fileID: 0}
    - target: {fileID: 3511383948780960531, guid: 752f45f5255243c4e8d21755089b76d5,
        type: 3}
      propertyPath: m_AnchoredPosition.x
      value: 0
      objectReference: {fileID: 0}
    - target: {fileID: 3511383948780960531, guid: 752f45f5255243c4e8d21755089b76d5,
        type: 3}
      propertyPath: m_AnchoredPosition.y
      value: 0
      objectReference: {fileID: 0}
    - target: {fileID: 3511383948780960531, guid: 752f45f5255243c4e8d21755089b76d5,
        type: 3}
      propertyPath: m_SizeDelta.x
      value: 0
      objectReference: {fileID: 0}
    - target: {fileID: 3511383948780960531, guid: 752f45f5255243c4e8d21755089b76d5,
        type: 3}
      propertyPath: m_SizeDelta.y
      value: 0
      objectReference: {fileID: 0}
    - target: {fileID: 3522741455090096094, guid: 752f45f5255243c4e8d21755089b76d5,
        type: 3}
      propertyPath: m_AnchorMin.y
      value: 0
      objectReference: {fileID: 0}
    - target: {fileID: 3522741455090096094, guid: 752f45f5255243c4e8d21755089b76d5,
        type: 3}
      propertyPath: m_AnchorMax.y
      value: 0
      objectReference: {fileID: 0}
    - target: {fileID: 3522741455090096094, guid: 752f45f5255243c4e8d21755089b76d5,
        type: 3}
      propertyPath: m_AnchoredPosition.x
      value: 0
      objectReference: {fileID: 0}
    - target: {fileID: 3522741455090096094, guid: 752f45f5255243c4e8d21755089b76d5,
        type: 3}
      propertyPath: m_AnchoredPosition.y
      value: 0
      objectReference: {fileID: 0}
    - target: {fileID: 3522741455090096094, guid: 752f45f5255243c4e8d21755089b76d5,
        type: 3}
      propertyPath: m_SizeDelta.x
      value: 0
      objectReference: {fileID: 0}
    - target: {fileID: 3522741455090096094, guid: 752f45f5255243c4e8d21755089b76d5,
        type: 3}
      propertyPath: m_SizeDelta.y
      value: 0
      objectReference: {fileID: 0}
    - target: {fileID: 3576126999153003952, guid: 752f45f5255243c4e8d21755089b76d5,
        type: 3}
      propertyPath: m_SizeDelta.x
      value: 0
      objectReference: {fileID: 0}
    - target: {fileID: 3576126999153003952, guid: 752f45f5255243c4e8d21755089b76d5,
        type: 3}
      propertyPath: m_SizeDelta.y
      value: 0
      objectReference: {fileID: 0}
    - target: {fileID: 3763506218636389877, guid: 752f45f5255243c4e8d21755089b76d5,
        type: 3}
      propertyPath: m_SizeDelta.x
      value: 0
      objectReference: {fileID: 0}
    - target: {fileID: 3763506218636389877, guid: 752f45f5255243c4e8d21755089b76d5,
        type: 3}
      propertyPath: m_SizeDelta.y
      value: 0
      objectReference: {fileID: 0}
    - target: {fileID: 3799310510835628246, guid: 752f45f5255243c4e8d21755089b76d5,
        type: 3}
      propertyPath: m_SizeDelta.x
      value: 0
      objectReference: {fileID: 0}
    - target: {fileID: 3799310510835628246, guid: 752f45f5255243c4e8d21755089b76d5,
        type: 3}
      propertyPath: m_SizeDelta.y
      value: 0
      objectReference: {fileID: 0}
    - target: {fileID: 3801634233696440990, guid: 752f45f5255243c4e8d21755089b76d5,
        type: 3}
      propertyPath: m_SizeDelta.x
      value: 0
      objectReference: {fileID: 0}
    - target: {fileID: 3801634233696440990, guid: 752f45f5255243c4e8d21755089b76d5,
        type: 3}
      propertyPath: m_SizeDelta.y
      value: 0
      objectReference: {fileID: 0}
    - target: {fileID: 4001595998471336655, guid: 752f45f5255243c4e8d21755089b76d5,
        type: 3}
      propertyPath: m_AnchorMin.y
      value: 0
      objectReference: {fileID: 0}
    - target: {fileID: 4001595998471336655, guid: 752f45f5255243c4e8d21755089b76d5,
        type: 3}
      propertyPath: m_AnchorMax.y
      value: 0
      objectReference: {fileID: 0}
    - target: {fileID: 4001595998471336655, guid: 752f45f5255243c4e8d21755089b76d5,
        type: 3}
      propertyPath: m_AnchoredPosition.x
      value: 0
      objectReference: {fileID: 0}
    - target: {fileID: 4001595998471336655, guid: 752f45f5255243c4e8d21755089b76d5,
        type: 3}
      propertyPath: m_AnchoredPosition.y
      value: 0
      objectReference: {fileID: 0}
    - target: {fileID: 4001595998471336655, guid: 752f45f5255243c4e8d21755089b76d5,
        type: 3}
      propertyPath: m_SizeDelta.x
      value: 0
      objectReference: {fileID: 0}
    - target: {fileID: 4001595998471336655, guid: 752f45f5255243c4e8d21755089b76d5,
        type: 3}
      propertyPath: m_SizeDelta.y
      value: 0
      objectReference: {fileID: 0}
    - target: {fileID: 4021821036713473313, guid: 752f45f5255243c4e8d21755089b76d5,
        type: 3}
      propertyPath: m_AnchorMin.y
      value: 0
      objectReference: {fileID: 0}
    - target: {fileID: 4021821036713473313, guid: 752f45f5255243c4e8d21755089b76d5,
        type: 3}
      propertyPath: m_AnchorMax.y
      value: 0
      objectReference: {fileID: 0}
    - target: {fileID: 4021821036713473313, guid: 752f45f5255243c4e8d21755089b76d5,
        type: 3}
      propertyPath: m_AnchoredPosition.x
      value: 0
      objectReference: {fileID: 0}
    - target: {fileID: 4021821036713473313, guid: 752f45f5255243c4e8d21755089b76d5,
        type: 3}
      propertyPath: m_AnchoredPosition.y
      value: 0
      objectReference: {fileID: 0}
    - target: {fileID: 4021821036713473313, guid: 752f45f5255243c4e8d21755089b76d5,
        type: 3}
      propertyPath: m_SizeDelta.x
      value: 0
      objectReference: {fileID: 0}
    - target: {fileID: 4021821036713473313, guid: 752f45f5255243c4e8d21755089b76d5,
        type: 3}
      propertyPath: m_SizeDelta.y
      value: 0
      objectReference: {fileID: 0}
    - target: {fileID: 4044384452646873582, guid: 752f45f5255243c4e8d21755089b76d5,
        type: 3}
      propertyPath: m_SizeDelta.x
      value: 0
      objectReference: {fileID: 0}
    - target: {fileID: 4044384452646873582, guid: 752f45f5255243c4e8d21755089b76d5,
        type: 3}
      propertyPath: m_SizeDelta.y
      value: 0
      objectReference: {fileID: 0}
    - target: {fileID: 4069734153044287745, guid: 752f45f5255243c4e8d21755089b76d5,
        type: 3}
      propertyPath: m_AnchorMin.y
      value: 0
      objectReference: {fileID: 0}
    - target: {fileID: 4069734153044287745, guid: 752f45f5255243c4e8d21755089b76d5,
        type: 3}
      propertyPath: m_AnchorMax.y
      value: 0
      objectReference: {fileID: 0}
    - target: {fileID: 4069734153044287745, guid: 752f45f5255243c4e8d21755089b76d5,
        type: 3}
      propertyPath: m_AnchoredPosition.x
      value: 0
      objectReference: {fileID: 0}
    - target: {fileID: 4069734153044287745, guid: 752f45f5255243c4e8d21755089b76d5,
        type: 3}
      propertyPath: m_AnchoredPosition.y
      value: 0
      objectReference: {fileID: 0}
    - target: {fileID: 4069734153044287745, guid: 752f45f5255243c4e8d21755089b76d5,
        type: 3}
      propertyPath: m_SizeDelta.x
      value: 0
      objectReference: {fileID: 0}
    - target: {fileID: 4069734153044287745, guid: 752f45f5255243c4e8d21755089b76d5,
        type: 3}
      propertyPath: m_SizeDelta.y
      value: 0
      objectReference: {fileID: 0}
    - target: {fileID: 4136951043870990018, guid: 752f45f5255243c4e8d21755089b76d5,
        type: 3}
      propertyPath: m_SizeDelta.x
      value: 0
      objectReference: {fileID: 0}
    - target: {fileID: 4136951043870990018, guid: 752f45f5255243c4e8d21755089b76d5,
        type: 3}
      propertyPath: m_SizeDelta.y
      value: 0
      objectReference: {fileID: 0}
    - target: {fileID: 4161304368265644161, guid: 752f45f5255243c4e8d21755089b76d5,
        type: 3}
      propertyPath: m_SizeDelta.x
      value: 0
      objectReference: {fileID: 0}
    - target: {fileID: 4161304368265644161, guid: 752f45f5255243c4e8d21755089b76d5,
        type: 3}
      propertyPath: m_SizeDelta.y
      value: 0
      objectReference: {fileID: 0}
    - target: {fileID: 4312317629731227550, guid: 752f45f5255243c4e8d21755089b76d5,
        type: 3}
      propertyPath: m_AnchorMin.y
      value: 0
      objectReference: {fileID: 0}
    - target: {fileID: 4312317629731227550, guid: 752f45f5255243c4e8d21755089b76d5,
        type: 3}
      propertyPath: m_AnchorMax.y
      value: 0
      objectReference: {fileID: 0}
    - target: {fileID: 4312317629731227550, guid: 752f45f5255243c4e8d21755089b76d5,
        type: 3}
      propertyPath: m_AnchoredPosition.x
      value: 0
      objectReference: {fileID: 0}
    - target: {fileID: 4312317629731227550, guid: 752f45f5255243c4e8d21755089b76d5,
        type: 3}
      propertyPath: m_AnchoredPosition.y
      value: 0
      objectReference: {fileID: 0}
    - target: {fileID: 4312317629731227550, guid: 752f45f5255243c4e8d21755089b76d5,
        type: 3}
      propertyPath: m_SizeDelta.x
      value: 0
      objectReference: {fileID: 0}
    - target: {fileID: 4312317629731227550, guid: 752f45f5255243c4e8d21755089b76d5,
        type: 3}
      propertyPath: m_SizeDelta.y
      value: 0
      objectReference: {fileID: 0}
    - target: {fileID: 4344040869211159667, guid: 752f45f5255243c4e8d21755089b76d5,
        type: 3}
      propertyPath: m_AnchorMin.y
      value: 0
      objectReference: {fileID: 0}
    - target: {fileID: 4344040869211159667, guid: 752f45f5255243c4e8d21755089b76d5,
        type: 3}
      propertyPath: m_AnchorMax.y
      value: 0
      objectReference: {fileID: 0}
    - target: {fileID: 4344040869211159667, guid: 752f45f5255243c4e8d21755089b76d5,
        type: 3}
      propertyPath: m_AnchoredPosition.x
      value: 0
      objectReference: {fileID: 0}
    - target: {fileID: 4344040869211159667, guid: 752f45f5255243c4e8d21755089b76d5,
        type: 3}
      propertyPath: m_AnchoredPosition.y
      value: 0
      objectReference: {fileID: 0}
    - target: {fileID: 4344040869211159667, guid: 752f45f5255243c4e8d21755089b76d5,
        type: 3}
      propertyPath: m_SizeDelta.x
      value: 0
      objectReference: {fileID: 0}
    - target: {fileID: 4344040869211159667, guid: 752f45f5255243c4e8d21755089b76d5,
        type: 3}
      propertyPath: m_SizeDelta.y
      value: 0
      objectReference: {fileID: 0}
    - target: {fileID: 4629696447255024469, guid: 752f45f5255243c4e8d21755089b76d5,
        type: 3}
      propertyPath: m_AnchorMin.y
      value: 0
      objectReference: {fileID: 0}
    - target: {fileID: 4629696447255024469, guid: 752f45f5255243c4e8d21755089b76d5,
        type: 3}
      propertyPath: m_AnchorMax.y
      value: 0
      objectReference: {fileID: 0}
    - target: {fileID: 4629696447255024469, guid: 752f45f5255243c4e8d21755089b76d5,
        type: 3}
      propertyPath: m_AnchoredPosition.x
      value: 0
      objectReference: {fileID: 0}
    - target: {fileID: 4629696447255024469, guid: 752f45f5255243c4e8d21755089b76d5,
        type: 3}
      propertyPath: m_AnchoredPosition.y
      value: 0
      objectReference: {fileID: 0}
    - target: {fileID: 4629696447255024469, guid: 752f45f5255243c4e8d21755089b76d5,
        type: 3}
      propertyPath: m_SizeDelta.x
      value: 0
      objectReference: {fileID: 0}
    - target: {fileID: 4629696447255024469, guid: 752f45f5255243c4e8d21755089b76d5,
        type: 3}
      propertyPath: m_SizeDelta.y
      value: 0
      objectReference: {fileID: 0}
    - target: {fileID: 4806802545430107284, guid: 752f45f5255243c4e8d21755089b76d5,
        type: 3}
      propertyPath: m_AnchorMin.y
      value: 0
      objectReference: {fileID: 0}
    - target: {fileID: 4806802545430107284, guid: 752f45f5255243c4e8d21755089b76d5,
        type: 3}
      propertyPath: m_AnchorMax.y
      value: 0
      objectReference: {fileID: 0}
    - target: {fileID: 4806802545430107284, guid: 752f45f5255243c4e8d21755089b76d5,
        type: 3}
      propertyPath: m_AnchoredPosition.x
      value: 0
      objectReference: {fileID: 0}
    - target: {fileID: 4806802545430107284, guid: 752f45f5255243c4e8d21755089b76d5,
        type: 3}
      propertyPath: m_AnchoredPosition.y
      value: 0
      objectReference: {fileID: 0}
    - target: {fileID: 4806802545430107284, guid: 752f45f5255243c4e8d21755089b76d5,
        type: 3}
      propertyPath: m_SizeDelta.x
      value: 0
      objectReference: {fileID: 0}
    - target: {fileID: 4806802545430107284, guid: 752f45f5255243c4e8d21755089b76d5,
        type: 3}
      propertyPath: m_SizeDelta.y
      value: 0
      objectReference: {fileID: 0}
    - target: {fileID: 4883324790204131861, guid: 752f45f5255243c4e8d21755089b76d5,
        type: 3}
      propertyPath: m_AnchorMin.y
      value: 0
      objectReference: {fileID: 0}
    - target: {fileID: 4883324790204131861, guid: 752f45f5255243c4e8d21755089b76d5,
        type: 3}
      propertyPath: m_AnchorMax.y
      value: 0
      objectReference: {fileID: 0}
    - target: {fileID: 4883324790204131861, guid: 752f45f5255243c4e8d21755089b76d5,
        type: 3}
      propertyPath: m_AnchoredPosition.x
      value: 0
      objectReference: {fileID: 0}
    - target: {fileID: 4883324790204131861, guid: 752f45f5255243c4e8d21755089b76d5,
        type: 3}
      propertyPath: m_AnchoredPosition.y
      value: 0
      objectReference: {fileID: 0}
    - target: {fileID: 4883324790204131861, guid: 752f45f5255243c4e8d21755089b76d5,
        type: 3}
      propertyPath: m_SizeDelta.x
      value: 0
      objectReference: {fileID: 0}
    - target: {fileID: 4883324790204131861, guid: 752f45f5255243c4e8d21755089b76d5,
        type: 3}
      propertyPath: m_SizeDelta.y
      value: 0
      objectReference: {fileID: 0}
    - target: {fileID: 4923598677905307896, guid: 752f45f5255243c4e8d21755089b76d5,
        type: 3}
      propertyPath: m_Name
      value: ms_t3
      objectReference: {fileID: 0}
    - target: {fileID: 4950504092378496813, guid: 752f45f5255243c4e8d21755089b76d5,
        type: 3}
      propertyPath: m_AnchorMin.y
      value: 0
      objectReference: {fileID: 0}
    - target: {fileID: 4950504092378496813, guid: 752f45f5255243c4e8d21755089b76d5,
        type: 3}
      propertyPath: m_AnchorMax.y
      value: 0
      objectReference: {fileID: 0}
    - target: {fileID: 4950504092378496813, guid: 752f45f5255243c4e8d21755089b76d5,
        type: 3}
      propertyPath: m_AnchoredPosition.x
      value: 0
      objectReference: {fileID: 0}
    - target: {fileID: 4950504092378496813, guid: 752f45f5255243c4e8d21755089b76d5,
        type: 3}
      propertyPath: m_AnchoredPosition.y
      value: 0
      objectReference: {fileID: 0}
    - target: {fileID: 4950504092378496813, guid: 752f45f5255243c4e8d21755089b76d5,
        type: 3}
      propertyPath: m_SizeDelta.x
      value: 0
      objectReference: {fileID: 0}
    - target: {fileID: 4950504092378496813, guid: 752f45f5255243c4e8d21755089b76d5,
        type: 3}
      propertyPath: m_SizeDelta.y
      value: 0
      objectReference: {fileID: 0}
    - target: {fileID: 4989401409897209766, guid: 752f45f5255243c4e8d21755089b76d5,
        type: 3}
      propertyPath: m_SizeDelta.x
      value: 0
      objectReference: {fileID: 0}
    - target: {fileID: 4989401409897209766, guid: 752f45f5255243c4e8d21755089b76d5,
        type: 3}
      propertyPath: m_SizeDelta.y
      value: 0
      objectReference: {fileID: 0}
    - target: {fileID: 5057853708028334086, guid: 752f45f5255243c4e8d21755089b76d5,
        type: 3}
      propertyPath: m_AnchorMin.y
      value: 0
      objectReference: {fileID: 0}
    - target: {fileID: 5057853708028334086, guid: 752f45f5255243c4e8d21755089b76d5,
        type: 3}
      propertyPath: m_AnchorMax.y
      value: 0
      objectReference: {fileID: 0}
    - target: {fileID: 5057853708028334086, guid: 752f45f5255243c4e8d21755089b76d5,
        type: 3}
      propertyPath: m_AnchoredPosition.x
      value: 0
      objectReference: {fileID: 0}
    - target: {fileID: 5057853708028334086, guid: 752f45f5255243c4e8d21755089b76d5,
        type: 3}
      propertyPath: m_AnchoredPosition.y
      value: 0
      objectReference: {fileID: 0}
    - target: {fileID: 5057853708028334086, guid: 752f45f5255243c4e8d21755089b76d5,
        type: 3}
      propertyPath: m_SizeDelta.x
      value: 0
      objectReference: {fileID: 0}
    - target: {fileID: 5057853708028334086, guid: 752f45f5255243c4e8d21755089b76d5,
        type: 3}
      propertyPath: m_SizeDelta.y
      value: 0
      objectReference: {fileID: 0}
    - target: {fileID: 5083601082856640245, guid: 752f45f5255243c4e8d21755089b76d5,
        type: 3}
      propertyPath: m_AnchorMin.y
      value: 0
      objectReference: {fileID: 0}
    - target: {fileID: 5083601082856640245, guid: 752f45f5255243c4e8d21755089b76d5,
        type: 3}
      propertyPath: m_AnchorMax.y
      value: 0
      objectReference: {fileID: 0}
    - target: {fileID: 5083601082856640245, guid: 752f45f5255243c4e8d21755089b76d5,
        type: 3}
      propertyPath: m_AnchoredPosition.x
      value: 0
      objectReference: {fileID: 0}
    - target: {fileID: 5083601082856640245, guid: 752f45f5255243c4e8d21755089b76d5,
        type: 3}
      propertyPath: m_AnchoredPosition.y
      value: 0
      objectReference: {fileID: 0}
    - target: {fileID: 5083601082856640245, guid: 752f45f5255243c4e8d21755089b76d5,
        type: 3}
      propertyPath: m_SizeDelta.x
      value: 0
      objectReference: {fileID: 0}
    - target: {fileID: 5083601082856640245, guid: 752f45f5255243c4e8d21755089b76d5,
        type: 3}
      propertyPath: m_SizeDelta.y
      value: 0
      objectReference: {fileID: 0}
    - target: {fileID: 5540372985786243885, guid: 752f45f5255243c4e8d21755089b76d5,
        type: 3}
      propertyPath: m_SizeDelta.x
      value: 0
      objectReference: {fileID: 0}
    - target: {fileID: 5540372985786243885, guid: 752f45f5255243c4e8d21755089b76d5,
        type: 3}
      propertyPath: m_SizeDelta.y
      value: 0
      objectReference: {fileID: 0}
    - target: {fileID: 5581839254997953902, guid: 752f45f5255243c4e8d21755089b76d5,
        type: 3}
      propertyPath: m_LocalPosition.x
      value: 0
      objectReference: {fileID: 0}
    - target: {fileID: 5581839254997953902, guid: 752f45f5255243c4e8d21755089b76d5,
        type: 3}
      propertyPath: m_LocalPosition.y
      value: 0
      objectReference: {fileID: 0}
    - target: {fileID: 5581839254997953902, guid: 752f45f5255243c4e8d21755089b76d5,
        type: 3}
      propertyPath: m_LocalPosition.z
      value: 0
      objectReference: {fileID: 0}
    - target: {fileID: 5581839254997953902, guid: 752f45f5255243c4e8d21755089b76d5,
        type: 3}
      propertyPath: m_LocalRotation.x
      value: 0
      objectReference: {fileID: 0}
    - target: {fileID: 5581839254997953902, guid: 752f45f5255243c4e8d21755089b76d5,
        type: 3}
      propertyPath: m_LocalRotation.y
      value: 0
      objectReference: {fileID: 0}
    - target: {fileID: 5581839254997953902, guid: 752f45f5255243c4e8d21755089b76d5,
        type: 3}
      propertyPath: m_LocalRotation.z
      value: 0
      objectReference: {fileID: 0}
    - target: {fileID: 5581839254997953902, guid: 752f45f5255243c4e8d21755089b76d5,
        type: 3}
      propertyPath: m_LocalRotation.w
      value: 1
      objectReference: {fileID: 0}
    - target: {fileID: 5581839254997953902, guid: 752f45f5255243c4e8d21755089b76d5,
        type: 3}
      propertyPath: m_RootOrder
      value: 0
      objectReference: {fileID: 0}
    - target: {fileID: 5581839254997953902, guid: 752f45f5255243c4e8d21755089b76d5,
        type: 3}
      propertyPath: m_LocalEulerAnglesHint.x
      value: 0
      objectReference: {fileID: 0}
    - target: {fileID: 5581839254997953902, guid: 752f45f5255243c4e8d21755089b76d5,
        type: 3}
      propertyPath: m_LocalEulerAnglesHint.y
      value: 0
      objectReference: {fileID: 0}
    - target: {fileID: 5581839254997953902, guid: 752f45f5255243c4e8d21755089b76d5,
        type: 3}
      propertyPath: m_LocalEulerAnglesHint.z
      value: 0
      objectReference: {fileID: 0}
    - target: {fileID: 5581839254997953902, guid: 752f45f5255243c4e8d21755089b76d5,
        type: 3}
      propertyPath: m_AnchoredPosition.x
      value: 0
      objectReference: {fileID: 0}
    - target: {fileID: 5581839254997953902, guid: 752f45f5255243c4e8d21755089b76d5,
        type: 3}
      propertyPath: m_AnchoredPosition.y
      value: 0
      objectReference: {fileID: 0}
    - target: {fileID: 5581839254997953902, guid: 752f45f5255243c4e8d21755089b76d5,
        type: 3}
      propertyPath: m_SizeDelta.x
      value: 1620
      objectReference: {fileID: 0}
    - target: {fileID: 5581839254997953902, guid: 752f45f5255243c4e8d21755089b76d5,
        type: 3}
      propertyPath: m_SizeDelta.y
      value: 1080
      objectReference: {fileID: 0}
    - target: {fileID: 5581839254997953902, guid: 752f45f5255243c4e8d21755089b76d5,
        type: 3}
      propertyPath: m_AnchorMin.x
      value: 0
      objectReference: {fileID: 0}
    - target: {fileID: 5581839254997953902, guid: 752f45f5255243c4e8d21755089b76d5,
        type: 3}
      propertyPath: m_AnchorMin.y
      value: 0.5
      objectReference: {fileID: 0}
    - target: {fileID: 5581839254997953902, guid: 752f45f5255243c4e8d21755089b76d5,
        type: 3}
      propertyPath: m_AnchorMax.x
      value: 0
      objectReference: {fileID: 0}
    - target: {fileID: 5581839254997953902, guid: 752f45f5255243c4e8d21755089b76d5,
        type: 3}
      propertyPath: m_AnchorMax.y
      value: 0.5
      objectReference: {fileID: 0}
    - target: {fileID: 5581839254997953902, guid: 752f45f5255243c4e8d21755089b76d5,
        type: 3}
      propertyPath: m_Pivot.x
      value: 0
      objectReference: {fileID: 0}
    - target: {fileID: 5581839254997953902, guid: 752f45f5255243c4e8d21755089b76d5,
        type: 3}
      propertyPath: m_Pivot.y
      value: 0.5
      objectReference: {fileID: 0}
    - target: {fileID: 5625450111060665713, guid: 752f45f5255243c4e8d21755089b76d5,
        type: 3}
      propertyPath: m_SizeDelta.x
      value: 0
      objectReference: {fileID: 0}
    - target: {fileID: 5625450111060665713, guid: 752f45f5255243c4e8d21755089b76d5,
        type: 3}
      propertyPath: m_SizeDelta.y
      value: 0
      objectReference: {fileID: 0}
    - target: {fileID: 5657543423885168560, guid: 752f45f5255243c4e8d21755089b76d5,
        type: 3}
      propertyPath: m_SizeDelta.x
      value: 0
      objectReference: {fileID: 0}
    - target: {fileID: 5657543423885168560, guid: 752f45f5255243c4e8d21755089b76d5,
        type: 3}
      propertyPath: m_SizeDelta.y
      value: 0
      objectReference: {fileID: 0}
    - target: {fileID: 5670245848884609642, guid: 752f45f5255243c4e8d21755089b76d5,
        type: 3}
      propertyPath: m_SizeDelta.x
      value: 0
      objectReference: {fileID: 0}
    - target: {fileID: 5670245848884609642, guid: 752f45f5255243c4e8d21755089b76d5,
        type: 3}
      propertyPath: m_SizeDelta.y
      value: 0
      objectReference: {fileID: 0}
    - target: {fileID: 5961860384887036835, guid: 752f45f5255243c4e8d21755089b76d5,
        type: 3}
      propertyPath: tier.maxInt
      value: 4
      objectReference: {fileID: 0}
    - target: {fileID: 5976669963003426417, guid: 752f45f5255243c4e8d21755089b76d5,
        type: 3}
      propertyPath: m_AnchorMin.y
      value: 0
      objectReference: {fileID: 0}
    - target: {fileID: 5976669963003426417, guid: 752f45f5255243c4e8d21755089b76d5,
        type: 3}
      propertyPath: m_AnchorMax.y
      value: 0
      objectReference: {fileID: 0}
    - target: {fileID: 5976669963003426417, guid: 752f45f5255243c4e8d21755089b76d5,
        type: 3}
      propertyPath: m_AnchoredPosition.x
      value: 0
      objectReference: {fileID: 0}
    - target: {fileID: 5976669963003426417, guid: 752f45f5255243c4e8d21755089b76d5,
        type: 3}
      propertyPath: m_AnchoredPosition.y
      value: 0
      objectReference: {fileID: 0}
    - target: {fileID: 5976669963003426417, guid: 752f45f5255243c4e8d21755089b76d5,
        type: 3}
      propertyPath: m_SizeDelta.x
      value: 0
      objectReference: {fileID: 0}
    - target: {fileID: 5976669963003426417, guid: 752f45f5255243c4e8d21755089b76d5,
        type: 3}
      propertyPath: m_SizeDelta.y
      value: 0
      objectReference: {fileID: 0}
    - target: {fileID: 6031124284243586079, guid: 752f45f5255243c4e8d21755089b76d5,
        type: 3}
      propertyPath: m_SizeDelta.x
      value: 0
      objectReference: {fileID: 0}
    - target: {fileID: 6031124284243586079, guid: 752f45f5255243c4e8d21755089b76d5,
        type: 3}
      propertyPath: m_SizeDelta.y
      value: 0
      objectReference: {fileID: 0}
    - target: {fileID: 6047032742162120914, guid: 752f45f5255243c4e8d21755089b76d5,
        type: 3}
      propertyPath: m_SizeDelta.x
      value: 0
      objectReference: {fileID: 0}
    - target: {fileID: 6047032742162120914, guid: 752f45f5255243c4e8d21755089b76d5,
        type: 3}
      propertyPath: m_SizeDelta.y
      value: 0
      objectReference: {fileID: 0}
    - target: {fileID: 6048398154575049719, guid: 752f45f5255243c4e8d21755089b76d5,
        type: 3}
      propertyPath: m_SizeDelta.x
      value: 0
      objectReference: {fileID: 0}
    - target: {fileID: 6048398154575049719, guid: 752f45f5255243c4e8d21755089b76d5,
        type: 3}
      propertyPath: m_SizeDelta.y
      value: 0
      objectReference: {fileID: 0}
    - target: {fileID: 6053094555936808667, guid: 752f45f5255243c4e8d21755089b76d5,
        type: 3}
      propertyPath: tier.minInt
      value: 2
      objectReference: {fileID: 0}
    - target: {fileID: 6089414020125544160, guid: 752f45f5255243c4e8d21755089b76d5,
        type: 3}
      propertyPath: m_SizeDelta.x
      value: 0
      objectReference: {fileID: 0}
    - target: {fileID: 6089414020125544160, guid: 752f45f5255243c4e8d21755089b76d5,
        type: 3}
      propertyPath: m_SizeDelta.y
      value: 0
      objectReference: {fileID: 0}
    - target: {fileID: 6113943801533827342, guid: 752f45f5255243c4e8d21755089b76d5,
        type: 3}
      propertyPath: m_SizeDelta.x
      value: 0
      objectReference: {fileID: 0}
    - target: {fileID: 6113943801533827342, guid: 752f45f5255243c4e8d21755089b76d5,
        type: 3}
      propertyPath: m_SizeDelta.y
      value: 0
      objectReference: {fileID: 0}
    - target: {fileID: 6299192078507808308, guid: 752f45f5255243c4e8d21755089b76d5,
        type: 3}
      propertyPath: m_AnchorMin.y
      value: 0
      objectReference: {fileID: 0}
    - target: {fileID: 6299192078507808308, guid: 752f45f5255243c4e8d21755089b76d5,
        type: 3}
      propertyPath: m_AnchorMax.y
      value: 0
      objectReference: {fileID: 0}
    - target: {fileID: 6299192078507808308, guid: 752f45f5255243c4e8d21755089b76d5,
        type: 3}
      propertyPath: m_AnchoredPosition.x
      value: 0
      objectReference: {fileID: 0}
    - target: {fileID: 6299192078507808308, guid: 752f45f5255243c4e8d21755089b76d5,
        type: 3}
      propertyPath: m_AnchoredPosition.y
      value: 0
      objectReference: {fileID: 0}
    - target: {fileID: 6299192078507808308, guid: 752f45f5255243c4e8d21755089b76d5,
        type: 3}
      propertyPath: m_SizeDelta.x
      value: 0
      objectReference: {fileID: 0}
    - target: {fileID: 6299192078507808308, guid: 752f45f5255243c4e8d21755089b76d5,
        type: 3}
      propertyPath: m_SizeDelta.y
      value: 0
      objectReference: {fileID: 0}
    - target: {fileID: 6310544823062554975, guid: 752f45f5255243c4e8d21755089b76d5,
        type: 3}
      propertyPath: m_AnchorMin.y
      value: 0
      objectReference: {fileID: 0}
    - target: {fileID: 6310544823062554975, guid: 752f45f5255243c4e8d21755089b76d5,
        type: 3}
      propertyPath: m_AnchorMax.y
      value: 0
      objectReference: {fileID: 0}
    - target: {fileID: 6310544823062554975, guid: 752f45f5255243c4e8d21755089b76d5,
        type: 3}
      propertyPath: m_AnchoredPosition.x
      value: 0
      objectReference: {fileID: 0}
    - target: {fileID: 6310544823062554975, guid: 752f45f5255243c4e8d21755089b76d5,
        type: 3}
      propertyPath: m_AnchoredPosition.y
      value: 0
      objectReference: {fileID: 0}
    - target: {fileID: 6310544823062554975, guid: 752f45f5255243c4e8d21755089b76d5,
        type: 3}
      propertyPath: m_SizeDelta.x
      value: 0
      objectReference: {fileID: 0}
    - target: {fileID: 6310544823062554975, guid: 752f45f5255243c4e8d21755089b76d5,
        type: 3}
      propertyPath: m_SizeDelta.y
      value: 0
      objectReference: {fileID: 0}
    - target: {fileID: 6334398512333177623, guid: 752f45f5255243c4e8d21755089b76d5,
        type: 3}
      propertyPath: m_AnchorMin.y
      value: 0
      objectReference: {fileID: 0}
    - target: {fileID: 6334398512333177623, guid: 752f45f5255243c4e8d21755089b76d5,
        type: 3}
      propertyPath: m_AnchorMax.y
      value: 0
      objectReference: {fileID: 0}
    - target: {fileID: 6334398512333177623, guid: 752f45f5255243c4e8d21755089b76d5,
        type: 3}
      propertyPath: m_AnchoredPosition.x
      value: 0
      objectReference: {fileID: 0}
    - target: {fileID: 6334398512333177623, guid: 752f45f5255243c4e8d21755089b76d5,
        type: 3}
      propertyPath: m_AnchoredPosition.y
      value: 0
      objectReference: {fileID: 0}
    - target: {fileID: 6334398512333177623, guid: 752f45f5255243c4e8d21755089b76d5,
        type: 3}
      propertyPath: m_SizeDelta.x
      value: 0
      objectReference: {fileID: 0}
    - target: {fileID: 6334398512333177623, guid: 752f45f5255243c4e8d21755089b76d5,
        type: 3}
      propertyPath: m_SizeDelta.y
      value: 0
      objectReference: {fileID: 0}
    - target: {fileID: 6379910912570752095, guid: 752f45f5255243c4e8d21755089b76d5,
        type: 3}
      propertyPath: m_SizeDelta.x
      value: 0
      objectReference: {fileID: 0}
    - target: {fileID: 6379910912570752095, guid: 752f45f5255243c4e8d21755089b76d5,
        type: 3}
      propertyPath: m_SizeDelta.y
      value: 0
      objectReference: {fileID: 0}
    - target: {fileID: 6501216727387251971, guid: 752f45f5255243c4e8d21755089b76d5,
        type: 3}
      propertyPath: m_AnchorMin.y
      value: 0
      objectReference: {fileID: 0}
    - target: {fileID: 6501216727387251971, guid: 752f45f5255243c4e8d21755089b76d5,
        type: 3}
      propertyPath: m_AnchorMax.y
      value: 0
      objectReference: {fileID: 0}
    - target: {fileID: 6501216727387251971, guid: 752f45f5255243c4e8d21755089b76d5,
        type: 3}
      propertyPath: m_AnchoredPosition.x
      value: 0
      objectReference: {fileID: 0}
    - target: {fileID: 6501216727387251971, guid: 752f45f5255243c4e8d21755089b76d5,
        type: 3}
      propertyPath: m_AnchoredPosition.y
      value: 0
      objectReference: {fileID: 0}
    - target: {fileID: 6501216727387251971, guid: 752f45f5255243c4e8d21755089b76d5,
        type: 3}
      propertyPath: m_SizeDelta.x
      value: 0
      objectReference: {fileID: 0}
    - target: {fileID: 6501216727387251971, guid: 752f45f5255243c4e8d21755089b76d5,
        type: 3}
      propertyPath: m_SizeDelta.y
      value: 0
      objectReference: {fileID: 0}
    - target: {fileID: 6552312375857607488, guid: 752f45f5255243c4e8d21755089b76d5,
        type: 3}
      propertyPath: m_AnchorMin.y
      value: 0
      objectReference: {fileID: 0}
    - target: {fileID: 6552312375857607488, guid: 752f45f5255243c4e8d21755089b76d5,
        type: 3}
      propertyPath: m_AnchorMax.y
      value: 0
      objectReference: {fileID: 0}
    - target: {fileID: 6552312375857607488, guid: 752f45f5255243c4e8d21755089b76d5,
        type: 3}
      propertyPath: m_AnchoredPosition.x
      value: 0
      objectReference: {fileID: 0}
    - target: {fileID: 6552312375857607488, guid: 752f45f5255243c4e8d21755089b76d5,
        type: 3}
      propertyPath: m_AnchoredPosition.y
      value: 0
      objectReference: {fileID: 0}
    - target: {fileID: 6552312375857607488, guid: 752f45f5255243c4e8d21755089b76d5,
        type: 3}
      propertyPath: m_SizeDelta.x
      value: 0
      objectReference: {fileID: 0}
    - target: {fileID: 6552312375857607488, guid: 752f45f5255243c4e8d21755089b76d5,
        type: 3}
      propertyPath: m_SizeDelta.y
      value: 0
      objectReference: {fileID: 0}
    - target: {fileID: 6569353841238137536, guid: 752f45f5255243c4e8d21755089b76d5,
        type: 3}
      propertyPath: m_SizeDelta.x
      value: 0
      objectReference: {fileID: 0}
    - target: {fileID: 6569353841238137536, guid: 752f45f5255243c4e8d21755089b76d5,
        type: 3}
      propertyPath: m_SizeDelta.y
      value: 0
      objectReference: {fileID: 0}
    - target: {fileID: 6589077546279834159, guid: 752f45f5255243c4e8d21755089b76d5,
        type: 3}
      propertyPath: m_AnchorMin.y
      value: 0
      objectReference: {fileID: 0}
    - target: {fileID: 6589077546279834159, guid: 752f45f5255243c4e8d21755089b76d5,
        type: 3}
      propertyPath: m_AnchorMax.y
      value: 0
      objectReference: {fileID: 0}
    - target: {fileID: 6589077546279834159, guid: 752f45f5255243c4e8d21755089b76d5,
        type: 3}
      propertyPath: m_AnchoredPosition.x
      value: 0
      objectReference: {fileID: 0}
    - target: {fileID: 6589077546279834159, guid: 752f45f5255243c4e8d21755089b76d5,
        type: 3}
      propertyPath: m_AnchoredPosition.y
      value: 0
      objectReference: {fileID: 0}
    - target: {fileID: 6589077546279834159, guid: 752f45f5255243c4e8d21755089b76d5,
        type: 3}
      propertyPath: m_SizeDelta.x
      value: 0
      objectReference: {fileID: 0}
    - target: {fileID: 6589077546279834159, guid: 752f45f5255243c4e8d21755089b76d5,
        type: 3}
      propertyPath: m_SizeDelta.y
      value: 0
      objectReference: {fileID: 0}
    - target: {fileID: 6852423657566635954, guid: 752f45f5255243c4e8d21755089b76d5,
        type: 3}
      propertyPath: m_SizeDelta.x
      value: 0
      objectReference: {fileID: 0}
    - target: {fileID: 6852423657566635954, guid: 752f45f5255243c4e8d21755089b76d5,
        type: 3}
      propertyPath: m_SizeDelta.y
      value: 0
      objectReference: {fileID: 0}
    - target: {fileID: 7049531690474109742, guid: 752f45f5255243c4e8d21755089b76d5,
        type: 3}
      propertyPath: m_SizeDelta.x
      value: 0
      objectReference: {fileID: 0}
    - target: {fileID: 7049531690474109742, guid: 752f45f5255243c4e8d21755089b76d5,
        type: 3}
      propertyPath: m_SizeDelta.y
      value: 0
      objectReference: {fileID: 0}
    - target: {fileID: 7168949354559768472, guid: 752f45f5255243c4e8d21755089b76d5,
        type: 3}
      propertyPath: m_AnchorMin.y
      value: 0
      objectReference: {fileID: 0}
    - target: {fileID: 7168949354559768472, guid: 752f45f5255243c4e8d21755089b76d5,
        type: 3}
      propertyPath: m_AnchorMax.y
      value: 0
      objectReference: {fileID: 0}
    - target: {fileID: 7168949354559768472, guid: 752f45f5255243c4e8d21755089b76d5,
        type: 3}
      propertyPath: m_AnchoredPosition.x
      value: 0
      objectReference: {fileID: 0}
    - target: {fileID: 7168949354559768472, guid: 752f45f5255243c4e8d21755089b76d5,
        type: 3}
      propertyPath: m_AnchoredPosition.y
      value: 0
      objectReference: {fileID: 0}
    - target: {fileID: 7168949354559768472, guid: 752f45f5255243c4e8d21755089b76d5,
        type: 3}
      propertyPath: m_SizeDelta.x
      value: 0
      objectReference: {fileID: 0}
    - target: {fileID: 7168949354559768472, guid: 752f45f5255243c4e8d21755089b76d5,
        type: 3}
      propertyPath: m_SizeDelta.y
      value: 0
      objectReference: {fileID: 0}
    - target: {fileID: 7505294517484383956, guid: 752f45f5255243c4e8d21755089b76d5,
        type: 3}
      propertyPath: tier.minInt
      value: 2
      objectReference: {fileID: 0}
    - target: {fileID: 7530947643109241083, guid: 752f45f5255243c4e8d21755089b76d5,
        type: 3}
      propertyPath: tier.maxInt
      value: 4
      objectReference: {fileID: 0}
    - target: {fileID: 7810800824216623809, guid: 752f45f5255243c4e8d21755089b76d5,
        type: 3}
      propertyPath: m_AnchorMin.y
      value: 0
      objectReference: {fileID: 0}
    - target: {fileID: 7810800824216623809, guid: 752f45f5255243c4e8d21755089b76d5,
        type: 3}
      propertyPath: m_AnchorMax.y
      value: 0
      objectReference: {fileID: 0}
    - target: {fileID: 7810800824216623809, guid: 752f45f5255243c4e8d21755089b76d5,
        type: 3}
      propertyPath: m_AnchoredPosition.x
      value: 0
      objectReference: {fileID: 0}
    - target: {fileID: 7810800824216623809, guid: 752f45f5255243c4e8d21755089b76d5,
        type: 3}
      propertyPath: m_AnchoredPosition.y
      value: 0
      objectReference: {fileID: 0}
    - target: {fileID: 7810800824216623809, guid: 752f45f5255243c4e8d21755089b76d5,
        type: 3}
      propertyPath: m_SizeDelta.x
      value: 0
      objectReference: {fileID: 0}
    - target: {fileID: 7810800824216623809, guid: 752f45f5255243c4e8d21755089b76d5,
        type: 3}
      propertyPath: m_SizeDelta.y
      value: 0
      objectReference: {fileID: 0}
    - target: {fileID: 7827948448853607077, guid: 752f45f5255243c4e8d21755089b76d5,
        type: 3}
      propertyPath: m_SizeDelta.x
      value: 0
      objectReference: {fileID: 0}
    - target: {fileID: 7827948448853607077, guid: 752f45f5255243c4e8d21755089b76d5,
        type: 3}
      propertyPath: m_SizeDelta.y
      value: 0
      objectReference: {fileID: 0}
    - target: {fileID: 7900891467906582824, guid: 752f45f5255243c4e8d21755089b76d5,
        type: 3}
      propertyPath: m_AnchoredPosition.y
      value: -148
      objectReference: {fileID: 0}
    - target: {fileID: 7956495783804386353, guid: 752f45f5255243c4e8d21755089b76d5,
        type: 3}
      propertyPath: m_AnchorMin.y
      value: 0
      objectReference: {fileID: 0}
    - target: {fileID: 7956495783804386353, guid: 752f45f5255243c4e8d21755089b76d5,
        type: 3}
      propertyPath: m_AnchorMax.y
      value: 0
      objectReference: {fileID: 0}
    - target: {fileID: 7956495783804386353, guid: 752f45f5255243c4e8d21755089b76d5,
        type: 3}
      propertyPath: m_AnchoredPosition.x
      value: 0
      objectReference: {fileID: 0}
    - target: {fileID: 7956495783804386353, guid: 752f45f5255243c4e8d21755089b76d5,
        type: 3}
      propertyPath: m_AnchoredPosition.y
      value: 0
      objectReference: {fileID: 0}
    - target: {fileID: 7956495783804386353, guid: 752f45f5255243c4e8d21755089b76d5,
        type: 3}
      propertyPath: m_SizeDelta.x
      value: 0
      objectReference: {fileID: 0}
    - target: {fileID: 7956495783804386353, guid: 752f45f5255243c4e8d21755089b76d5,
        type: 3}
      propertyPath: m_SizeDelta.y
      value: 0
      objectReference: {fileID: 0}
    - target: {fileID: 8036227284662401549, guid: 752f45f5255243c4e8d21755089b76d5,
        type: 3}
      propertyPath: m_SizeDelta.x
      value: 0
      objectReference: {fileID: 0}
    - target: {fileID: 8036227284662401549, guid: 752f45f5255243c4e8d21755089b76d5,
        type: 3}
      propertyPath: m_SizeDelta.y
      value: 0
      objectReference: {fileID: 0}
    - target: {fileID: 8162687558914776383, guid: 752f45f5255243c4e8d21755089b76d5,
        type: 3}
      propertyPath: m_AnchorMin.y
      value: 0
      objectReference: {fileID: 0}
    - target: {fileID: 8162687558914776383, guid: 752f45f5255243c4e8d21755089b76d5,
        type: 3}
      propertyPath: m_AnchorMax.y
      value: 0
      objectReference: {fileID: 0}
    - target: {fileID: 8162687558914776383, guid: 752f45f5255243c4e8d21755089b76d5,
        type: 3}
      propertyPath: m_AnchoredPosition.x
      value: 0
      objectReference: {fileID: 0}
    - target: {fileID: 8162687558914776383, guid: 752f45f5255243c4e8d21755089b76d5,
        type: 3}
      propertyPath: m_AnchoredPosition.y
      value: 0
      objectReference: {fileID: 0}
    - target: {fileID: 8162687558914776383, guid: 752f45f5255243c4e8d21755089b76d5,
        type: 3}
      propertyPath: m_SizeDelta.x
      value: 0
      objectReference: {fileID: 0}
    - target: {fileID: 8162687558914776383, guid: 752f45f5255243c4e8d21755089b76d5,
        type: 3}
      propertyPath: m_SizeDelta.y
      value: 0
      objectReference: {fileID: 0}
    - target: {fileID: 8415563040316386731, guid: 752f45f5255243c4e8d21755089b76d5,
        type: 3}
      propertyPath: m_SizeDelta.x
      value: 0
      objectReference: {fileID: 0}
    - target: {fileID: 8415563040316386731, guid: 752f45f5255243c4e8d21755089b76d5,
        type: 3}
      propertyPath: m_SizeDelta.y
      value: 0
      objectReference: {fileID: 0}
    - target: {fileID: 8450984257921054758, guid: 752f45f5255243c4e8d21755089b76d5,
        type: 3}
      propertyPath: m_SizeDelta.x
      value: 0
      objectReference: {fileID: 0}
    - target: {fileID: 8450984257921054758, guid: 752f45f5255243c4e8d21755089b76d5,
        type: 3}
      propertyPath: m_SizeDelta.y
      value: 0
      objectReference: {fileID: 0}
    - target: {fileID: 8563207715732419457, guid: 752f45f5255243c4e8d21755089b76d5,
        type: 3}
      propertyPath: m_AnchorMin.y
      value: 0
      objectReference: {fileID: 0}
    - target: {fileID: 8563207715732419457, guid: 752f45f5255243c4e8d21755089b76d5,
        type: 3}
      propertyPath: m_AnchorMax.y
      value: 0
      objectReference: {fileID: 0}
    - target: {fileID: 8563207715732419457, guid: 752f45f5255243c4e8d21755089b76d5,
        type: 3}
      propertyPath: m_AnchoredPosition.x
      value: 0
      objectReference: {fileID: 0}
    - target: {fileID: 8563207715732419457, guid: 752f45f5255243c4e8d21755089b76d5,
        type: 3}
      propertyPath: m_AnchoredPosition.y
      value: 0
      objectReference: {fileID: 0}
    - target: {fileID: 8563207715732419457, guid: 752f45f5255243c4e8d21755089b76d5,
        type: 3}
      propertyPath: m_SizeDelta.x
      value: 0
      objectReference: {fileID: 0}
    - target: {fileID: 8563207715732419457, guid: 752f45f5255243c4e8d21755089b76d5,
        type: 3}
      propertyPath: m_SizeDelta.y
      value: 0
      objectReference: {fileID: 0}
    - target: {fileID: 8686882335818867805, guid: 752f45f5255243c4e8d21755089b76d5,
        type: 3}
      propertyPath: m_AnchorMin.y
      value: 0
      objectReference: {fileID: 0}
    - target: {fileID: 8686882335818867805, guid: 752f45f5255243c4e8d21755089b76d5,
        type: 3}
      propertyPath: m_AnchorMax.y
      value: 0
      objectReference: {fileID: 0}
    - target: {fileID: 8686882335818867805, guid: 752f45f5255243c4e8d21755089b76d5,
        type: 3}
      propertyPath: m_AnchoredPosition.x
      value: 0
      objectReference: {fileID: 0}
    - target: {fileID: 8686882335818867805, guid: 752f45f5255243c4e8d21755089b76d5,
        type: 3}
      propertyPath: m_AnchoredPosition.y
      value: 0
      objectReference: {fileID: 0}
    - target: {fileID: 8686882335818867805, guid: 752f45f5255243c4e8d21755089b76d5,
        type: 3}
      propertyPath: m_SizeDelta.x
      value: 0
      objectReference: {fileID: 0}
    - target: {fileID: 8686882335818867805, guid: 752f45f5255243c4e8d21755089b76d5,
        type: 3}
      propertyPath: m_SizeDelta.y
      value: 0
      objectReference: {fileID: 0}
    - target: {fileID: 8716215663486545258, guid: 752f45f5255243c4e8d21755089b76d5,
        type: 3}
      propertyPath: m_SizeDelta.x
      value: 0
      objectReference: {fileID: 0}
    - target: {fileID: 8716215663486545258, guid: 752f45f5255243c4e8d21755089b76d5,
        type: 3}
      propertyPath: m_SizeDelta.y
      value: 0
      objectReference: {fileID: 0}
    - target: {fileID: 8785377547385587385, guid: 752f45f5255243c4e8d21755089b76d5,
        type: 3}
      propertyPath: m_AnchorMin.y
      value: 0
      objectReference: {fileID: 0}
    - target: {fileID: 8785377547385587385, guid: 752f45f5255243c4e8d21755089b76d5,
        type: 3}
      propertyPath: m_AnchorMax.y
      value: 0
      objectReference: {fileID: 0}
    - target: {fileID: 8785377547385587385, guid: 752f45f5255243c4e8d21755089b76d5,
        type: 3}
      propertyPath: m_AnchoredPosition.x
      value: 0
      objectReference: {fileID: 0}
    - target: {fileID: 8785377547385587385, guid: 752f45f5255243c4e8d21755089b76d5,
        type: 3}
      propertyPath: m_AnchoredPosition.y
      value: 0
      objectReference: {fileID: 0}
    - target: {fileID: 8785377547385587385, guid: 752f45f5255243c4e8d21755089b76d5,
        type: 3}
      propertyPath: m_SizeDelta.x
      value: 0
      objectReference: {fileID: 0}
    - target: {fileID: 8785377547385587385, guid: 752f45f5255243c4e8d21755089b76d5,
        type: 3}
      propertyPath: m_SizeDelta.y
      value: 0
      objectReference: {fileID: 0}
    - target: {fileID: 8806052008272180926, guid: 752f45f5255243c4e8d21755089b76d5,
        type: 3}
      propertyPath: m_AnchorMin.y
      value: 0
      objectReference: {fileID: 0}
    - target: {fileID: 8806052008272180926, guid: 752f45f5255243c4e8d21755089b76d5,
        type: 3}
      propertyPath: m_AnchorMax.y
      value: 0
      objectReference: {fileID: 0}
    - target: {fileID: 8806052008272180926, guid: 752f45f5255243c4e8d21755089b76d5,
        type: 3}
      propertyPath: m_AnchoredPosition.x
      value: 0
      objectReference: {fileID: 0}
    - target: {fileID: 8806052008272180926, guid: 752f45f5255243c4e8d21755089b76d5,
        type: 3}
      propertyPath: m_AnchoredPosition.y
      value: 0
      objectReference: {fileID: 0}
    - target: {fileID: 8806052008272180926, guid: 752f45f5255243c4e8d21755089b76d5,
        type: 3}
      propertyPath: m_SizeDelta.x
      value: 0
      objectReference: {fileID: 0}
    - target: {fileID: 8806052008272180926, guid: 752f45f5255243c4e8d21755089b76d5,
        type: 3}
      propertyPath: m_SizeDelta.y
      value: 0
      objectReference: {fileID: 0}
    - target: {fileID: 8821826222242952618, guid: 752f45f5255243c4e8d21755089b76d5,
        type: 3}
      propertyPath: m_AnchorMin.y
      value: 0
      objectReference: {fileID: 0}
    - target: {fileID: 8821826222242952618, guid: 752f45f5255243c4e8d21755089b76d5,
        type: 3}
      propertyPath: m_AnchorMax.y
      value: 0
      objectReference: {fileID: 0}
    - target: {fileID: 8821826222242952618, guid: 752f45f5255243c4e8d21755089b76d5,
        type: 3}
      propertyPath: m_AnchoredPosition.x
      value: 0
      objectReference: {fileID: 0}
    - target: {fileID: 8821826222242952618, guid: 752f45f5255243c4e8d21755089b76d5,
        type: 3}
      propertyPath: m_AnchoredPosition.y
      value: 0
      objectReference: {fileID: 0}
    - target: {fileID: 8821826222242952618, guid: 752f45f5255243c4e8d21755089b76d5,
        type: 3}
      propertyPath: m_SizeDelta.x
      value: 0
      objectReference: {fileID: 0}
    - target: {fileID: 8821826222242952618, guid: 752f45f5255243c4e8d21755089b76d5,
        type: 3}
      propertyPath: m_SizeDelta.y
      value: 0
      objectReference: {fileID: 0}
    - target: {fileID: 8833413387281281470, guid: 752f45f5255243c4e8d21755089b76d5,
        type: 3}
      propertyPath: m_SizeDelta.x
      value: 0
      objectReference: {fileID: 0}
    - target: {fileID: 8833413387281281470, guid: 752f45f5255243c4e8d21755089b76d5,
        type: 3}
      propertyPath: m_SizeDelta.y
      value: 0
      objectReference: {fileID: 0}
    - target: {fileID: 8878749197972041911, guid: 752f45f5255243c4e8d21755089b76d5,
        type: 3}
      propertyPath: m_SizeDelta.x
      value: 0
      objectReference: {fileID: 0}
    - target: {fileID: 8878749197972041911, guid: 752f45f5255243c4e8d21755089b76d5,
        type: 3}
      propertyPath: m_SizeDelta.y
      value: 0
      objectReference: {fileID: 0}
    - target: {fileID: 8885784445741124288, guid: 752f45f5255243c4e8d21755089b76d5,
        type: 3}
      propertyPath: m_SizeDelta.x
      value: 0
      objectReference: {fileID: 0}
    - target: {fileID: 8885784445741124288, guid: 752f45f5255243c4e8d21755089b76d5,
        type: 3}
      propertyPath: m_SizeDelta.y
      value: 0
      objectReference: {fileID: 0}
    - target: {fileID: 8957478542199100237, guid: 752f45f5255243c4e8d21755089b76d5,
        type: 3}
      propertyPath: m_AnchorMin.y
      value: 0
      objectReference: {fileID: 0}
    - target: {fileID: 8957478542199100237, guid: 752f45f5255243c4e8d21755089b76d5,
        type: 3}
      propertyPath: m_AnchorMax.y
      value: 0
      objectReference: {fileID: 0}
    - target: {fileID: 8957478542199100237, guid: 752f45f5255243c4e8d21755089b76d5,
        type: 3}
      propertyPath: m_AnchoredPosition.x
      value: 0
      objectReference: {fileID: 0}
    - target: {fileID: 8957478542199100237, guid: 752f45f5255243c4e8d21755089b76d5,
        type: 3}
      propertyPath: m_AnchoredPosition.y
      value: 0
      objectReference: {fileID: 0}
    - target: {fileID: 8957478542199100237, guid: 752f45f5255243c4e8d21755089b76d5,
        type: 3}
      propertyPath: m_SizeDelta.x
      value: 0
      objectReference: {fileID: 0}
    - target: {fileID: 8957478542199100237, guid: 752f45f5255243c4e8d21755089b76d5,
        type: 3}
      propertyPath: m_SizeDelta.y
      value: 0
      objectReference: {fileID: 0}
    - target: {fileID: 9144669815300609516, guid: 752f45f5255243c4e8d21755089b76d5,
        type: 3}
      propertyPath: m_AnchorMin.y
      value: 0
      objectReference: {fileID: 0}
    - target: {fileID: 9144669815300609516, guid: 752f45f5255243c4e8d21755089b76d5,
        type: 3}
      propertyPath: m_AnchorMax.y
      value: 0
      objectReference: {fileID: 0}
    - target: {fileID: 9144669815300609516, guid: 752f45f5255243c4e8d21755089b76d5,
        type: 3}
      propertyPath: m_AnchoredPosition.x
      value: 0
      objectReference: {fileID: 0}
    - target: {fileID: 9144669815300609516, guid: 752f45f5255243c4e8d21755089b76d5,
        type: 3}
      propertyPath: m_AnchoredPosition.y
      value: 0
      objectReference: {fileID: 0}
    - target: {fileID: 9144669815300609516, guid: 752f45f5255243c4e8d21755089b76d5,
        type: 3}
      propertyPath: m_SizeDelta.x
      value: 0
      objectReference: {fileID: 0}
    - target: {fileID: 9144669815300609516, guid: 752f45f5255243c4e8d21755089b76d5,
        type: 3}
      propertyPath: m_SizeDelta.y
      value: 0
      objectReference: {fileID: 0}
    - target: {fileID: 9149449938612079965, guid: 752f45f5255243c4e8d21755089b76d5,
        type: 3}
      propertyPath: m_AnchorMin.y
      value: 0
      objectReference: {fileID: 0}
    - target: {fileID: 9149449938612079965, guid: 752f45f5255243c4e8d21755089b76d5,
        type: 3}
      propertyPath: m_AnchorMax.y
      value: 0
      objectReference: {fileID: 0}
    - target: {fileID: 9149449938612079965, guid: 752f45f5255243c4e8d21755089b76d5,
        type: 3}
      propertyPath: m_AnchoredPosition.x
      value: 0
      objectReference: {fileID: 0}
    - target: {fileID: 9149449938612079965, guid: 752f45f5255243c4e8d21755089b76d5,
        type: 3}
      propertyPath: m_AnchoredPosition.y
      value: 0
      objectReference: {fileID: 0}
    - target: {fileID: 9149449938612079965, guid: 752f45f5255243c4e8d21755089b76d5,
        type: 3}
      propertyPath: m_SizeDelta.x
      value: 0
      objectReference: {fileID: 0}
    - target: {fileID: 9149449938612079965, guid: 752f45f5255243c4e8d21755089b76d5,
        type: 3}
      propertyPath: m_SizeDelta.y
      value: 0
      objectReference: {fileID: 0}
    m_RemovedComponents: []
  m_SourcePrefab: {fileID: 100100000, guid: 752f45f5255243c4e8d21755089b76d5, type: 3}
