%YAML 1.1
%TAG !u! tag:unity3d.com,2011:
--- !u!1001 &3964327822360958893
PrefabInstance:
  m_ObjectHideFlags: 0
  serializedVersion: 2
  m_Modification:
    m_TransformParent: {fileID: 0}
    m_Modifications:
    - target: {fileID: 136115019799224626, guid: 4b10ed44d1432024c8d185ffeeb78f65,
        type: 3}
      propertyPath: m_AnchorMin.y
      value: 1
      objectReference: {fileID: 0}
    - target: {fileID: 136115019799224626, guid: 4b10ed44d1432024c8d185ffeeb78f65,
        type: 3}
      propertyPath: m_AnchorMax.y
      value: 1
      objectReference: {fileID: 0}
    - target: {fileID: 136115019799224626, guid: 4b10ed44d1432024c8d185ffeeb78f65,
        type: 3}
      propertyPath: m_AnchoredPosition.x
      value: 265
      objectReference: {fileID: 0}
    - target: {fileID: 136115019799224626, guid: 4b10ed44d1432024c8d185ffeeb78f65,
        type: 3}
      propertyPath: m_AnchoredPosition.y
      value: -38
      objectReference: {fileID: 0}
    - target: {fileID: 136115019799224626, guid: 4b10ed44d1432024c8d185ffeeb78f65,
        type: 3}
      propertyPath: m_SizeDelta.x
      value: 530
      objectReference: {fileID: 0}
    - target: {fileID: 136115019799224626, guid: 4b10ed44d1432024c8d185ffeeb78f65,
        type: 3}
      propertyPath: m_SizeDelta.y
      value: 76
      objectReference: {fileID: 0}
    - target: {fileID: 221051391512944494, guid: 4b10ed44d1432024c8d185ffeeb78f65,
        type: 3}
      propertyPath: m_AnchorMin.y
      value: 0
      objectReference: {fileID: 0}
    - target: {fileID: 221051391512944494, guid: 4b10ed44d1432024c8d185ffeeb78f65,
        type: 3}
      propertyPath: m_AnchorMax.y
      value: 0
      objectReference: {fileID: 0}
    - target: {fileID: 221051391512944494, guid: 4b10ed44d1432024c8d185ffeeb78f65,
        type: 3}
      propertyPath: m_AnchoredPosition.x
      value: 0
      objectReference: {fileID: 0}
    - target: {fileID: 221051391512944494, guid: 4b10ed44d1432024c8d185ffeeb78f65,
        type: 3}
      propertyPath: m_AnchoredPosition.y
      value: 0
      objectReference: {fileID: 0}
    - target: {fileID: 221051391512944494, guid: 4b10ed44d1432024c8d185ffeeb78f65,
        type: 3}
      propertyPath: m_SizeDelta.x
      value: 0
      objectReference: {fileID: 0}
    - target: {fileID: 221051391512944494, guid: 4b10ed44d1432024c8d185ffeeb78f65,
        type: 3}
      propertyPath: m_SizeDelta.y
      value: 0
      objectReference: {fileID: 0}
    - target: {fileID: 265723980276136053, guid: 4b10ed44d1432024c8d185ffeeb78f65,
        type: 3}
      propertyPath: m_AnchorMin.y
      value: 0
      objectReference: {fileID: 0}
    - target: {fileID: 265723980276136053, guid: 4b10ed44d1432024c8d185ffeeb78f65,
        type: 3}
      propertyPath: m_AnchorMax.y
      value: 0
      objectReference: {fileID: 0}
    - target: {fileID: 265723980276136053, guid: 4b10ed44d1432024c8d185ffeeb78f65,
        type: 3}
      propertyPath: m_AnchoredPosition.x
      value: 0
      objectReference: {fileID: 0}
    - target: {fileID: 265723980276136053, guid: 4b10ed44d1432024c8d185ffeeb78f65,
        type: 3}
      propertyPath: m_AnchoredPosition.y
      value: 0
      objectReference: {fileID: 0}
    - target: {fileID: 265723980276136053, guid: 4b10ed44d1432024c8d185ffeeb78f65,
        type: 3}
      propertyPath: m_SizeDelta.x
      value: 0
      objectReference: {fileID: 0}
    - target: {fileID: 265723980276136053, guid: 4b10ed44d1432024c8d185ffeeb78f65,
        type: 3}
      propertyPath: m_SizeDelta.y
      value: 0
      objectReference: {fileID: 0}
    - target: {fileID: 590250941213362012, guid: 4b10ed44d1432024c8d185ffeeb78f65,
        type: 3}
      propertyPath: m_IsActive
      value: 0
      objectReference: {fileID: 0}
    - target: {fileID: 593668273586726329, guid: 4b10ed44d1432024c8d185ffeeb78f65,
        type: 3}
      propertyPath: m_AnchorMin.y
      value: 1
      objectReference: {fileID: 0}
    - target: {fileID: 593668273586726329, guid: 4b10ed44d1432024c8d185ffeeb78f65,
        type: 3}
      propertyPath: m_AnchorMax.y
      value: 1
      objectReference: {fileID: 0}
    - target: {fileID: 593668273586726329, guid: 4b10ed44d1432024c8d185ffeeb78f65,
        type: 3}
      propertyPath: m_AnchoredPosition.x
      value: 477
      objectReference: {fileID: 0}
    - target: {fileID: 593668273586726329, guid: 4b10ed44d1432024c8d185ffeeb78f65,
        type: 3}
      propertyPath: m_AnchoredPosition.y
      value: -105.5
      objectReference: {fileID: 0}
    - target: {fileID: 593668273586726329, guid: 4b10ed44d1432024c8d185ffeeb78f65,
        type: 3}
      propertyPath: m_SizeDelta.x
      value: 954
      objectReference: {fileID: 0}
    - target: {fileID: 593668273586726329, guid: 4b10ed44d1432024c8d185ffeeb78f65,
        type: 3}
      propertyPath: m_SizeDelta.y
      value: 211
      objectReference: {fileID: 0}
    - target: {fileID: 689560832809371221, guid: 4b10ed44d1432024c8d185ffeeb78f65,
        type: 3}
      propertyPath: m_IsActive
      value: 0
      objectReference: {fileID: 0}
    - target: {fileID: 699026877370172722, guid: 4b10ed44d1432024c8d185ffeeb78f65,
        type: 3}
      propertyPath: m_SizeDelta.x
      value: 214
      objectReference: {fileID: 0}
    - target: {fileID: 699026877370172722, guid: 4b10ed44d1432024c8d185ffeeb78f65,
        type: 3}
      propertyPath: m_SizeDelta.y
      value: 586
      objectReference: {fileID: 0}
    - target: {fileID: 806657967090051609, guid: 4b10ed44d1432024c8d185ffeeb78f65,
        type: 3}
      propertyPath: m_SizeDelta.x
      value: 0
      objectReference: {fileID: 0}
    - target: {fileID: 806657967090051609, guid: 4b10ed44d1432024c8d185ffeeb78f65,
        type: 3}
      propertyPath: m_SizeDelta.y
      value: 0
      objectReference: {fileID: 0}
    - target: {fileID: 954539234218862922, guid: 4b10ed44d1432024c8d185ffeeb78f65,
        type: 3}
      propertyPath: m_SizeDelta.x
      value: 0
      objectReference: {fileID: 0}
    - target: {fileID: 954539234218862922, guid: 4b10ed44d1432024c8d185ffeeb78f65,
        type: 3}
      propertyPath: m_SizeDelta.y
      value: 0
      objectReference: {fileID: 0}
    - target: {fileID: 1064474615574040586, guid: 4b10ed44d1432024c8d185ffeeb78f65,
        type: 3}
      propertyPath: m_SizeDelta.x
      value: 384
      objectReference: {fileID: 0}
    - target: {fileID: 1064474615574040586, guid: 4b10ed44d1432024c8d185ffeeb78f65,
        type: 3}
      propertyPath: m_SizeDelta.y
      value: 316
      objectReference: {fileID: 0}
    - target: {fileID: 1132085146799959691, guid: 4b10ed44d1432024c8d185ffeeb78f65,
        type: 3}
      propertyPath: m_SizeDelta.x
      value: 0
      objectReference: {fileID: 0}
    - target: {fileID: 1132085146799959691, guid: 4b10ed44d1432024c8d185ffeeb78f65,
        type: 3}
      propertyPath: m_SizeDelta.y
      value: 0
      objectReference: {fileID: 0}
    - target: {fileID: 1303927337170107821, guid: 4b10ed44d1432024c8d185ffeeb78f65,
        type: 3}
      propertyPath: m_AnchorMin.y
      value: 1
      objectReference: {fileID: 0}
    - target: {fileID: 1303927337170107821, guid: 4b10ed44d1432024c8d185ffeeb78f65,
        type: 3}
      propertyPath: m_AnchorMax.y
      value: 1
      objectReference: {fileID: 0}
    - target: {fileID: 1303927337170107821, guid: 4b10ed44d1432024c8d185ffeeb78f65,
        type: 3}
      propertyPath: m_AnchoredPosition.x
      value: 269
      objectReference: {fileID: 0}
    - target: {fileID: 1303927337170107821, guid: 4b10ed44d1432024c8d185ffeeb78f65,
        type: 3}
      propertyPath: m_AnchoredPosition.y
      value: -257.5
      objectReference: {fileID: 0}
    - target: {fileID: 1303927337170107821, guid: 4b10ed44d1432024c8d185ffeeb78f65,
        type: 3}
      propertyPath: m_SizeDelta.x
      value: 538
      objectReference: {fileID: 0}
    - target: {fileID: 1303927337170107821, guid: 4b10ed44d1432024c8d185ffeeb78f65,
        type: 3}
      propertyPath: m_SizeDelta.y
      value: 515
      objectReference: {fileID: 0}
    - target: {fileID: 1617305866347538480, guid: 4b10ed44d1432024c8d185ffeeb78f65,
        type: 3}
      propertyPath: m_SizeDelta.x
      value: 0
      objectReference: {fileID: 0}
    - target: {fileID: 1617305866347538480, guid: 4b10ed44d1432024c8d185ffeeb78f65,
        type: 3}
      propertyPath: m_SizeDelta.y
      value: 0
      objectReference: {fileID: 0}
    - target: {fileID: 1673155606794559260, guid: 4b10ed44d1432024c8d185ffeeb78f65,
        type: 3}
      propertyPath: m_SizeDelta.x
      value: 661
      objectReference: {fileID: 0}
    - target: {fileID: 1673155606794559260, guid: 4b10ed44d1432024c8d185ffeeb78f65,
        type: 3}
      propertyPath: m_SizeDelta.y
      value: 617
      objectReference: {fileID: 0}
    - target: {fileID: 1819111302734326616, guid: 4b10ed44d1432024c8d185ffeeb78f65,
        type: 3}
      propertyPath: isFinal
      value: 1
      objectReference: {fileID: 0}
    - target: {fileID: 1819111302734326616, guid: 4b10ed44d1432024c8d185ffeeb78f65,
        type: 3}
      propertyPath: tier.minInt
      value: 1
      objectReference: {fileID: 0}
    - target: {fileID: 1819111302734326616, guid: 4b10ed44d1432024c8d185ffeeb78f65,
        type: 3}
      propertyPath: tier.maxInt
      value: 2
      objectReference: {fileID: 0}
    - target: {fileID: 1862765650543375121, guid: 4b10ed44d1432024c8d185ffeeb78f65,
        type: 3}
      propertyPath: m_AnchorMin.y
      value: 1
      objectReference: {fileID: 0}
    - target: {fileID: 1862765650543375121, guid: 4b10ed44d1432024c8d185ffeeb78f65,
        type: 3}
      propertyPath: m_AnchorMax.y
      value: 1
      objectReference: {fileID: 0}
    - target: {fileID: 1862765650543375121, guid: 4b10ed44d1432024c8d185ffeeb78f65,
        type: 3}
      propertyPath: m_AnchoredPosition.x
      value: 178
      objectReference: {fileID: 0}
    - target: {fileID: 1862765650543375121, guid: 4b10ed44d1432024c8d185ffeeb78f65,
        type: 3}
      propertyPath: m_AnchoredPosition.y
      value: -309
      objectReference: {fileID: 0}
    - target: {fileID: 1862765650543375121, guid: 4b10ed44d1432024c8d185ffeeb78f65,
        type: 3}
      propertyPath: m_SizeDelta.x
      value: 356
      objectReference: {fileID: 0}
    - target: {fileID: 1862765650543375121, guid: 4b10ed44d1432024c8d185ffeeb78f65,
        type: 3}
      propertyPath: m_SizeDelta.y
      value: 618
      objectReference: {fileID: 0}
    - target: {fileID: 1914952430716261184, guid: 4b10ed44d1432024c8d185ffeeb78f65,
        type: 3}
      propertyPath: m_SizeDelta.x
      value: 0
      objectReference: {fileID: 0}
    - target: {fileID: 1914952430716261184, guid: 4b10ed44d1432024c8d185ffeeb78f65,
        type: 3}
      propertyPath: m_SizeDelta.y
      value: 0
      objectReference: {fileID: 0}
    - target: {fileID: 2211851906150422016, guid: 4b10ed44d1432024c8d185ffeeb78f65,
        type: 3}
      propertyPath: m_AnchorMin.y
      value: 0
      objectReference: {fileID: 0}
    - target: {fileID: 2211851906150422016, guid: 4b10ed44d1432024c8d185ffeeb78f65,
        type: 3}
      propertyPath: m_AnchorMax.y
      value: 0
      objectReference: {fileID: 0}
    - target: {fileID: 2211851906150422016, guid: 4b10ed44d1432024c8d185ffeeb78f65,
        type: 3}
      propertyPath: m_AnchoredPosition.x
      value: 0
      objectReference: {fileID: 0}
    - target: {fileID: 2211851906150422016, guid: 4b10ed44d1432024c8d185ffeeb78f65,
        type: 3}
      propertyPath: m_AnchoredPosition.y
      value: 0
      objectReference: {fileID: 0}
    - target: {fileID: 2211851906150422016, guid: 4b10ed44d1432024c8d185ffeeb78f65,
        type: 3}
      propertyPath: m_SizeDelta.x
      value: 0
      objectReference: {fileID: 0}
    - target: {fileID: 2211851906150422016, guid: 4b10ed44d1432024c8d185ffeeb78f65,
        type: 3}
      propertyPath: m_SizeDelta.y
      value: 0
      objectReference: {fileID: 0}
    - target: {fileID: 2228059426969172685, guid: 4b10ed44d1432024c8d185ffeeb78f65,
        type: 3}
      propertyPath: m_AnchorMin.y
      value: 0
      objectReference: {fileID: 0}
    - target: {fileID: 2228059426969172685, guid: 4b10ed44d1432024c8d185ffeeb78f65,
        type: 3}
      propertyPath: m_AnchorMax.y
      value: 0
      objectReference: {fileID: 0}
    - target: {fileID: 2228059426969172685, guid: 4b10ed44d1432024c8d185ffeeb78f65,
        type: 3}
      propertyPath: m_AnchoredPosition.x
      value: 0
      objectReference: {fileID: 0}
    - target: {fileID: 2228059426969172685, guid: 4b10ed44d1432024c8d185ffeeb78f65,
        type: 3}
      propertyPath: m_AnchoredPosition.y
      value: 0
      objectReference: {fileID: 0}
    - target: {fileID: 2228059426969172685, guid: 4b10ed44d1432024c8d185ffeeb78f65,
        type: 3}
      propertyPath: m_SizeDelta.x
      value: 0
      objectReference: {fileID: 0}
    - target: {fileID: 2228059426969172685, guid: 4b10ed44d1432024c8d185ffeeb78f65,
        type: 3}
      propertyPath: m_SizeDelta.y
      value: 0
      objectReference: {fileID: 0}
    - target: {fileID: 2301811828404980846, guid: 4b10ed44d1432024c8d185ffeeb78f65,
        type: 3}
      propertyPath: m_SizeDelta.x
      value: 0
      objectReference: {fileID: 0}
    - target: {fileID: 2301811828404980846, guid: 4b10ed44d1432024c8d185ffeeb78f65,
        type: 3}
      propertyPath: m_SizeDelta.y
      value: 0
      objectReference: {fileID: 0}
    - target: {fileID: 2606450807876713019, guid: 4b10ed44d1432024c8d185ffeeb78f65,
        type: 3}
      propertyPath: tier.minInt
      value: 4
      objectReference: {fileID: 0}
    - target: {fileID: 2872819642761789157, guid: 4b10ed44d1432024c8d185ffeeb78f65,
        type: 3}
      propertyPath: m_IsActive
      value: 0
      objectReference: {fileID: 0}
    - target: {fileID: 3179517434659516505, guid: 4b10ed44d1432024c8d185ffeeb78f65,
        type: 3}
      propertyPath: m_IsActive
      value: 0
      objectReference: {fileID: 0}
    - target: {fileID: 3230276905204613425, guid: 4b10ed44d1432024c8d185ffeeb78f65,
        type: 3}
      propertyPath: m_AnchorMin.y
      value: 0
      objectReference: {fileID: 0}
    - target: {fileID: 3230276905204613425, guid: 4b10ed44d1432024c8d185ffeeb78f65,
        type: 3}
      propertyPath: m_AnchorMax.y
      value: 0
      objectReference: {fileID: 0}
    - target: {fileID: 3230276905204613425, guid: 4b10ed44d1432024c8d185ffeeb78f65,
        type: 3}
      propertyPath: m_AnchoredPosition.x
      value: 0
      objectReference: {fileID: 0}
    - target: {fileID: 3230276905204613425, guid: 4b10ed44d1432024c8d185ffeeb78f65,
        type: 3}
      propertyPath: m_AnchoredPosition.y
      value: 0
      objectReference: {fileID: 0}
    - target: {fileID: 3230276905204613425, guid: 4b10ed44d1432024c8d185ffeeb78f65,
        type: 3}
      propertyPath: m_SizeDelta.x
      value: 0
      objectReference: {fileID: 0}
    - target: {fileID: 3230276905204613425, guid: 4b10ed44d1432024c8d185ffeeb78f65,
        type: 3}
      propertyPath: m_SizeDelta.y
      value: 0
      objectReference: {fileID: 0}
    - target: {fileID: 3745209548277724994, guid: 4b10ed44d1432024c8d185ffeeb78f65,
        type: 3}
      propertyPath: m_SizeDelta.x
      value: 0
      objectReference: {fileID: 0}
    - target: {fileID: 3745209548277724994, guid: 4b10ed44d1432024c8d185ffeeb78f65,
        type: 3}
      propertyPath: m_SizeDelta.y
      value: 0
      objectReference: {fileID: 0}
    - target: {fileID: 3906713631649663656, guid: 4b10ed44d1432024c8d185ffeeb78f65,
        type: 3}
      propertyPath: m_AnchorMin.y
      value: 1
      objectReference: {fileID: 0}
    - target: {fileID: 3906713631649663656, guid: 4b10ed44d1432024c8d185ffeeb78f65,
        type: 3}
      propertyPath: m_AnchorMax.y
      value: 1
      objectReference: {fileID: 0}
    - target: {fileID: 3906713631649663656, guid: 4b10ed44d1432024c8d185ffeeb78f65,
        type: 3}
      propertyPath: m_AnchoredPosition.x
      value: 331.5
      objectReference: {fileID: 0}
    - target: {fileID: 3906713631649663656, guid: 4b10ed44d1432024c8d185ffeeb78f65,
        type: 3}
      propertyPath: m_AnchoredPosition.y
      value: -142.5
      objectReference: {fileID: 0}
    - target: {fileID: 3906713631649663656, guid: 4b10ed44d1432024c8d185ffeeb78f65,
        type: 3}
      propertyPath: m_SizeDelta.x
      value: 663
      objectReference: {fileID: 0}
    - target: {fileID: 3906713631649663656, guid: 4b10ed44d1432024c8d185ffeeb78f65,
        type: 3}
      propertyPath: m_SizeDelta.y
      value: 285
      objectReference: {fileID: 0}
    - target: {fileID: 3907632875812759629, guid: 4b10ed44d1432024c8d185ffeeb78f65,
        type: 3}
      propertyPath: m_IsActive
      value: 0
      objectReference: {fileID: 0}
    - target: {fileID: 3978272379869744289, guid: 4b10ed44d1432024c8d185ffeeb78f65,
        type: 3}
      propertyPath: m_SizeDelta.x
      value: 0
      objectReference: {fileID: 0}
    - target: {fileID: 3978272379869744289, guid: 4b10ed44d1432024c8d185ffeeb78f65,
        type: 3}
      propertyPath: m_SizeDelta.y
      value: 0
      objectReference: {fileID: 0}
    - target: {fileID: 3994028998266687413, guid: 4b10ed44d1432024c8d185ffeeb78f65,
        type: 3}
      propertyPath: m_SizeDelta.x
      value: 712
      objectReference: {fileID: 0}
    - target: {fileID: 3994028998266687413, guid: 4b10ed44d1432024c8d185ffeeb78f65,
        type: 3}
      propertyPath: m_SizeDelta.y
      value: 126
      objectReference: {fileID: 0}
    - target: {fileID: 4005493026055736225, guid: 4b10ed44d1432024c8d185ffeeb78f65,
        type: 3}
      propertyPath: m_AnchorMin.y
      value: 1
      objectReference: {fileID: 0}
    - target: {fileID: 4005493026055736225, guid: 4b10ed44d1432024c8d185ffeeb78f65,
        type: 3}
      propertyPath: m_AnchorMax.y
      value: 1
      objectReference: {fileID: 0}
    - target: {fileID: 4005493026055736225, guid: 4b10ed44d1432024c8d185ffeeb78f65,
        type: 3}
      propertyPath: m_AnchoredPosition.x
      value: 295.5
      objectReference: {fileID: 0}
    - target: {fileID: 4005493026055736225, guid: 4b10ed44d1432024c8d185ffeeb78f65,
        type: 3}
      propertyPath: m_AnchoredPosition.y
      value: -248
      objectReference: {fileID: 0}
    - target: {fileID: 4005493026055736225, guid: 4b10ed44d1432024c8d185ffeeb78f65,
        type: 3}
      propertyPath: m_SizeDelta.x
      value: 591
      objectReference: {fileID: 0}
    - target: {fileID: 4005493026055736225, guid: 4b10ed44d1432024c8d185ffeeb78f65,
        type: 3}
      propertyPath: m_SizeDelta.y
      value: 496
      objectReference: {fileID: 0}
    - target: {fileID: 4055251133923492409, guid: 4b10ed44d1432024c8d185ffeeb78f65,
        type: 3}
      propertyPath: m_AnchorMin.y
      value: 0
      objectReference: {fileID: 0}
    - target: {fileID: 4055251133923492409, guid: 4b10ed44d1432024c8d185ffeeb78f65,
        type: 3}
      propertyPath: m_AnchorMax.y
      value: 0
      objectReference: {fileID: 0}
    - target: {fileID: 4055251133923492409, guid: 4b10ed44d1432024c8d185ffeeb78f65,
        type: 3}
      propertyPath: m_AnchoredPosition.x
      value: 0
      objectReference: {fileID: 0}
    - target: {fileID: 4055251133923492409, guid: 4b10ed44d1432024c8d185ffeeb78f65,
        type: 3}
      propertyPath: m_AnchoredPosition.y
      value: 0
      objectReference: {fileID: 0}
    - target: {fileID: 4055251133923492409, guid: 4b10ed44d1432024c8d185ffeeb78f65,
        type: 3}
      propertyPath: m_SizeDelta.x
      value: 0
      objectReference: {fileID: 0}
    - target: {fileID: 4055251133923492409, guid: 4b10ed44d1432024c8d185ffeeb78f65,
        type: 3}
      propertyPath: m_SizeDelta.y
      value: 0
      objectReference: {fileID: 0}
    - target: {fileID: 4164384882370877364, guid: 4b10ed44d1432024c8d185ffeeb78f65,
        type: 3}
      propertyPath: m_AnchorMin.y
      value: 0
      objectReference: {fileID: 0}
    - target: {fileID: 4164384882370877364, guid: 4b10ed44d1432024c8d185ffeeb78f65,
        type: 3}
      propertyPath: m_AnchorMax.y
      value: 0
      objectReference: {fileID: 0}
    - target: {fileID: 4164384882370877364, guid: 4b10ed44d1432024c8d185ffeeb78f65,
        type: 3}
      propertyPath: m_AnchoredPosition.x
      value: 0
      objectReference: {fileID: 0}
    - target: {fileID: 4164384882370877364, guid: 4b10ed44d1432024c8d185ffeeb78f65,
        type: 3}
      propertyPath: m_AnchoredPosition.y
      value: 0
      objectReference: {fileID: 0}
    - target: {fileID: 4164384882370877364, guid: 4b10ed44d1432024c8d185ffeeb78f65,
        type: 3}
      propertyPath: m_SizeDelta.x
      value: 0
      objectReference: {fileID: 0}
    - target: {fileID: 4164384882370877364, guid: 4b10ed44d1432024c8d185ffeeb78f65,
        type: 3}
      propertyPath: m_SizeDelta.y
      value: 0
      objectReference: {fileID: 0}
    - target: {fileID: 4603807606526520518, guid: 4b10ed44d1432024c8d185ffeeb78f65,
        type: 3}
      propertyPath: m_IsActive
      value: 0
      objectReference: {fileID: 0}
    - target: {fileID: 5363292712494180649, guid: 4b10ed44d1432024c8d185ffeeb78f65,
        type: 3}
      propertyPath: m_IsActive
      value: 0
      objectReference: {fileID: 0}
    - target: {fileID: 5730178096145677040, guid: 4b10ed44d1432024c8d185ffeeb78f65,
        type: 3}
      propertyPath: m_SizeDelta.x
      value: 0
      objectReference: {fileID: 0}
    - target: {fileID: 5730178096145677040, guid: 4b10ed44d1432024c8d185ffeeb78f65,
        type: 3}
      propertyPath: m_SizeDelta.y
      value: 0
      objectReference: {fileID: 0}
    - target: {fileID: 5811958098035510403, guid: 4b10ed44d1432024c8d185ffeeb78f65,
        type: 3}
      propertyPath: m_AnchorMin.y
      value: 0
      objectReference: {fileID: 0}
    - target: {fileID: 5811958098035510403, guid: 4b10ed44d1432024c8d185ffeeb78f65,
        type: 3}
      propertyPath: m_AnchorMax.y
      value: 0
      objectReference: {fileID: 0}
    - target: {fileID: 5811958098035510403, guid: 4b10ed44d1432024c8d185ffeeb78f65,
        type: 3}
      propertyPath: m_AnchoredPosition.x
      value: 0
      objectReference: {fileID: 0}
    - target: {fileID: 5811958098035510403, guid: 4b10ed44d1432024c8d185ffeeb78f65,
        type: 3}
      propertyPath: m_AnchoredPosition.y
      value: 0
      objectReference: {fileID: 0}
    - target: {fileID: 5811958098035510403, guid: 4b10ed44d1432024c8d185ffeeb78f65,
        type: 3}
      propertyPath: m_SizeDelta.x
      value: 0
      objectReference: {fileID: 0}
    - target: {fileID: 5811958098035510403, guid: 4b10ed44d1432024c8d185ffeeb78f65,
        type: 3}
      propertyPath: m_SizeDelta.y
      value: 0
      objectReference: {fileID: 0}
    - target: {fileID: 6022375256905180735, guid: 4b10ed44d1432024c8d185ffeeb78f65,
        type: 3}
      propertyPath: m_IsActive
      value: 0
      objectReference: {fileID: 0}
    - target: {fileID: 6069784753860097140, guid: 4b10ed44d1432024c8d185ffeeb78f65,
        type: 3}
      propertyPath: m_AnchorMin.y
      value: 1
      objectReference: {fileID: 0}
    - target: {fileID: 6069784753860097140, guid: 4b10ed44d1432024c8d185ffeeb78f65,
        type: 3}
      propertyPath: m_AnchorMax.y
      value: 1
      objectReference: {fileID: 0}
    - target: {fileID: 6069784753860097140, guid: 4b10ed44d1432024c8d185ffeeb78f65,
        type: 3}
      propertyPath: m_AnchoredPosition.x
      value: 356
      objectReference: {fileID: 0}
    - target: {fileID: 6069784753860097140, guid: 4b10ed44d1432024c8d185ffeeb78f65,
        type: 3}
      propertyPath: m_AnchoredPosition.y
      value: -63
      objectReference: {fileID: 0}
    - target: {fileID: 6069784753860097140, guid: 4b10ed44d1432024c8d185ffeeb78f65,
        type: 3}
      propertyPath: m_SizeDelta.x
      value: 712
      objectReference: {fileID: 0}
    - target: {fileID: 6069784753860097140, guid: 4b10ed44d1432024c8d185ffeeb78f65,
        type: 3}
      propertyPath: m_SizeDelta.y
      value: 126
      objectReference: {fileID: 0}
    - target: {fileID: 6081047535122675552, guid: 4b10ed44d1432024c8d185ffeeb78f65,
        type: 3}
      propertyPath: m_AnchorMin.y
      value: 0
      objectReference: {fileID: 0}
    - target: {fileID: 6081047535122675552, guid: 4b10ed44d1432024c8d185ffeeb78f65,
        type: 3}
      propertyPath: m_AnchorMax.y
      value: 0
      objectReference: {fileID: 0}
    - target: {fileID: 6081047535122675552, guid: 4b10ed44d1432024c8d185ffeeb78f65,
        type: 3}
      propertyPath: m_AnchoredPosition.x
      value: 0
      objectReference: {fileID: 0}
    - target: {fileID: 6081047535122675552, guid: 4b10ed44d1432024c8d185ffeeb78f65,
        type: 3}
      propertyPath: m_AnchoredPosition.y
      value: 0
      objectReference: {fileID: 0}
    - target: {fileID: 6081047535122675552, guid: 4b10ed44d1432024c8d185ffeeb78f65,
        type: 3}
      propertyPath: m_SizeDelta.x
      value: 0
      objectReference: {fileID: 0}
    - target: {fileID: 6081047535122675552, guid: 4b10ed44d1432024c8d185ffeeb78f65,
        type: 3}
      propertyPath: m_SizeDelta.y
      value: 0
      objectReference: {fileID: 0}
    - target: {fileID: 6109079611381477472, guid: 4b10ed44d1432024c8d185ffeeb78f65,
        type: 3}
      propertyPath: m_SizeDelta.x
      value: 591
      objectReference: {fileID: 0}
    - target: {fileID: 6109079611381477472, guid: 4b10ed44d1432024c8d185ffeeb78f65,
        type: 3}
      propertyPath: m_SizeDelta.y
      value: 496
      objectReference: {fileID: 0}
    - target: {fileID: 6117420305787974407, guid: 4b10ed44d1432024c8d185ffeeb78f65,
        type: 3}
      propertyPath: m_IsActive
      value: 0
      objectReference: {fileID: 0}
    - target: {fileID: 6153885749529129321, guid: 4b10ed44d1432024c8d185ffeeb78f65,
        type: 3}
      propertyPath: m_SizeDelta.x
      value: 663
      objectReference: {fileID: 0}
    - target: {fileID: 6153885749529129321, guid: 4b10ed44d1432024c8d185ffeeb78f65,
        type: 3}
      propertyPath: m_SizeDelta.y
      value: 285
      objectReference: {fileID: 0}
    - target: {fileID: 6391809782045542107, guid: 4b10ed44d1432024c8d185ffeeb78f65,
        type: 3}
      propertyPath: m_IsActive
      value: 0
      objectReference: {fileID: 0}
    - target: {fileID: 6528896583740370037, guid: 4b10ed44d1432024c8d185ffeeb78f65,
        type: 3}
      propertyPath: m_SizeDelta.x
      value: 0
      objectReference: {fileID: 0}
    - target: {fileID: 6528896583740370037, guid: 4b10ed44d1432024c8d185ffeeb78f65,
        type: 3}
      propertyPath: m_SizeDelta.y
      value: 0
      objectReference: {fileID: 0}
    - target: {fileID: 6563631757598439928, guid: 4b10ed44d1432024c8d185ffeeb78f65,
        type: 3}
      propertyPath: m_SizeDelta.x
      value: 0
      objectReference: {fileID: 0}
    - target: {fileID: 6563631757598439928, guid: 4b10ed44d1432024c8d185ffeeb78f65,
        type: 3}
      propertyPath: m_SizeDelta.y
      value: 0
      objectReference: {fileID: 0}
    - target: {fileID: 6935759156462625967, guid: 4b10ed44d1432024c8d185ffeeb78f65,
        type: 3}
      propertyPath: m_SizeDelta.x
      value: 0
      objectReference: {fileID: 0}
    - target: {fileID: 6935759156462625967, guid: 4b10ed44d1432024c8d185ffeeb78f65,
        type: 3}
      propertyPath: m_SizeDelta.y
      value: 0
      objectReference: {fileID: 0}
    - target: {fileID: 6981032044198052788, guid: 4b10ed44d1432024c8d185ffeeb78f65,
        type: 3}
      propertyPath: m_SizeDelta.x
      value: 0
      objectReference: {fileID: 0}
    - target: {fileID: 6981032044198052788, guid: 4b10ed44d1432024c8d185ffeeb78f65,
        type: 3}
      propertyPath: m_SizeDelta.y
      value: 0
      objectReference: {fileID: 0}
    - target: {fileID: 7111749814472694515, guid: 4b10ed44d1432024c8d185ffeeb78f65,
        type: 3}
      propertyPath: m_SizeDelta.x
      value: 530
      objectReference: {fileID: 0}
    - target: {fileID: 7111749814472694515, guid: 4b10ed44d1432024c8d185ffeeb78f65,
        type: 3}
      propertyPath: m_SizeDelta.y
      value: 76
      objectReference: {fileID: 0}
    - target: {fileID: 7144947735221120176, guid: 4b10ed44d1432024c8d185ffeeb78f65,
        type: 3}
      propertyPath: m_LocalPosition.x
      value: 0
      objectReference: {fileID: 0}
    - target: {fileID: 7144947735221120176, guid: 4b10ed44d1432024c8d185ffeeb78f65,
        type: 3}
      propertyPath: m_LocalPosition.y
      value: 0
      objectReference: {fileID: 0}
    - target: {fileID: 7144947735221120176, guid: 4b10ed44d1432024c8d185ffeeb78f65,
        type: 3}
      propertyPath: m_LocalPosition.z
      value: 0
      objectReference: {fileID: 0}
    - target: {fileID: 7144947735221120176, guid: 4b10ed44d1432024c8d185ffeeb78f65,
        type: 3}
      propertyPath: m_LocalRotation.x
      value: 0
      objectReference: {fileID: 0}
    - target: {fileID: 7144947735221120176, guid: 4b10ed44d1432024c8d185ffeeb78f65,
        type: 3}
      propertyPath: m_LocalRotation.y
      value: 0
      objectReference: {fileID: 0}
    - target: {fileID: 7144947735221120176, guid: 4b10ed44d1432024c8d185ffeeb78f65,
        type: 3}
      propertyPath: m_LocalRotation.z
      value: 0
      objectReference: {fileID: 0}
    - target: {fileID: 7144947735221120176, guid: 4b10ed44d1432024c8d185ffeeb78f65,
        type: 3}
      propertyPath: m_LocalRotation.w
      value: 1
      objectReference: {fileID: 0}
    - target: {fileID: 7144947735221120176, guid: 4b10ed44d1432024c8d185ffeeb78f65,
        type: 3}
      propertyPath: m_RootOrder
      value: 0
      objectReference: {fileID: 0}
    - target: {fileID: 7144947735221120176, guid: 4b10ed44d1432024c8d185ffeeb78f65,
        type: 3}
      propertyPath: m_LocalEulerAnglesHint.x
      value: 0
      objectReference: {fileID: 0}
    - target: {fileID: 7144947735221120176, guid: 4b10ed44d1432024c8d185ffeeb78f65,
        type: 3}
      propertyPath: m_LocalEulerAnglesHint.y
      value: 0
      objectReference: {fileID: 0}
    - target: {fileID: 7144947735221120176, guid: 4b10ed44d1432024c8d185ffeeb78f65,
        type: 3}
      propertyPath: m_LocalEulerAnglesHint.z
      value: 0
      objectReference: {fileID: 0}
    - target: {fileID: 7144947735221120176, guid: 4b10ed44d1432024c8d185ffeeb78f65,
        type: 3}
      propertyPath: m_AnchoredPosition.x
      value: 0
      objectReference: {fileID: 0}
    - target: {fileID: 7144947735221120176, guid: 4b10ed44d1432024c8d185ffeeb78f65,
        type: 3}
      propertyPath: m_AnchoredPosition.y
      value: 0
      objectReference: {fileID: 0}
    - target: {fileID: 7144947735221120176, guid: 4b10ed44d1432024c8d185ffeeb78f65,
        type: 3}
      propertyPath: m_SizeDelta.x
      value: 1620
      objectReference: {fileID: 0}
    - target: {fileID: 7144947735221120176, guid: 4b10ed44d1432024c8d185ffeeb78f65,
        type: 3}
      propertyPath: m_SizeDelta.y
      value: 1080
      objectReference: {fileID: 0}
    - target: {fileID: 7144947735221120176, guid: 4b10ed44d1432024c8d185ffeeb78f65,
        type: 3}
      propertyPath: m_AnchorMin.x
      value: 0
      objectReference: {fileID: 0}
    - target: {fileID: 7144947735221120176, guid: 4b10ed44d1432024c8d185ffeeb78f65,
        type: 3}
      propertyPath: m_AnchorMin.y
      value: 0.5
      objectReference: {fileID: 0}
    - target: {fileID: 7144947735221120176, guid: 4b10ed44d1432024c8d185ffeeb78f65,
        type: 3}
      propertyPath: m_AnchorMax.x
      value: 0
      objectReference: {fileID: 0}
    - target: {fileID: 7144947735221120176, guid: 4b10ed44d1432024c8d185ffeeb78f65,
        type: 3}
      propertyPath: m_AnchorMax.y
      value: 0.5
      objectReference: {fileID: 0}
    - target: {fileID: 7144947735221120176, guid: 4b10ed44d1432024c8d185ffeeb78f65,
        type: 3}
      propertyPath: m_Pivot.x
      value: 0
      objectReference: {fileID: 0}
    - target: {fileID: 7144947735221120176, guid: 4b10ed44d1432024c8d185ffeeb78f65,
        type: 3}
      propertyPath: m_Pivot.y
      value: 0.5
      objectReference: {fileID: 0}
    - target: {fileID: 7521083948882334168, guid: 4b10ed44d1432024c8d185ffeeb78f65,
        type: 3}
      propertyPath: m_AnchorMin.y
      value: 0
      objectReference: {fileID: 0}
    - target: {fileID: 7521083948882334168, guid: 4b10ed44d1432024c8d185ffeeb78f65,
        type: 3}
      propertyPath: m_AnchorMax.y
      value: 0
      objectReference: {fileID: 0}
    - target: {fileID: 7521083948882334168, guid: 4b10ed44d1432024c8d185ffeeb78f65,
        type: 3}
      propertyPath: m_AnchoredPosition.x
      value: 0
      objectReference: {fileID: 0}
    - target: {fileID: 7521083948882334168, guid: 4b10ed44d1432024c8d185ffeeb78f65,
        type: 3}
      propertyPath: m_AnchoredPosition.y
      value: 0
      objectReference: {fileID: 0}
    - target: {fileID: 7521083948882334168, guid: 4b10ed44d1432024c8d185ffeeb78f65,
        type: 3}
      propertyPath: m_SizeDelta.x
      value: 0
      objectReference: {fileID: 0}
    - target: {fileID: 7521083948882334168, guid: 4b10ed44d1432024c8d185ffeeb78f65,
        type: 3}
      propertyPath: m_SizeDelta.y
      value: 0
      objectReference: {fileID: 0}
    - target: {fileID: 7639648475496134950, guid: 4b10ed44d1432024c8d185ffeeb78f65,
        type: 3}
      propertyPath: m_Name
      value: ms_t2_v3
      objectReference: {fileID: 0}
    - target: {fileID: 7654892659279067520, guid: 4b10ed44d1432024c8d185ffeeb78f65,
        type: 3}
      propertyPath: m_IsActive
      value: 0
      objectReference: {fileID: 0}
    - target: {fileID: 7701964709372346099, guid: 4b10ed44d1432024c8d185ffeeb78f65,
        type: 3}
      propertyPath: m_AnchorMin.y
      value: 1
      objectReference: {fileID: 0}
    - target: {fileID: 7701964709372346099, guid: 4b10ed44d1432024c8d185ffeeb78f65,
        type: 3}
      propertyPath: m_AnchorMax.y
      value: 1
      objectReference: {fileID: 0}
    - target: {fileID: 7701964709372346099, guid: 4b10ed44d1432024c8d185ffeeb78f65,
        type: 3}
      propertyPath: m_AnchoredPosition.x
      value: 107
      objectReference: {fileID: 0}
    - target: {fileID: 7701964709372346099, guid: 4b10ed44d1432024c8d185ffeeb78f65,
        type: 3}
      propertyPath: m_AnchoredPosition.y
      value: -293
      objectReference: {fileID: 0}
    - target: {fileID: 7701964709372346099, guid: 4b10ed44d1432024c8d185ffeeb78f65,
        type: 3}
      propertyPath: m_SizeDelta.x
      value: 214
      objectReference: {fileID: 0}
    - target: {fileID: 7701964709372346099, guid: 4b10ed44d1432024c8d185ffeeb78f65,
        type: 3}
      propertyPath: m_SizeDelta.y
      value: 586
      objectReference: {fileID: 0}
    - target: {fileID: 7740758685632978552, guid: 4b10ed44d1432024c8d185ffeeb78f65,
        type: 3}
      propertyPath: m_SizeDelta.x
      value: 954
      objectReference: {fileID: 0}
    - target: {fileID: 7740758685632978552, guid: 4b10ed44d1432024c8d185ffeeb78f65,
        type: 3}
      propertyPath: m_SizeDelta.y
      value: 211
      objectReference: {fileID: 0}
    - target: {fileID: 7846511160808691018, guid: 4b10ed44d1432024c8d185ffeeb78f65,
        type: 3}
      propertyPath: m_AnchorMin.y
      value: 0
      objectReference: {fileID: 0}
    - target: {fileID: 7846511160808691018, guid: 4b10ed44d1432024c8d185ffeeb78f65,
        type: 3}
      propertyPath: m_AnchorMax.y
      value: 0
      objectReference: {fileID: 0}
    - target: {fileID: 7846511160808691018, guid: 4b10ed44d1432024c8d185ffeeb78f65,
        type: 3}
      propertyPath: m_AnchoredPosition.x
      value: 0
      objectReference: {fileID: 0}
    - target: {fileID: 7846511160808691018, guid: 4b10ed44d1432024c8d185ffeeb78f65,
        type: 3}
      propertyPath: m_AnchoredPosition.y
      value: 0
      objectReference: {fileID: 0}
    - target: {fileID: 7846511160808691018, guid: 4b10ed44d1432024c8d185ffeeb78f65,
        type: 3}
      propertyPath: m_SizeDelta.x
      value: 0
      objectReference: {fileID: 0}
    - target: {fileID: 7846511160808691018, guid: 4b10ed44d1432024c8d185ffeeb78f65,
        type: 3}
      propertyPath: m_SizeDelta.y
      value: 0
      objectReference: {fileID: 0}
    - target: {fileID: 7896031843803474891, guid: 4b10ed44d1432024c8d185ffeeb78f65,
        type: 3}
      propertyPath: m_AnchorMin.y
      value: 1
      objectReference: {fileID: 0}
    - target: {fileID: 7896031843803474891, guid: 4b10ed44d1432024c8d185ffeeb78f65,
        type: 3}
      propertyPath: m_AnchorMax.y
      value: 1
      objectReference: {fileID: 0}
    - target: {fileID: 7896031843803474891, guid: 4b10ed44d1432024c8d185ffeeb78f65,
        type: 3}
      propertyPath: m_AnchoredPosition.x
      value: 192
      objectReference: {fileID: 0}
    - target: {fileID: 7896031843803474891, guid: 4b10ed44d1432024c8d185ffeeb78f65,
        type: 3}
      propertyPath: m_AnchoredPosition.y
      value: -158
      objectReference: {fileID: 0}
    - target: {fileID: 7896031843803474891, guid: 4b10ed44d1432024c8d185ffeeb78f65,
        type: 3}
      propertyPath: m_SizeDelta.x
      value: 384
      objectReference: {fileID: 0}
    - target: {fileID: 7896031843803474891, guid: 4b10ed44d1432024c8d185ffeeb78f65,
        type: 3}
      propertyPath: m_SizeDelta.y
      value: 316
      objectReference: {fileID: 0}
    - target: {fileID: 7957479308177166987, guid: 4b10ed44d1432024c8d185ffeeb78f65,
        type: 3}
      propertyPath: m_AnchorMin.y
      value: 0
      objectReference: {fileID: 0}
    - target: {fileID: 7957479308177166987, guid: 4b10ed44d1432024c8d185ffeeb78f65,
        type: 3}
      propertyPath: m_AnchorMax.y
      value: 0
      objectReference: {fileID: 0}
    - target: {fileID: 7957479308177166987, guid: 4b10ed44d1432024c8d185ffeeb78f65,
        type: 3}
      propertyPath: m_AnchoredPosition.x
      value: 0
      objectReference: {fileID: 0}
    - target: {fileID: 7957479308177166987, guid: 4b10ed44d1432024c8d185ffeeb78f65,
        type: 3}
      propertyPath: m_AnchoredPosition.y
      value: 0
      objectReference: {fileID: 0}
    - target: {fileID: 7957479308177166987, guid: 4b10ed44d1432024c8d185ffeeb78f65,
        type: 3}
      propertyPath: m_SizeDelta.x
      value: 0
      objectReference: {fileID: 0}
    - target: {fileID: 7957479308177166987, guid: 4b10ed44d1432024c8d185ffeeb78f65,
        type: 3}
      propertyPath: m_SizeDelta.y
      value: 0
      objectReference: {fileID: 0}
    - target: {fileID: 8163313241340233324, guid: 4b10ed44d1432024c8d185ffeeb78f65,
        type: 3}
      propertyPath: m_SizeDelta.x
      value: 538
      objectReference: {fileID: 0}
    - target: {fileID: 8163313241340233324, guid: 4b10ed44d1432024c8d185ffeeb78f65,
        type: 3}
      propertyPath: m_SizeDelta.y
      value: 515
      objectReference: {fileID: 0}
    - target: {fileID: 8388428254416168157, guid: 4b10ed44d1432024c8d185ffeeb78f65,
        type: 3}
      propertyPath: m_AnchorMin.y
      value: 1
      objectReference: {fileID: 0}
    - target: {fileID: 8388428254416168157, guid: 4b10ed44d1432024c8d185ffeeb78f65,
        type: 3}
      propertyPath: m_AnchorMax.y
      value: 1
      objectReference: {fileID: 0}
    - target: {fileID: 8388428254416168157, guid: 4b10ed44d1432024c8d185ffeeb78f65,
        type: 3}
      propertyPath: m_AnchoredPosition.x
      value: 330.5
      objectReference: {fileID: 0}
    - target: {fileID: 8388428254416168157, guid: 4b10ed44d1432024c8d185ffeeb78f65,
        type: 3}
      propertyPath: m_AnchoredPosition.y
      value: -308.5
      objectReference: {fileID: 0}
    - target: {fileID: 8388428254416168157, guid: 4b10ed44d1432024c8d185ffeeb78f65,
        type: 3}
      propertyPath: m_SizeDelta.x
      value: 661
      objectReference: {fileID: 0}
    - target: {fileID: 8388428254416168157, guid: 4b10ed44d1432024c8d185ffeeb78f65,
        type: 3}
      propertyPath: m_SizeDelta.y
      value: 617
      objectReference: {fileID: 0}
    - target: {fileID: 8439818513139291121, guid: 4b10ed44d1432024c8d185ffeeb78f65,
        type: 3}
      propertyPath: m_AnchorMin.y
      value: 0
      objectReference: {fileID: 0}
    - target: {fileID: 8439818513139291121, guid: 4b10ed44d1432024c8d185ffeeb78f65,
        type: 3}
      propertyPath: m_AnchorMax.y
      value: 0
      objectReference: {fileID: 0}
    - target: {fileID: 8439818513139291121, guid: 4b10ed44d1432024c8d185ffeeb78f65,
        type: 3}
      propertyPath: m_AnchoredPosition.x
      value: 0
      objectReference: {fileID: 0}
    - target: {fileID: 8439818513139291121, guid: 4b10ed44d1432024c8d185ffeeb78f65,
        type: 3}
      propertyPath: m_AnchoredPosition.y
      value: 0
      objectReference: {fileID: 0}
    - target: {fileID: 8439818513139291121, guid: 4b10ed44d1432024c8d185ffeeb78f65,
        type: 3}
      propertyPath: m_SizeDelta.x
      value: 0
      objectReference: {fileID: 0}
    - target: {fileID: 8439818513139291121, guid: 4b10ed44d1432024c8d185ffeeb78f65,
        type: 3}
      propertyPath: m_SizeDelta.y
      value: 0
      objectReference: {fileID: 0}
    - target: {fileID: 8773810536023271553, guid: 4b10ed44d1432024c8d185ffeeb78f65,
        type: 3}
      propertyPath: m_AnchorMin.y
      value: 0
      objectReference: {fileID: 0}
    - target: {fileID: 8773810536023271553, guid: 4b10ed44d1432024c8d185ffeeb78f65,
        type: 3}
      propertyPath: m_AnchorMax.y
      value: 0
      objectReference: {fileID: 0}
    - target: {fileID: 8773810536023271553, guid: 4b10ed44d1432024c8d185ffeeb78f65,
        type: 3}
      propertyPath: m_AnchoredPosition.x
      value: 0
      objectReference: {fileID: 0}
    - target: {fileID: 8773810536023271553, guid: 4b10ed44d1432024c8d185ffeeb78f65,
        type: 3}
      propertyPath: m_AnchoredPosition.y
      value: 0
      objectReference: {fileID: 0}
    - target: {fileID: 8773810536023271553, guid: 4b10ed44d1432024c8d185ffeeb78f65,
        type: 3}
      propertyPath: m_SizeDelta.x
      value: 0
      objectReference: {fileID: 0}
    - target: {fileID: 8773810536023271553, guid: 4b10ed44d1432024c8d185ffeeb78f65,
        type: 3}
      propertyPath: m_SizeDelta.y
      value: 0
      objectReference: {fileID: 0}
    - target: {fileID: 8829393209337432272, guid: 4b10ed44d1432024c8d185ffeeb78f65,
        type: 3}
      propertyPath: m_SizeDelta.x
      value: 356
      objectReference: {fileID: 0}
    - target: {fileID: 8829393209337432272, guid: 4b10ed44d1432024c8d185ffeeb78f65,
        type: 3}
      propertyPath: m_SizeDelta.y
      value: 618
      objectReference: {fileID: 0}
    - target: {fileID: 8980244233122035631, guid: 4b10ed44d1432024c8d185ffeeb78f65,
        type: 3}
      propertyPath: m_AnchorMin.y
      value: 0
      objectReference: {fileID: 0}
    - target: {fileID: 8980244233122035631, guid: 4b10ed44d1432024c8d185ffeeb78f65,
        type: 3}
      propertyPath: m_AnchorMax.y
      value: 0
      objectReference: {fileID: 0}
    - target: {fileID: 8980244233122035631, guid: 4b10ed44d1432024c8d185ffeeb78f65,
        type: 3}
      propertyPath: m_AnchoredPosition.x
      value: 0
      objectReference: {fileID: 0}
    - target: {fileID: 8980244233122035631, guid: 4b10ed44d1432024c8d185ffeeb78f65,
        type: 3}
      propertyPath: m_AnchoredPosition.y
      value: 0
      objectReference: {fileID: 0}
    - target: {fileID: 8980244233122035631, guid: 4b10ed44d1432024c8d185ffeeb78f65,
        type: 3}
      propertyPath: m_SizeDelta.x
      value: 0
      objectReference: {fileID: 0}
    - target: {fileID: 8980244233122035631, guid: 4b10ed44d1432024c8d185ffeeb78f65,
        type: 3}
      propertyPath: m_SizeDelta.y
      value: 0
      objectReference: {fileID: 0}
    - target: {fileID: 9059616389045092620, guid: 4b10ed44d1432024c8d185ffeeb78f65,
        type: 3}
      propertyPath: m_SizeDelta.x
      value: 0
      objectReference: {fileID: 0}
    - target: {fileID: 9059616389045092620, guid: 4b10ed44d1432024c8d185ffeeb78f65,
        type: 3}
      propertyPath: m_SizeDelta.y
      value: 0
      objectReference: {fileID: 0}
    - target: {fileID: 9071237782407474625, guid: 4b10ed44d1432024c8d185ffeeb78f65,
        type: 3}
      propertyPath: m_SizeDelta.x
      value: 0
      objectReference: {fileID: 0}
    - target: {fileID: 9071237782407474625, guid: 4b10ed44d1432024c8d185ffeeb78f65,
        type: 3}
      propertyPath: m_SizeDelta.y
      value: 0
      objectReference: {fileID: 0}
    m_RemovedComponents: []
  m_SourcePrefab: {fileID: 100100000, guid: 4b10ed44d1432024c8d185ffeeb78f65, type: 3}
