%YAML 1.1
%TAG !u! tag:unity3d.com,2011:
--- !u!114 &11400000
MonoBehaviour:
  m_ObjectHideFlags: 0
  m_CorrespondingSourceObject: {fileID: 0}
  m_PrefabInstance: {fileID: 0}
  m_PrefabAsset: {fileID: 0}
  m_GameObject: {fileID: 0}
  m_Enabled: 1
  m_EditorHideFlags: 0
  m_Script: {fileID: 11500000, guid: 8dc22583a5f9ddc49892d8c024044058, type: 3}
  m_Name: dataCharacterStats_4
  m_EditorClassIdentifier: 
  UID: character_4
  characterName: "\u8349\u539F\u96C4\u9E70"
  characterIcon: {fileID: 21300000, guid: 695994d9ebe7acd49940cda518a687d9, type: 3}
  traitUID: 
  traitName: "\u9AD8\u98DE"
  traitIcon: {fileID: 21300000, guid: 665f0b0698f54804cade03a3bdd30e1e, type: 3}
  dialogs:
  - "\u55F7\uFF01"
  - "\u5495"
  bornLocUID: node_mountain_matou
  startCoins: 400
  supplyCost: 140000003200000050000000
  supplyStamina: 080000000c0000000f000000
