UID,buff_name,buff_icon,type,exposed,action,formula,default,desc,dev_note
feature_gate_season_spring,春,icon_spring,gate,1,feature_gate,bool,0,,
feature_gate_season_summer,夏,icon_summer,gate,1,feature_gate,bool,0,,
feature_gate_season_autumn,秋,icon_autumn,gate,1,feature_gate,bool,0,,
feature_gate_season_winter,冬,icon_winter,gate,1,feature_gate,bool,0,,
feature_gate_card_kong,灵犀自然,icon_kong,gate,1,feature_gate,bool,0,,
feature_gate_card_gui,学识渊博,icon_gui,gate,1,feature_gate,bool,0,,
feature_gate_card_lore,神话传说,icon_lore,gate,1,feature_gate,bool,0,,
feature_gate_no_more_feeling_conflict,融会贯通,,gate,0,feature_gate,bool,0,,
feature_gate_no_more_geo_conflict,四通八达,,gate,0,feature_gate,bool,0,,
feature_gate_max_level_action,天人合一,,gate,0,feature_gate,bool,0,,
feature_gate_owning_equipment,拥有收藏,,gate,0,feature_gate,bool,0,,
feature_gate_journal_not_full,游记未满,,gate,0,feature_gate,bool,0,,
feature_gate_other_unlocked_characters,已有其他解锁人物,,gate,0,feature_gate,bool,0,,
feature_gate_park_mystic,世外桃源的传说,,gate,0,feature_gate,bool,0,,
feature_gate_equipment_mystic,汗血宝马的传说,,gate,0,feature_gate,bool,0,,
feature_gate_trait_mystic,天人合一的传说,,gate,0,feature_gate,bool,0,,
feature_gate_collectible_mystic,世间绝景的传说,,gate,0,feature_gate,bool,0,,
feature_gate_journal_style_book,游记类型 - 书,,gate,0,feature_gate,bool,0,,
feature_gate_journal_style_journal,游记类型 - 记,,gate,0,feature_gate,bool,0,,
feature_gate_journal_rule_6unique,游记规则 - 6标签,,gate,0,feature_gate,bool,0,,
feature_gate_gain_coin_from_fame,声望附加铜钱,,gate,0,feature_gate,bool,0,,
feature_gate_gain_fame_from_coin,铜钱转化声望,,gate,0,feature_gate,bool,0,,
feature_gate_gain_interests,获得利息,,gate,0,feature_gate,bool,0,,
feature_gate_basic_activities,基础城镇活动,,gate,0,feature_gate,bool,0,,
feature_gate_upgraded_activities,升级城镇活动,,gate,0,feature_gate,bool,0,,
feature_gate_activity_buy_home,购置豪宅,,gate,0,feature_gate,bool,0,,
feature_gate_region_island,仙岛区域,,gate,0,feature_gate,bool,0,,
feature_gate_card_star,"有关于""星宿""的传说",,gate,0,feature_gate,bool,0,,
feature_gate_card_palace,"有关于""仙宫""的传说",,gate,0,feature_gate,bool,0,,
feature_gate_card_peng,"有关于""鹏""的传说",,gate,0,feature_gate,bool,0,,
feature_gate_card_kun,"有关于""鲲""的传说",,gate,0,feature_gate,bool,0,,
feature_gate_card_feng,"有关于""凤凰""的传说",,gate,0,feature_gate,bool,0,,