UID,title,desc,object_art,release,filter,tier,weight,collectible_options,preview_keyword,all_keyword
view_official,官方支持,,view_guanyin,,,1,0.000,collectible_official_v1,,
view_kong,空,,transparent,,,4,0.000,collectible_kong_v1,,
view_bailuqingtian,白鹭青天,,view_bailuqingtian,,"sea,mountain,desert",4,5.774,"collectible_bailuqingtian_v1,collectible_bailuqingtian_v2",animal,animal
view_chuiliu,垂柳,,view_chuiliu,,lake,2,10.000,"collectible_chuiliu_v1,collectible_chuiliu_v2",natural,"natural,lake"
view_huanglicuiliu,黄鹂翠柳,,view_huanglicuiliu,feature_gate_season_summer,lake,4,20.000,"collectible_huanglicuiliu_v1,collectible_huanglicuiliu_v2",natural,"natural,animal,summer"
view_gufeng,孤峰,,view_gufeng,,mountain,2,10.000,"collectible_gufeng_v1,collectible_gufeng_v2",natural,"natural,mountain"
view_dingfeng,顶峰,,view_dingfeng,,mountain,3,10.000,"collectible_dingfeng_v1,collectible_dingfeng_v2",natural,"natural,mountain"
view_lingxiao,临霄,,view_lingxiao,,mountain,4,10.000,"collectible_lingxiao_v1,collectible_lingxiao_v2",natural,"natural,giant,mountain"
view_xiagu,峡谷,,view_xiagu,,mountain,1,10.000,"collectible_xiagu_v1,collectible_xiagu_v2",natural,"natural,mountain"
view_shengu,深谷,,view_shengu,,mountain,2,10.000,"collectible_shengu_v1,collectible_shengu_v2",natural,"natural,mountain"
view_yougu,幽谷,,view_yougu,,mountain,3,10.000,"collectible_yougu_v1,collectible_yougu_v2",natural,"natural,mysterious,mountain"
view_xiangu,仙谷,,view_xiangu,,mountain,4,10.000,"collectible_xiangu_v1,collectible_xiangu_v2",natural,"natural,lore,mountain"
view_qunshan,群山,,view_qunshan,,mountain,2,10.000,collectible_qunshan_v1,,mountain
view_diezhang,叠嶂,,view_cengluan,,mountain,3,10.000,"collectible_diezhang_v1,collectible_diezhang_v2",natural,"natural,mountain"
view_qianfengsuiyu,千峰随雨,,view_qianfengsuiyu,,mountain,4,10.000,collectible_qianfengsuiyu_v1,natural,"natural,mountain"
view_hanshan,寒山,,view_hanshan,feature_gate_season_autumn,mountain,2,20.000,"collectible_hanshan_v1,collectible_hanshan_v2",natural,"natural,autumn,mountain"
view_shibi,石壁,,view_shibi,,"mountain,desert",1,7.071,"collectible_shibi_v1,collectible_shibi_v2",natural,natural
view_juebi,绝壁,,view_juebi,,"mountain,desert",3,7.071,"collectible_juebi_v1,collectible_juebi_v2",natural,"natural,giant"
view_baiyun,白云,,view_baiyun,,"sea,mountain,desert",1,5.774,"collectible_baiyun_v1,collectible_baiyun_v2",,calm
view_guyun,孤云,,view_guyun,,"sea,mountain,desert",2,5.774,"collectible_guyun_v1,collectible_guyun_v2",,sad
view_caiyun,彩云,,view_caiyun,,"sea,mountain,desert",3,5.774,"collectible_caiyun_v1,collectible_caiyun_v2",,mysterious
view_wuai,雾霭,,view_wuai,,"forest,swamp,mountain",2,5.774,"collectible_wuai_v1,collectible_wuai_v2",,mysterious
view_qingai,青霭,,view_qingai,,"forest,swamp,mountain",3,5.774,"collectible_qingai_v1,collectible_qingai_v2",,mysterious
view_banshanjuwu,半山居雾,,view_banshanjuwu,,mountain,4,10.000,"collectible_banshanjuwu_v1,collectible_banshanjuwu_v2",natural,"natural,mountain,mysterious"
view_gushi,孤石,,view_gushi,,"sea,mountain,desert",1,5.774,collectible_gushi_v1,,
view_songluan,松峦,,view_songluan,,forest,2,10.000,"collectible_songluan_v1,collectible_songluan_v2",natural,"natural,forest"
view_baishihongye,白石红叶,,view_baishihongye,feature_gate_season_autumn,forest,3,20.000,"collectible_baishihongye_v1,collectible_baishihongye_v2",natural,"natural,autumn,forest"
view_jinfengtongshi,金峰铜石,,view_jinfengtongshi,,mountain,5,10.000,"collectible_jinfengtongshi_v1,collectible_jinfengtongshi_v2",natural,"natural,mountain,rare,happy"
view_shanxianluori,山衔落日,,view_shanxianluori,,mountain,3,10.000,"collectible_shanxianluori_v1,collectible_shanxianluori_v2",natural,"natural,mountain"
view_cangshanfuxue,苍山负雪,,view_cangshanfuxue,feature_gate_season_winter,mountain,3,20.000,"collectible_cangshanfuxue_v1,collectible_cangshanfuxue_v2",natural,"natural,winter,mountain"
view_xuelian,雪莲,,view_xuelian,feature_gate_season_winter,mountain,3,20.000,"collectible_xuelian_v1,collectible_xuelian_v2",natural,"natural,winter,lore"
view_xiyang,夕阳,,view_xiyang,,"sea,swamp,mountain,desert,lake",2,4.472,"collectible_xiyang_v1,collectible_xiyang_v2",,sad
view_xunfeng,薰风,,view_xunfeng,feature_gate_season_summer,"sea,swamp,mountain,desert,lake",1,8.944,collectible_xunfeng_v1,,summer
view_qiufeng,秋风,,view_qiufeng,feature_gate_season_autumn,"sea,forest,mountain,desert,lake",1,8.944,collectible_qiufeng_v1,,autumn
view_shuofeng,朔风,,view_shuofeng,feature_gate_season_winter,"sea,mountain,desert,lake",1,10.000,collectible_shuofeng_v1,,winter
view_mingyue,明月,,view_mingyue,,"sea,forest,swamp,mountain,desert,lake",2,4.082,collectible_mingyue_v1,,
view_haiyue,海月,,view_haiyue,,sea,3,10.000,collectible_haiyue_v1,,sea
view_zixia,紫霞,,view_zixia,,"sea,swamp,mountain,desert,lake",3,4.472,collectible_zixia_v1,,
view_bairi,白日,,view_bairi,,desert,1,10.000,"collectible_bairi_v1,collectible_bairi_v2",,desert
view_xingchen,星辰,,view_xingchen,,"sea,swamp,mountain,desert,lake",3,4.472,"collectible_xingchen_v1,collectible_xingchen_v2",,mysterious
view_qingkong,晴空,,view_qingkong,,"sea,mountain,desert,lake",1,5.000,collectible_qingkong_v1,,
view_caihong,彩虹,,view_caihong,,"sea,swamp,lake",2,5.774,"collectible_caihong_v1,collectible_caihong_v2",,happy
view_zuji,足迹,,view_zuji,feature_gate_season_winter,"sea,forest,swamp,mountain,desert,lake",1,8.165,collectible_zuji_v1,,winter
view_muyu,暮雨,,view_muyu,,"sea,mountain,lake",2,5.774,"collectible_muyu_v1,collectible_muyu_v2",,sad
view_suiyu,碎雨,,view_suiyu,,"forest,swamp",1,7.071,collectible_suiyu_v1,,
view_zhelei,蛰雷,,view_zhelei,,"sea,forest,swamp,mountain,desert,lake",3,4.082,"collectible_zhelei_v1,collectible_zhelei_v2",,giant
view_zidianjinguang,紫金电光,,view_zidianjinguang,,"sea,mountain,desert",4,5.774,collectible_zidianjinguang_v1,,
view_shuangxue,霜雪,,view_shuangxue,feature_gate_season_winter,"sea,forest,mountain,desert,lake",2,8.944,collectible_shuangxue_v1,,winter
view_lingshangjinguang,岭上金光,,view_lingshangjinguang,,desert,3,10.000,"collectible_lingshangjinguang_v1,collectible_lingshangjinguang_v2",natural,"natural,desert"
view_zhinvxing,织女星,,view_zhinvxing,,"sea,mountain,desert,lake",4,5.000,"collectible_zhinvxing_v1,collectible_zhinvxing_v2",,mysterious
view_yueying,月影,,view_yueying,,lake,3,10.000,"collectible_yueying_v1,collectible_yueying_v2",,"calm,lake"
view_yuanyue,圆月,,view_yuanyue,feature_gate_season_autumn,"sea,forest,swamp,mountain,desert,lake",4,8.165,collectible_yuanyue_v1,,autumn
view_guanghangong,广寒宫,,view_guanghangong,,"sea,mountain,desert,lake",5,5.000,collectible_guanghangong_v1,structure,"structure,mysterious,lore"
view_youlin,幽林,,view_youlin,,forest,3,10.000,"collectible_youlin_v1,collectible_youlin_v2",natural,"natural,forest"
view_suyueqinghui,素月清辉,,view_suyueqinghui,,"sea,mountain,desert,lake",4,5.000,"collectible_suyueqinghui_v1,collectible_suyueqinghui_v2",,"religious,calm"
view_shuaicao,衰草,,view_shuaicao,feature_gate_season_winter,"sea,forest,swamp,desert",1,10.000,collectible_shuaicao_v1,natural,"natural,winter"
view_guifang,桂芳,,view_guifang,,"forest,swamp",1,7.071,"collectible_guifang_v1,collectible_guifang_v2",natural,natural
view_fangguicong,芳桂丛,,view_guifangcong,,"forest,swamp",2,7.071,"collectible_fangguicong_v1,collectible_fangguicong_v2",natural,natural
view_songbai,松柏,,view_songbai,,forest,2,10.000,"collectible_songbai_v1,collectible_songbai_v2",natural,"natural,forest"
view_cangsongcuibai,苍松翠柏,,view_cangsongcuibai,,forest,3,10.000,"collectible_cangsongcuibai_v1,collectible_cangsongcuibai_v2,collectible_cangsongcuibai_v3",natural,"natural,forest"
view_xuesong,雪松,,view_xuesong,feature_gate_season_winter,forest,2,20.000,"collectible_xuesong_v1,collectible_xuesong_v2",natural,"natural,winter,forest"
view_fengye,枫叶,,view_fengye,feature_gate_season_autumn,forest,2,20.000,"collectible_fengye_v1,collectible_fengye_v2",,"forest,autumn"
view_chuibi,垂薜,,view_chuixue,,swamp,2,10.000,"collectible_chuibi_v1,collectible_chuibi_v2",natural,"natural,swamp"
view_gumu,古木,,view_gumu,,"forest,swamp",2,7.071,"collectible_gumu_v1,collectible_gumu_v2",natural,natural
view_qimu,奇木,,view_qimu,,"forest,swamp",3,7.071,"collectible_qimu_v1,collectible_qimu_v2",natural,"natural,mysterious"
view_kumu,枯木,,view_kumu,,swamp,3,10.000,"collectible_kumu_v1,collectible_kumu_v2",,"swamp,sad"
view_kuzhi,枯枝,,view_kuzhi,feature_gate_season_winter,"forest,swamp,desert",2,11.547,"collectible_kuzhi_v1,collectible_kuzhi_v2",,"sad,winter"
view_jiquan,急泉,,view_jiquan,,forest,2,10.000,"collectible_jiquan_v1,collectible_jiquan_v2",natural,"natural,forest"
view_luzhu,露珠,,view_luzhu,,swamp,2,10.000,"collectible_luzhu_v1,collectible_luzhu_v2",,swamp
view_huashanglu,花上露,,view_huashanglu,,swamp,3,10.000,"collectible_huashanglu_v1,collectible_huashanglu_v2",,swamp
view_songhai,松海,,view_songhai,,forest,2,10.000,"collectible_songhai_v1,collectible_songhai_v2",natural,"forest,natural"
view_wanziqianhong,万紫千红,,view_wangziqianhong,feature_gate_season_spring,"forest,swamp",5,14.142,collectible_wanziqianhong_v1,,"forest,swamp,spring"
view_qingshan,青山,,view_qingshan,,forest,2,10.000,"collectible_qingshan_v1,collectible_qingshan_v2",natural,"natural,forest"
view_shanjiehaiyu,山接海隅,,view_shanjiehaiyu,,mountain,3,10.000,"collectible_shanjiehaiyu_v1,collectible_shanjiehaiyu_v2",natural,"natural,mountain,sea"
view_taosheng,涛声,,view_taosheng,,sea,1,10.000,collectible_taosheng_v1,,
view_bailang,白浪,,view_bailang4,,sea,2,10.000,"collectible_bailang_v1,collectible_bailang_v2,collectible_bailang_v3",animal,"sea,animal"
view_tianlang,天浪,,view_julang,,sea,3,10.000,"collectible_tianlang_v1,collectible_tianlang_v2",,sea
view_jushi,巨石,,view_jushi,,sea,2,10.000,"collectible_jushi_v1,collectible_jushi_v2",natural,"natural,sea,giant"
view_qiongshi,穹石,,view_qiongshi,,"sea,desert",3,7.071,"collectible_qiongshi_v1,collectible_qiongshi_v2,collectible_qiongshi_v3",natural,"natural,giant,desert,sea"
view_pingsha,平沙,,view_pingsha,,sea,1,10.000,collectible_pingsha_v1,,sea
view_qiongsha,琼砂,,view_qiongsha,,sea,3,10.000,"collectible_qiongsha_v1,collectible_qiongsha_v2",,"sea,calm"
view_haishenzhu,海神柱,,view_haishenzhu,,sea,4,10.000,collectible_haishenzhu_v1,natural,"natural,sea,lore"
view_shenjing,蜃景,,view_shenjing,,"sea,desert",4,7.071,"collectible_shenjing_v1,collectible_shenjing_v2,collectible_shenjing_v3",,"rare,sea,desert"
view_guyan,孤烟,,view_guyan1,,desert,2,10.000,"collectible_guyan_v1,collectible_guyan_v2,collectible_guyan_v3",animal,"desert,animal"
view_fenghuo,烽火,,view_fenghuo,,desert,3,10.000,collectible_fenghuo_v1,,desert
view_fengtuanzouhe,飞湍走壑,,view_feituanzouhe,,lake,3,10.000,"collectible_fengtuanzouhe_v1,collectible_fengtuanzouhe_v2",natural,"natural,lake"
view_mingyueshenxi,明月深溪,,view_mingyueshenxi,,lake,4,10.000,"collectible_mingyueshenxi_v1,collectible_mingyueshenxi_v2,collectible_mingyueshenxi_v3",natural,"natural,lake,calm"
view_guchi,古池,,view_guchi,,swamp,2,10.000,"collectible_guchi_v1,collectible_guchi_v2",natural,"natural,swamp"
view_tuanxi,湍溪,,view_tuanxi,,"swamp,lake",1,7.071,collectible_tuanxi_v1,natural,natural
view_lianyi,涟漪,,view_lianyi,,lake,2,10.000,"collectible_lianyi_v1,collectible_lianyi_v2",,"calm,lake"
view_bingmian,冰面,,view_bingmian,feature_gate_season_winter,lake,2,20.000,"collectible_bingmian_v1,collectible_bingmian_v2",,"winter,lake"
view_fuping,浮萍,,view_fuping,,"swamp,lake",1,7.071,"collectible_fuping_v1,collectible_fuping_v2",natural,natural
view_hehua,荷花,,view_hehua,,"swamp,lake",2,7.071,"collectible_hehua_v1,collectible_hehua_v2",natural,natural
view_shuilian,睡莲,,view_shuilian,feature_gate_season_summer,"swamp,lake",3,14.142,"collectible_shuilian_v1,collectible_shuilian_v2",natural,"natural,summer"
view_qiangwei,蔷薇,,view_qiangwei,,swamp,1,10.000,collectible_qiangwei_v1,natural,natural
view_taohua,桃花,,view_taohua,feature_gate_season_spring,"sea,forest,swamp",2,11.547,"collectible_taohua_v1,collectible_taohua_v2",natural,"natural,spring"
view_hongxing,红杏,,view_hongxing,feature_gate_season_spring,swamp,3,20.000,"collectible_hongxing_v1,collectible_hongxing_v2",natural,"natural,spring,swamp"
view_lvshuhonghua,绿树红花,,view_lvshuhonghua,feature_gate_season_summer,"forest,swamp",3,14.142,collectible_lvshuhonghua_v1,natural,"natural,summer"
view_mei,梅,,view_mei,feature_gate_season_winter,"mountain,desert",3,14.142,"collectible_mei_v1,collectible_mei_v2",natural,"natural,winter"
view_lan,兰,,view_lan,,swamp,3,10.000,"collectible_lan_v1,collectible_lan_v2",natural,"natural,swamp"
view_zhu,竹,,view_zhu,,"swamp,lake",3,7.071,"collectible_zhu_v1,collectible_zhu_v2",natural,"natural,calm"
view_shenzhu,深竹,,view_shenzhu,feature_gate_season_summer,"swamp,lake",3,14.142,collectible_shenzhu_v1,natural,"natural,summer"
view_ju,菊,,view_ju,feature_gate_season_autumn,"forest,swamp",3,14.142,"collectible_ju_v1,collectible_ju_v2",natural,"natural,autumn,calm"
view_huanghua,黄花,,view_huanghua,,"sea,forest,swamp,lake",1,5.000,"collectible_huanghua_v1,collectible_huanghua_v2",,happy
view_mubihua,木笔花,,view_mubihua,feature_gate_season_summer,"sea,forest,swamp,lake",3,10.000,collectible_mubihua_v1,,summer
view_songguo,松果,,view_songguo,,forest,2,10.000,"collectible_songguo_v1,collectible_songguo_v2",natural,"natural,forest"
view_luoxingshi,落星石,,view_luoxingshi,,lake,5,10.000,"collectible_luoxingshi_v1,collectible_luoxingshi_v2,collectible_luoxingshi_v3",natural,"natural,lore,lake,religious"
view_chiyanyun,赤焰云,,view_chiyanyun,,desert,5,10.000,collectible_chiyanyun_v1,,"desert,rare"
view_longku,龙窟,,view_longku,,"sea,lake",3,7.071,"collectible_longku_v1,collectible_longku_v2,collectible_longku_v3",natural,"natural,lore,sea,lake"
view_yuanshen,猿声,,view_yuansheng,,mountain,1,10.000,collectible_yuanshen_v1,animal,animal
view_yuanhou,猿猴,,view_yuansheng,,mountain,2,10.000,"collectible_yuanhou_v1,collectible_yuanhou_v2",animal,"animal,mountain"
view_baiyuan,白猿,,view_baiyuan,,mountain,3,10.000,"collectible_baiyuan_v1,collectible_baiyuan_v2",animal,"animal,mountain"
view_huilang,灰狼,,view_huilang,,"mountain,desert",1,7.071,"collectible_huilang_v1,collectible_huilang_v2",animal,animal
view_liebao,猎豹,,view_liebao,,desert,2,10.000,"collectible_liebao_v1,collectible_liebao_v2",animal,"animal,desert"
view_xuebao,雪豹,,view_xuebao,feature_gate_season_winter,desert,4,20.000,"collectible_xuebao_v1,collectible_xuebao_v2",animal,"animal,winter,desert"
view_shanyang,山羊,,view_shanyang,,mountain,2,10.000,"collectible_shanyang_v1,collectible_shanyang_v2",animal,"animal,mountain"
view_yanqun,雁群,,view_yanqun,feature_gate_season_autumn,"sea,forest,swamp,mountain,desert,lake",2,8.165,"collectible_yanqun_v1,collectible_yanqun_v2",animal,"animal,autumn"
view_feihong,飞鸿,,view_feihong,,"sea,forest,swamp,mountain,desert,lake",3,4.082,collectible_feihong_v1,animal,animal
view_feng,凤,,view_feng,,forest,5,10.000,"collectible_feng_v1,collectible_feng_v2",animal,"animal,lore,rare"
view_niaoqun,鸟群,,view_niaoqun,,"sea,forest,mountain",2,5.774,"collectible_niaoqun_v1,collectible_niaoqun_v2",animal,animal
view_niaoming,鸟鸣,,view_niaoming,,"sea,forest,swamp",1,5.774,collectible_niaoming_v1,,
view_huangli,黄鹂,,view_huangli,feature_gate_season_summer,"forest,swamp,lake",2,11.547,collectible_huangli_v1,animal,"animal,summer"
view_yuanyang,鸳鸯,,view_yuanyang,,lake,2,10.000,"collectible_yuanyang_v1,collectible_yuanyang_v2,collectible_yuanyang_v3",animal,"animal,lake,happy"
view_zhegu,鹧鸪,,view_zhegu,,lake,3,10.000,"collectible_zhegu_v1,collectible_zhegu_v2,collectible_zhegu_v3",animal,"animal,lake,sad"
view_hanou,寒鸥,,view_hanou,feature_gate_season_autumn,lake,3,20.000,"collectible_hanou_v1,collectible_hanou_v2,collectible_hanou_v3",animal,"animal,autumn,lake"
view_yeying,夜莺,,view_yeying,feature_gate_season_summer,"forest,lake",1,14.142,collectible_yeying_v1,animal,"animal,summer"
view_outing,鸥汀,,view_outing,,lake,3,10.000,"collectible_outing_v1,collectible_outing_v2",natural,"natural,animal,lake"
view_jumang,巨蟒,,view_jumang,,swamp,2,10.000,"collectible_jumang_v1,collectible_jumang_v2",animal,"animal,swamp"
view_ya,鸦,,view_ya,,forest,1,10.000,collectible_ya_v1,animal,animal
view_chanming,蝉鸣,,view_chanming,feature_gate_season_summer,"forest,mountain",2,14.142,"collectible_chanming_v1,collectible_chanming_v2",animal,"animal,summer,calm"
view_hanchan,寒蝉,,view_hanchan,feature_gate_season_winter,"forest,mountain",2,14.142,"collectible_hanchan_v1,collectible_hanchan_v2",animal,"animal,winter,sad"
view_milu,麋鹿,,view_milu,,"mountain,desert",3,7.071,collectible_milu_v1,animal,animal
view_qingting,蜻蜓,,view_qingting,feature_gate_season_spring,"sea,forest,swamp,mountain,desert,lake",1,8.165,collectible_qingting_v1,,spring
view_xishuai,蟋蟀,,view_xishuai,,"sea,forest,swamp,mountain,desert,lake",1,4.082,collectible_xishuai_v1,animal,animal
view_duchong,毒虫,,view_duchong,,swamp,2,10.000,"collectible_duchong_v1,collectible_duchong_v2",animal,"animal,swamp"
view_liuying,流萤,,view_liuying,feature_gate_season_summer,"sea,forest,swamp,mountain,desert,lake",1,8.165,collectible_liuying_v1,,summer
view_gui,龟,,view_gui,,lake,3,10.000,"collectible_gui_v1,collectible_gui_v2",animal,"animal,lake"
view_yinlu,银鲈,,view_yinlu,feature_gate_season_autumn,lake,2,20.000,"collectible_yinlu_v1,collectible_yinlu_v2",animal,"animal,lake,autumn,happy"
view_lu,鹿,,view_lu4,,"forest,swamp",3,7.071,"collectible_lu_v1,collectible_lu_v2",animal,"animal,structure,religious"
view_meihualu,梅花鹿,,view_meihualu,,"forest,swamp",4,7.071,collectible_meihualu_v1,animal,animal
view_xiongying,雄鹰,,view_xiongying,,desert,1,10.000,collectible_xiongying_v1,animal,animal
view_cangying,苍鹰,,view_cangying,,desert,2,10.000,"collectible_cangying_v1,collectible_cangying_v2",animal,"animal,desert"
view_ou,鸥,,view_ou,,sea,2,10.000,"collectible_ou_v1,collectible_ou_v2",animal,"animal,sea"
view_huamei,画眉,,view_huamei,,lake,3,10.000,"collectible_huamei_v1,collectible_huamei_v2,collectible_huamei_v3",animal,"animal,lake,happy"
view_dujuan,杜鹃,,view_dujuan,,sea,3,10.000,"collectible_dujuan_v1,collectible_dujuan_v2",animal,"animal,sea"
view_hudie,蝴蝶,,view_hudie,feature_gate_season_spring,"forest,swamp",2,14.142,collectible_hudie_v1,,spring
view_huangdie,黄蝶,,view_huangdie,feature_gate_season_spring,"forest,swamp",3,14.142,collectible_huangdie_v1,,spring
view_kedou,蝌蚪,,view_kedou,feature_gate_season_spring,lake,3,20.000,collectible_kedou_v1,,"lake,spring"
view_qingwa,青蛙,,view_qingwa,,"forest,lake",1,7.071,collectible_qingwa_v1,animal,animal
view_laowa,老蛙,,view_laowa,,"forest,lake",2,7.071,collectible_laowa_v1,animal,animal
view_chanchu,蟾蜍,,view_chanchu,,"forest,swamp",2,7.071,"collectible_chanchu_v1,collectible_chanchu_v2",animal,animal
view_yinchan,银蟾,,view_yinchan,,"forest,swamp",3,7.071,"collectible_yinchan_v1,collectible_yinchan_v2",animal,animal
view_yan,燕,,view_yan,feature_gate_season_spring,"sea,forest",1,14.142,collectible_yan_v1,animal,"animal,spring"
view_e,鹅,,view_e,,lake,1,10.000,collectible_e_v1,,lake
view_ruya,乳鸭,,view_ruya,feature_gate_season_summer,"sea,lake",2,14.142,collectible_ruya_v1,animal,"animal,summer"
view_yingwu,鹦鹉,,view_yingwu,,"forest,swamp",3,7.071,"collectible_yingwu_v1,collectible_yingwu_v2",animal,"animal,happy"
view_kun,鲲,,view_kun,,sea,5,10.000,"collectible_kun_v1,collectible_kun_v2",animal,"animal,lore,giant"
view_peng,鹏,,view_peng,,"swamp,desert",5,7.071,collectible_peng_v1,,"giant,lore,rare"
view_long,龙,,view_long,,lake,5,10.000,"collectible_long_v1,collectible_long_v2",animal,"animal,lore,rare"
view_shibei,石碑,,view_shibei,,"sea,forest,swamp,mountain,desert,lake",1,4.082,collectible_shibei_v1,structure,structure
view_shiyu,石鱼,,view_shiyu,,"sea,lake",3,7.071,"collectible_shiyu_v1,collectible_shiyu_v2,collectible_shiyu_v3",animal,"structure,sea,lake"
view_qiao,桥,,view_muqiao,,"sea,forest,swamp,mountain,desert,lake",1,4.082,collectible_qiao_v1,structure,structure
view_duanqiao,断桥,,view_duanqiao,,"sea,forest,swamp,mountain,desert,lake",2,4.082,"collectible_duanqiao_v1,collectible_duanqiao_v2",structure,"structure,sad"
view_luoshuiqiao,洛水桥,,view_luoshuiqiao,,sea,5,10.000,"collectible_luoshuiqiao_v1,collectible_luoshuiqiao_v2",structure,"structure,lore,sea"
view_jing,井,,view_shijing,,"sea,forest,swamp,mountain,lake",1,4.472,collectible_jing_v1,,
view_kujing,枯井,,view_kujing,,desert,3,10.000,"collectible_kujing_v1,collectible_kujing_v2,collectible_kujing_v3",,"sad,desert"
view_si,寺,,view_si,,"forest,swamp,mountain",2,5.774,collectible_si_v1,structure,structure
view_zhongsheng,钟声,,view_zhongsheng,,"sea,mountain,desert",1,5.774,"collectible_zhongsheng_v1,collectible_zhongsheng_v2",structure,structure
view_shanmen,山门,,view_shanmen,,mountain,2,10.000,collectible_shanmen_v1,structure,"structure,mountain"
view_liba,篱笆,,view_liba,,"forest,swamp",1,7.071,collectible_liba_v1,structure,structure
view_mulan,木栏,,view_mulan,,sea,1,10.000,"collectible_mulan_v1,collectible_mulan_v2",structure,"structure,sea"
view_zhan,栈,,view_niaodao,,mountain,2,10.000,"collectible_zhan_v1,collectible_zhan_v2",,mountain
view_niaodao,鸟道,,view_niaodao,,mountain,3,10.000,"collectible_niaodao_v1,collectible_niaodao_v2,collectible_niaodao_v3",,"mountain,religious"
view_ting,亭,,view_ting,,"sea,forest,swamp,mountain",2,5.000,"collectible_ting_v1,collectible_ting_v2",structure,"structure,happy"
view_tai,台,,view_tai,,"swamp,mountain,desert",2,5.774,"collectible_tai_v1,collectible_tai_v2",structure,"structure,giant"
view_jiwutai,纪武台,,view_jiwutai,,"swamp,mountain,desert",3,5.774,"collectible_jiwutai_v1,collectible_jiwutai_v2",structure,"structure,giant,religious"
view_ge,阁,,view_ge,,"forest,mountain,lake",2,5.774,collectible_ge_v1,structure,structure
view_xuege,雪阁,,view_xuege,feature_gate_season_winter,"forest,mountain,lake",3,11.547,collectible_xuege_v1,structure,"structure,winter"
view_citang,祠堂,,view_citang,,"forest,swamp",2,7.071,collectible_citang_v1,structure,"structure,religious"
view_yilingci,异灵祠,,view_yilingci,,swamp,3,10.000,"collectible_yilingci_v1,collectible_yilingci_v2,collectible_yilingci_v3",structure,"structure,religious,mysterious,swamp"
view_maowu,茅屋,,view_maowu,,"forest,swamp",1,7.071,collectible_maowu_v1,structure,structure
view_guanai,关隘,,view_guanai,,desert,2,10.000,"collectible_guanai_v1,collectible_guanai_v2",structure,"structure,desert"
view_gongdian,宫殿,,view_gongdian,,"sea,mountain,desert",4,5.774,collectible_gongdian_v1,structure,structure
view_lingxiaogong,临霄宫,,view_lingxiaogong,,"mountain,desert",5,7.071,"collectible_lingxiaogong_v1,collectible_lingxiaogong_v2",structure,"structure,lore,rare"
view_lou,楼,,view_lou,,"sea,desert",2,7.071,collectible_lou_v1,structure,structure
view_wanghailou,望海楼,,view_wanghailou,,sea,4,10.000,collectible_wanghailou_v1,structure,"structure,sea"
view_shi,室,,view_shi,,"forest,swamp",2,7.071,collectible_shi_v1,structure,structure
view_zhushi,竹室,,view_zhushi,,forest,3,10.000,"collectible_zhushi_v1,collectible_zhushi_v2",structure,"structure,forest"
view_xuan,轩,,view_xuan,,sea,3,10.000,"collectible_xuan_v1,collectible_xuan_v2",structure,"structure,sea"
view_xie,榭,,view_xie,,"swamp,lake",3,7.071,"collectible_xie_v1,collectible_xie_v2,collectible_xie_v3",structure,"structure,lake,swamp"
view_fangxie,芳榭,,view_fangxie,,swamp,4,10.000,"collectible_fangxie_v1,collectible_fangxie_v2",structure,"structure,swamp"
view_lang,廊,,view_lang,,sea,3,10.000,"collectible_lang_v1,collectible_lang_v2",structure,"structure,sea"
view_guayuelang,挂月廊,,view_guayuelang,,swamp,5,10.000,"collectible_guayuelang_v1,collectible_guayuelang_v2",structure,"structure,swamp,rare,religious"
view_fang,舫,,view_fang,,"swamp,lake",3,7.071,collectible_fang_v1,structure,structure
view_caifang,彩舫,,view_caifang,,lake,4,10.000,"collectible_caifang_v1,collectible_caifang_v2",structure,"structure,rare,lake"
view_zhaixingge,摘星阁,,view_zhaixingge,,"forest,swamp,lake",4,5.774,"collectible_zhaixingge_v1,collectible_zhaixingge_v2",structure,"structure,mysterious"
view_loutaiyanyu,楼台烟雨,,view_loutaiyanyu,,"sea,mountain,lake",3,5.774,"collectible_loutaiyanyu_v1,collectible_loutaiyanyu_v2",structure,"structure,calm"
view_pianzhou,扁舟,,view_pianzhou,,lake,2,10.000,collectible_pianzhou_v1,,lake
view_yudeng,渔灯,,view_yudeng,,lake,3,10.000,"collectible_yudeng_v1,collectible_yudeng_v2",structure,"structure,lake"
view_foxiang,佛像,,view_foxiang,,"sea,swamp",3,7.071,collectible_foxiang_v1,structure,"structure,religious"
view_mingyuechuge,明月出阁,,view_mingyuechuge,,"forest,swamp,lake",3,5.774,"collectible_mingyuechuge_v1,collectible_mingyuechuge_v2",structure,structure