UID,title,desc,log_desc,release,filter,tier,weight,object_art,coin_cost,time_cost,buff_chance,buff1_scope,buff1_UID,buff1_value,buff1_duration,buff2_scope,buff2_UID,buff2_value,buff2_duration
activity_session_start_play_intro,邻家小山,去逛逛（开始教程）,,,,1,0,icon_park_mountain,0,0,1,,start_intro,1,,,,,
activity_session_start_skip_intro,直接出发,跳过教程,,,,1,0,icon_progress,0,0,1,,skip_intro,1,,,,,
activity_session_start_claim_time,告知家人,计划用两年时间旅行（24月）,告知家人出行的计划，,,,1,0,icon_time,0,0,1,,display_menu_time,1,,,,,
activity_session_start_claim_coin,取出积蓄,"起始<sprite name=""icon_coin"">铜钱 +100",取出自己的一些积蓄，,,,1,0,icon_coin,0,0,1,,display_menu_coin,1,,,,,
activity_session_start_claim_progress,出发！,正式启程,,,,1,0,icon_progress,0,0,1,,display_menu_progress,1,,,,,
activity_gain_interests,投资盈利,"根据现有<sprite name=""icon_coin"">铜钱，获得10%的盈利",投资盈利，,feature_gate_gain_interests,,1,0,icon_avatar_3,0,0,1,,gain_interests,0.1,,,,,
activity_endgame_coin2star,产业规模,"每50<sprite name=""icon_coin"">铜钱，获得<sprite name=""icon_star"">星级 +1",产业规模，,feature_gate_persona_endgame_coin2star,,1,0,icon_avatar_3,0,0,1,,convert_coin2star,50,,,,,
activity_gongfang,工坊,"<sprite name=""icon_coin"">铜钱 +20","<sprite name=""icon_coin"">铜钱不足，在工坊打零工，",,"central,north,south,west",1,1,icon_activity_frame,0,1,1,,buff_instant_currency_coin_add,20,,,,,
activity_matou,码头,"<sprite name=""icon_coin"">铜钱 +40",在码头做工，,,east,1,1,icon_activity_frame,0,2,1,,buff_instant_currency_coin_add,40,,,,,
activity_lvdian,旅店,"下次旅程<sprite name=""dynamic_current_stamina"">补给上限 +2",无所事事，回旅店休息，,,"central,north,east,south,west",1,1,icon_activity_frame,0,2,1,park_visit,buff_max_stamina_add,2,1,,,,
activity_dangpu,当铺,"丢弃一件随机装备，<sprite name=""icon_coin"">铜钱 +100",去当铺典当，,feature_gate_owning_equipment,"central,north,east,south,west",1,0,icon_activity_frame,0,0,1,,buff_instant_currency_coin_add,100,,,buff_instant_equipment_lose_add,-1,
activity_chengmen,城门,"<sprite name=""icon_progress"">里程 +100",散步至城门，,,"central,north,east,south,west",1,1,icon_activity_frame,0,1,1,,buff_instant_currency_xp_add,100,,,,,
activity_jiedao,街道,重抽当前城镇地点,在街道上闲逛，,,"south,west",2,1,icon_activity_frame,20,0,1,,redraw_activity,,,,,,
activity_duchang,赌场,"50%：<sprite name=""icon_coin"">铜钱 +200",赌博，,,"central,north,east",2,1,icon_activity_frame,50,0,0.5,,buff_instant_currency_coin_add,200,,,,,
activity_huayuan,花园,随机获得一个风景（等级1）,游于花园，,,"central,south,island",2,1,icon_activity_frame,40,0,1,,add_collectible_by_tier,1,,,,,
activity_xiaochitan,小吃摊,"下次旅程<sprite name=""dynamic_current_stamina"">补给上限 +3",在小吃摊大快朵颐，,,south,2,1,icon_activity_frame,40,0,1,park_visit,buff_max_stamina_add,3,1,,,,
activity_zaoshi,早市,获得一件装备,在早市购得，,,east,3,1,icon_activity_frame,50,0,1,,buff_instant_equipment_acquire_add,1,,,,,
activity_guangchang,广场,"<sprite name=""icon_progress"">里程 +250",在广场散步，,,"central,north,south,west",2,1,icon_activity_frame,50,0,1,,buff_instant_currency_xp_add,250,,,,,
activity_simiao,寺庙,为下次旅程获取一个祈福,去寺庙祈福，获得祈福：,,"north,east,west",2,1,icon_activity_frame,30,0,1,,random_park_buff_grant,,,,,,
activity_guanxingtai,观星台,"<sprite name=""icon_star"">星级 +3",前往观星台祭天，,,"central,north,east,west",2,1,icon_activity_frame,50,0,1,,buff_instant_currency_star_add,3,,,,,
activity_dongjiguan,斗鸡馆,"50%：<sprite name=""icon_coin"">铜钱 +300",与人斗鸡，,,"south,west",3,1,icon_activity_frame,80,0,0.5,,buff_instant_currency_coin_add,300,,,,,
activity_daoguan,道观,获得一个特质,学习道法，,,"central,east,island",3,1,icon_activity_frame,100,0,1,,buff_instant_currency_trait_add,1,,,,,
activity_shiji,市集,获得一件装备,在市集购得，,,"central,south",3,1,icon_activity_frame,80,0,1,,buff_instant_equipment_acquire_add,1,,,,,
activity_yeshi,木工坊,获得一件装备或升级一件装备,去木工坊打造行装，,,"north,west",3,1,icon_activity_frame,100,0,1,,buff_instant_equipment_improve_add,1,,,,,
activity_mugongfang,铁匠铺,升级一件装备,去铁匠铺改造行装，,feature_gate_owning_equipment,"central,south,west",3,1,icon_activity_frame,80,0,1,,buff_instant_equipment_upgrade_add,1,,,,,
activity_louge,楼阁,随机获得一个风景（等级2）,登高远望，,,"north,west",3,1,icon_activity_frame,80,0,1,,add_collectible_by_tier,2,,,,,
activity_zahuopu,大酒楼,"下次旅程<sprite name=""dynamic_current_stamina"">补给上限 +5","去杂货铺购买<sprite name=""dynamic_current_stamina"">补给，",,"central,east",3,1,icon_activity_frame,80,0,1,park_visit,buff_max_stamina_add,5,1,,,,
activity_xiaoxiang,小巷,访问一个随机城镇地点,进入一条深邃的小巷，,,"north,east,south",3,1,icon_activity_frame,80,0,1,,random_activity,1,,,,,
activity_shuyuan,书院,"当前游记发表获取<sprite name=""icon_star"">星级 +20%",前往书院，向先生请教，,,"north,south",3,1,icon_activity_frame,60,0,1,journal_submission,buff_journal_currency_fame_multi,0.2,1,,,,
activity_cangshuge,藏书阁,"获得当前拥有风景数量的<sprite name=""icon_star"">星级",前往藏书阁，查阅古籍，,,"central,east,west",3,0,icon_activity_frame,80,0,1,,add_star_by_current_slots,1,,,,,
activity_jiuguan,酒馆,随机获得一个信物,在酒馆痛饮，,feature_gate_other_unlocked_characters,"north,east",3,1,icon_activity_frame,80,0,1,,random_token,1,,,,,
activity_miaohui,庙会,访问两个随机城镇地点,前往庙会，,,"central,west",4,1,icon_activity_frame,180,0,1,,random_activity,2,,,,,
activity_heishi,黑市,获得一件升级后的装备,在黑市寻获，,,south,4,1,icon_activity_frame,180,0,1,,buff_instant_equipment_acquire_add,2,,,,,
activity_tiejiangpu,夜市,获得/升级两件装备,在夜市寻获，,,east,4,1,icon_activity_frame,180,0,1,,buff_instant_equipment_improve_add,1,,,buff_instant_equipment_improve_add,1,
activity_chuanwu,船坞,"随机获得一个带有""海岸""的风景（等级3）",乘船出海游览，,,east,4,1,icon_activity_frame,150,0,1,,add_sea_collectible_by_tier,3,,,,,
activity_guandi,官邸,"获得两个""官印""（等级1风景）",拜访权贵，,,"central,north",4,1,icon_activity_frame,150,0,1,,add_collectible,collectible_official_v1,,,add_collectible,collectible_official_v1,
activity_wenquan,温泉,"下次旅程<sprite name=""dynamic_current_stamina"">补给上限 +8",泡温泉，,,"north,west",4,1,icon_activity_frame,150,0,1,park_visit,buff_max_stamina_add,8,1,,,,
activity_wenquan_island,仙岛温泉,"下次旅程<sprite name=""dynamic_current_stamina"">补给上限 +8",泡温泉，,,island,4,1,icon_activity_frame,0,0,1,park_visit,buff_max_stamina_add,8,1,,,,
activity_yizhan,驿站,"前往下个景点的<sprite name=""icon_time"">旅行时间 -40%",前往驿站准备，,,"central,north,south,west",4,1,icon_activity_frame,120,0,1,park_visit,buff_time_cost_on_chronicle_multi,-0.4,1,,,,
activity_chashi,茶室,"<sprite name=""icon_time"">旅行时间 +3月",前往品茶，,,"east,south",4,1,icon_activity_frame,150,0,1,,buff_instant_return_month_add,3,,,,,
activity_start_xingli,收拾行李,获得一件装备,收拾行李，,,start,0,1,icon_home,0,0,1,,buff_instant_equipment_acquire_add,1,,,,,
activity_start_xiuxi,独自休息,"<sprite name=""dynamic_current_stamina"">补给上限 +2",独自休息，,,start,0,1,icon_home,0,0,1,session,buff_max_stamina_add,2,-1,,,,
activity_start_fumu,陪伴父母,"<sprite name=""icon_coin"">铜钱 +50",拜访父母，,,start,0,1,icon_home,0,0,1,,buff_instant_currency_coin_add,50,,,,,
activity_start_zhiyou,拜访挚友,获得一个随机特质,拜访挚友，,feature_gate_start_zhiyou,start,0,1,icon_home,0,0,1,,buff_instant_random_trait_add,1,,,,,
activity_start_xianzu,祭奠先祖,"<sprite name=""icon_time"">旅行时间 +3月",祭奠先祖，,feature_gate_start_zuxian,start,0,1,icon_home,0,0,1,,buff_instant_return_month_add,3,,,,,
activity_end_yeguang,夜观星象,"<sprite name=""icon_star"">星级 +3",夜观星象，,,end,0,1,icon_home,0,0,1,,buff_instant_currency_star_add,3,,,,,
activity_end_fengbi,奋笔疾书,发表未完成的游记,奋笔疾书，,,end,0,0,icon_home,0,0,1,,force_submission,1,,,,,
activity_end_yishi,吟诗作赋,随机获得一个其他角色的信物,吟诗作赋，,,end,0,1,icon_home,0,0,1,,random_token,1,,,,,