UID,keyword,formula,value,req_count,special_reward_type
reward_rule_tier1_0_base,tier1,base,1,0,
reward_rule_tier2_0_base,tier2,base,2,0,
reward_rule_tier3_0_base,tier3,base,3,0,
reward_rule_natural_4_add,natural,add,1,4,
reward_rule_natural_5_add,natural,add,2,5,
reward_rule_animal_3_add,animal,add,2,3,
reward_rule_animal_4_add,animal,add,2,4,
reward_rule_animal_5_add,animal,add,2,5,
reward_rule_structure_3_add,structure,add,2,3,
reward_rule_structure_4_add,structure,add,2,4,
reward_rule_structure_5_add,structure,add,2,5,
reward_rule_gem_3_add,gem,add,3,3,
reward_rule_gem_4_add,gem,add,2,4,
reward_rule_gem_5_add,gem,add,2,5,
reward_rule_craft_3_add,craft,add,2,3,
reward_rule_craft_4_add,craft,add,2,4,
reward_rule_craft_5_add,craft,add,2,5,
reward_rule_deco_3_add,deco,add,3,3,
reward_rule_deco_4_add,deco,add,2,4,
reward_rule_deco_5_add,deco,add,2,5,
reward_rule_dish_3_add,dish,add,2,3,
reward_rule_dish_4_add,dish,add,2,4,
reward_rule_dish_5_add,dish,add,2,5,
reward_rule_dessert_3_add,dessert,add,5,3,
reward_rule_dessert_4_add,dessert,add,2,4,
reward_rule_dessert_5_add,dessert,add,2,5,
reward_rule_sea_3_add,sea,add,1,3,
reward_rule_sea_4_add,sea,add,2,4,
reward_rule_sea_5_add,sea,add,2,5,
reward_rule_forest_3_add,forest,add,4,3,
reward_rule_forest_4_add,forest,add,2,4,
reward_rule_forest_5_add,forest,add,2,5,
reward_rule_swamp_3_add,swamp,add,5,3,
reward_rule_swamp_4_add,swamp,add,2,4,
reward_rule_swamp_5_add,swamp,add,2,5,
reward_rule_mountain_3_add,mountain,add,3,3,
reward_rule_mountain_4_add,mountain,add,2,4,
reward_rule_mountain_5_add,mountain,add,2,5,
reward_rule_desert_3_add,desert,add,5,3,
reward_rule_desert_4_add,desert,add,2,4,
reward_rule_desert_5_add,desert,add,2,5,
reward_rule_river_3_add,river,add,5,3,
reward_rule_river_4_add,river,add,2,4,
reward_rule_river_5_add,river,add,2,5,
reward_rule_lake_3_add,lake,add,3,3,
reward_rule_lake_4_add,lake,add,1,4,
reward_rule_lake_5_add,lake,add,1,5,
reward_rule_cave_3_add,cave,add,4,3,
reward_rule_cave_4_add,cave,add,2,4,
reward_rule_cave_5_add,cave,add,2,5,
reward_rule_plain_3_add,plain,add,5,3,
reward_rule_plain_4_add,plain,add,2,4,
reward_rule_plain_5_add,plain,add,2,5,
reward_rule_sad_2_add,sad,add,4,2,
reward_rule_happy_2_add,happy,add,4,2,
reward_rule_calm_2_add,calm,add,5,2,
reward_rule_swift_2_add,swift,add,4,2,
reward_rule_giant_2_add,giant,add,4,2,
reward_rule_sublime_2_add,sublime,add,4,2,
reward_rule_focus_2_add,focus,add,5,2,
reward_rule_mysterious_2_add,mysterious,add,3,2,
reward_rule_ancient_lore_3_add,ancient_lore,add,9,3,
reward_rule_mountain_lore_3_add,mountain_lore,add,9,3,
reward_rule_bird_lore_3_add,bird_lore,add,9,3,