UID,title,desc,release,filter,tier,weight,type,collectible_count,collectible_lv_min,collectible_lv_max,reward_count,path_diff_addition,object_art,narrative_bit
parknode_lv0_start,起点,,,regular,0,1,start,0,0,0,0,0,icon_gate,始于此
parknode_lv1_local,村落,有人居住的村落。<br>可以获得一些当地人的帮助。,,regular,1,2,local,1,1,1,3,0,icon_tavern,"抵村落,经小寨"
parknode_lv1_ground,营地,"旅者们常去的露营地点。<br>适宜获得休息与<sprite name=""dynamic_current_stamina"">补给。",,regular,1,1,ground,1,1,1,3,0,icon_campfire,"御石而息,与陌人夜宿"
parknode_lv2_local,村落,有人居住的村落。<br>可以获得一些当地人的帮助。,,regular,2,1,local,1,1,2,3,0,icon_tavern,"抵村落,经小寨"
parknode_lv2_ground,营地,"旅者们常去的露营地点。<br>适宜获得休息与<sprite name=""dynamic_current_stamina"">补给。",,regular,2,1,ground,1,1,2,3,0,icon_campfire,"御石而息,与陌人夜宿"
parknode_lv2_sight,美景,观景点。<br>人迹罕至，景色优美。,,regular,2,1,sight,1,2,2,3,0,icon_view,"驻足荒野,流连生地"
parknode_lv3_ground,营地,"旅者们常去的露营地点。<br>适宜获得休息与<sprite name=""dynamic_current_stamina"">补给。",,regular,3,1,ground,1,2,3,3,0,icon_campfire,"御石而息,与陌人夜宿"
parknode_lv3_sight,美景,观景点。<br>人迹罕至，景色优美。,,regular,3,1,sight,1,3,3,3,0,icon_view,"驻足荒野,流连生地"
parknode_lv4_sight,美景,观景点。<br>人迹罕至，景色优美。,,regular,4,1,sight,1,4,4,3,0,icon_view,"驻足荒野,流连生地"
parknode_lv4_ground,营地,"旅者们常去的露营地点。<br>适宜获得休息与<sprite name=""dynamic_current_stamina"">补给。",,regular,4,1,ground,1,3,4,3,0,icon_campfire,"御石而息,与陌人夜宿"
parknode_lv5_sight,美景,观景点。<br>人迹罕至，景色优美。,,regular,5,1,sight,1,5,5,3,0,icon_view,"驻足荒野,流连生地"
parknode_lv6_sight,美景,观景点。<br>人迹罕至，景色优美。,,regular,6,1,sight,1,6,6,3,0,icon_view,"驻足荒野,流连生地"
parknode_lv1_final,终点,终点。<br>结束当前游览。,,final,1,1,final,1,1,1,3,0,icon_flag,"止于尽端,终于末路"
parknode_lv2_final,终点,终点。<br>结束当前游览。,,final,2,1,final,1,2,2,3,0,icon_flag,"止于尽端,终于末路"
parknode_lv3_final,终点,终点。<br>结束当前游览。,,final,3,1,final,1,3,3,3,0,icon_flag,"止于尽端,终于末路"
parknode_lv4_final,终点,终点。<br>结束当前游览。,,final,4,1,final,1,4,4,3,0,icon_flag,"止于尽端,终于末路"
parknode_lv5_final2,终点,终点。<br>结束当前游览。,,final,5,1,final,1,5,5,3,0,icon_flag,"止于尽端,终于末路"
parknode_lv6_final2,终点,终点。<br>结束当前游览。,,final,6,1,final,1,5,5,3,0,icon_flag,"止于尽端,终于末路"