UID,title,desc,release,filter,tier,weight,buff1_scope,buff1_UID,buff1_value,buff1_duration,buff2_scope,buff2_UID,buff2_value,buff2_duration,token_art,narrative_bit
parkreward_lv1_home,结束游览,"<sprite name=""dynamic_current_stamina"">补给耗尽<br>获得风景后，结束游览",,,1,0,,,,,,,,,icon_gate,
parkreward_lv1_arrival_bonus_t1,到达终点,到达更高等级的终点<br>以获得奖励,,final,1,1,,,,,,,,,icon_flag,
parkreward_lv2_arrival_bonus_t2,到达终点,"<sprite name=""icon_star""> +1",,final,2,1,,buff_instant_currency_star_add,1,,,,,,icon_flag,
parkreward_lv3_arrival_bonus_t3_1,到达终点,"<sprite name=""icon_star""> +2",,final,3,1,,buff_instant_currency_star_add,2,,,,,,icon_flag,
parkreward_lv3_arrival_bonus_t3_2,到达终点,升级或获得一件装备,,final,3,1,,buff_instant_equipment_improve_add,1,,,,,,icon_flag,
parkreward_lv4_arrival_bonus_t4_1,到达终点,"<sprite name=""icon_star""> +4",,final,4,1,,buff_instant_currency_star_add,3,,,,,,icon_flag,
parkreward_lv4_arrival_bonus_t4_2,到达终点,升级或获得一件装备,,final,4,1,,buff_instant_equipment_improve_add,1,,,,,,icon_flag,
parkreward_lv4_arrival_bonus_t4_3,到达终点,"<sprite name=""icon_time"">旅行时间 +1月",,final,4,1,,buff_instant_return_month_add,1,,,,,,icon_flag,
parkreward_lv5_arrival_bonus_t5_1,到达终点,"<sprite name=""icon_star""> +4",,final,5,1,,buff_instant_currency_star_add,3,,,,,,icon_flag,
parkreward_lv5_arrival_bonus_t5_2,到达终点,升级或获得一件装备,,final,5,1,,buff_instant_equipment_improve_add,1,,,,,,icon_flag,
parkreward_lv5_arrival_bonus_t5_3,到达终点,"<sprite name=""icon_time"">旅行时间 +1月",,final,5,1,,buff_instant_equipment_improve_add,1,,,,,,icon_flag,
parkreward_lv6_arrival_bonus_t6_1,到达终点,"<sprite name=""icon_star""> +4",,final,6,1,,buff_instant_currency_star_add,3,,,,,,icon_flag,
parkreward_lv6_arrival_bonus_t6_2,到达终点,升级或获得一件装备,,final,6,1,,buff_instant_equipment_improve_add,1,,,,,,icon_flag,
parkreward_lv6_arrival_bonus_t6_3,到达终点,"<sprite name=""icon_time"">旅行时间 +1月",,final,6,1,,buff_instant_equipment_improve_add,1,,,,,,icon_flag,
parkreward_token2,侠客的飞镖,侠客的飞镖,feature_gate_help_finished_park,help_finished_park,1,0,,buff_instant_currency_token_charac2_add,1,,,,,,icon_token_2,
parkreward_persona_unfinished_park,壮志未酬,"下次旅程：<sprite name=""dynamic_current_stamina"">补给上限 +3<br>获得风景后，结束游览",feature_gate_persona_unfinished_park,,1,0,park_visit,buff_max_stamina_add,3,2,,,,,icon_avatar_1,
parkreward_extra_star,终点题词,"<sprite name=""icon_star""> +2",feature_gate_persona_finished_park,persona_finished_park,1,0,,buff_instant_currency_star_add,2,,,,,,icon_avatar_1,终点题词
parkreward_shoulie,狩猎野味,"<sprite name=""dynamic_current_stamina"">补给恢复 5",,"sight,ground",1,1,,stamina_add,5,,,,,,icon_hunt,狩猎野味
parkreward_huizhi,绘制地图,"旅程：<sprite name=""icon_progress"">前进 +20%",,"local,ground",1,1,park_visit,buff_action_progress_multi,0.2,1,,,,,icon_drawmap,绘制地图
parkreward_wanshua,玩耍嬉戏,"下段路径：<sprite name=""icon_view_sign"">偶遇 +20%",,sight,1,1,in_park_path,buff_park_collectible_base_add,0.2,1,,,,,icon_kite,玩耍嬉戏
parkreward_yinshi,吟诗作赋,"<sprite name=""icon_view_sign"">偶遇标记 +1",,sight,1,1,,add_collectible_counter,1,,,,,,icon_poem,吟诗作赋
parkreward_tancha,探查地势,"下段路径：<sprite name=""icon_danger_sign"">危险 -30%",,"local,ground",1,1,in_park_path,buff_park_danger_base_add,-0.3,1,,,,,icon_explore,探查地势
parkreward_xiaoqi,小憩打盹,"<sprite name=""dynamic_current_stamina"">补给恢复 8，<br>但<sprite name=""icon_danger_sign"">危险 +20%",,local,1,1,,stamina_add,8,,park_visit,buff_park_danger_base_add,0.2,1,icon_sleep,小憩打盹
parkreward_zhengli,整理包裹,"下段路径：<sprite name=""icon_progress"">前进 +30%",,"local,ground",1,1,in_park_path,buff_action_progress_multi,0.3,1,,,,,equ_back1,整理包裹
parkreward_xunwen,询问路线,"下段路径开始时，<sprite name=""icon_progress"">前进 50",,local,1,1,,progress_add,50,,,,,,icon_ask,询问路线
parkreward_xiangdao,寻找向导,"旅程：<sprite name=""icon_vision"">探索 +1",,local,1,1,park_visit,buff_action_draw_add,1,1,,,,,action_traveller,寻找向导
parkreward_xiubu,修补衣物,"旅程：<sprite name=""icon_danger_sign"">危险 -20%",,"local,ground",1,1,park_visit,buff_park_danger_base_add,-0.2,1,,,,,equ_body0,修补衣物
parkreward_zuijiu,一醉方休,"下段路径：<sprite name=""icon_view_sign"">偶遇 +30%<br>但<sprite name=""dynamic_current_stamina"">补给消耗 +1",,"sight,local",2,1,in_park_path,buff_park_collectible_base_add,0.3,1,in_park_path,buff_action_stamina_add,1,1,icon_wine,一醉方休
parkreward_xiufu,修复工具,"下段路径：<sprite name=""dynamic_current_stamina"">补给恢复效果 +1",,"local,ground",2,1,in_park_path,buff_action_restore_stamina_add,1,1,,,,,icon_tool,修复工具
parkreward_baozha,包扎伤口,"清空<sprite name=""icon_danger_sign"">危险标记",,"sight,ground",2,1,,add_danger_counter,-3,,,,,,icon_herb,包扎伤口
parkreward_pingxin,平心静气,"旅程：<sprite name=""icon_view_sign"">偶遇 +10%",,"sight,ground",1,1,park_visit,buff_park_collectible_base_add,0.1,1,,,,,icon_tea,平心静气
parkreward_dengdai,静静等待,重新抽取风景,,sight,3,1,,redraw_collectible,1,,,,,,icon_view_plus,静静等待
parkreward_fangkong,放空自我,"下段路径：<sprite name=""icon_danger_sign"">危险 -50%<br>但<sprite name=""icon_view_sign"">偶遇 -30%",,"sight,ground",1,1,in_park_path,buff_park_collectible_base_add,-0.3,1,in_park_path,buff_park_danger_base_add,-0.5,1,transparent,放空自我
parkreward_jingu,活动筋骨,"下段路径：<sprite name=""dynamic_current_stamina"">补给消耗 -1",,"sight,ground",1,1,in_park_path,buff_action_stamina_add,-1,1,,,,,icon_stretch,活动筋骨