UID,Name,Description,release,filter,tier,weight,icon_file,progress_req_next,buff1_UID,buff1_value,buff2_UID,buff2_value,buff3_UID,buff3_value,buff4_UID,buff4_value
playerlevel_1,累积里程,,,,1,1,token_stamina,100,,,,,,,,
playerlevel_2,累积里程,"<sprite name=""dynamic_current_stamina"">补给上限+1",,,2,1,token_stamina,300,buff_max_stamina_add,1,,,,,,
playerlevel_3,累积里程,"<sprite name=""dynamic_current_stamina"">补给上限+3",,,3,1,token_stamina,500,buff_max_stamina_add,3,,,,,,
playerlevel_4,累积里程,"<sprite name=""dynamic_current_stamina"">补给上限+5",,,4,1,token_stamina,600,buff_max_stamina_add,5,,,,,,
playerlevel_5,累积里程,"<sprite name=""dynamic_current_stamina"">补给上限+7",,,5,1,token_stamina,700,buff_max_stamina_add,7,,,,,,
playerlevel_6,累积里程,"<sprite name=""dynamic_current_stamina"">补给上限+10",,,6,1,token_stamina,800,buff_max_stamina_add,10,,,,,,
playerlevel_7,累积里程,"<sprite name=""dynamic_current_stamina"">补给上限+13",,,7,1,token_stamina,900,buff_max_stamina_add,13,,,,,,
playerlevel_8,累积里程,"<sprite name=""dynamic_current_stamina"">补给上限+16",,,8,1,token_stamina,1000,buff_max_stamina_add,16,,,,,,
playerlevel_9,累积里程,"<sprite name=""dynamic_current_stamina"">补给上限+20",,,9,1,token_stamina,10000,buff_max_stamina_add,20,,,,,,