%YAML 1.1
%TAG !u! tag:unity3d.com,2011:
--- !u!114 &11400000
MonoBehaviour:
  m_ObjectHideFlags: 0
  m_CorrespondingSourceObject: {fileID: 0}
  m_PrefabInstance: {fileID: 0}
  m_PrefabAsset: {fileID: 0}
  m_GameObject: {fileID: 0}
  m_Enabled: 1
  m_EditorHideFlags: 0
  m_Script: {fileID: 11500000, guid: 1f5669e10129c8849a4f5bb483576a17, type: 3}
  m_Name: character_3
  m_EditorClassIdentifier: 
  characterUID: character_3
  characterName: "\u4E94\u7237"
  characterClass: "\u5BCC\u5546"
  desc: "\u7ECF\u5546\u6709\u9053"
  portrait: {fileID: 21300000, guid: 7c538e83befbf2d4897d04d35765e5bc, type: 3}
  portrait_locked: {fileID: 21300000, guid: 84991b85f73491143a1ac28ca08abff8, type: 3}
  foodName: "\u4F73\u80B4"
  food: {fileID: 3748590592567112561, guid: a89411effdb2b264eb07328c0cfae008, type: 3}
  food_shape: {fileID: 7190397585779801220, guid: a89411effdb2b264eb07328c0cfae008,
    type: 3}
  tokenName: "\u94F6\u7968"
  tokenUID: currency_token_charac3
  token: {fileID: 3270897792454780263, guid: a89411effdb2b264eb07328c0cfae008, type: 3}
  token_reward: 
  avatar: {fileID: 7547786446984307645, guid: a89411effdb2b264eb07328c0cfae008, type: 3}
  mainColor: {r: 0.85490197, g: 0.64705884, b: 0.1254902, a: 1}
  curFameLevel: 0
  curStoryLevel: 0
  curFame: 0
  curToken: 0
  highestFame: 0
