%YAML 1.1
%TAG !u! tag:unity3d.com,2011:
--- !u!114 &11400000
MonoBehaviour:
  m_ObjectHideFlags: 0
  m_CorrespondingSourceObject: {fileID: 0}
  m_PrefabInstance: {fileID: 0}
  m_PrefabAsset: {fileID: 0}
  m_GameObject: {fileID: 0}
  m_Enabled: 1
  m_EditorHideFlags: 0
  m_Script: {fileID: 11500000, guid: 067320d27312fa043b7e1466f327f49f, type: 3}
  m_Name: dataCharacterManagement
  m_EditorClassIdentifier: 
  allCharacters:
  - {fileID: 11400000, guid: 0065bf15b104f904b999dc5d8894f61d, type: 2}
  - {fileID: 11400000, guid: eda14dd5685559240816f87b0520e121, type: 2}
  - {fileID: 11400000, guid: dd4dd8ff452187e4882ef129e50a4bf4, type: 2}
  - {fileID: 11400000, guid: 185cf676f8bd71345ba76d24c60141fa, type: 2}
  - {fileID: 11400000, guid: 6cf6eeb9ec46af343bb558d7744bab1c, type: 2}
  - {fileID: 11400000, guid: 7f73b6f58b5d2294da991118eb81753c, type: 2}
  pageOn: 0
  selectedCharacterUID: 
  currentCharacterUID: 
