%YAML 1.1
%TAG !u! tag:unity3d.com,2011:
--- !u!114 &11400000
MonoBehaviour:
  m_ObjectHideFlags: 0
  m_CorrespondingSourceObject: {fileID: 0}
  m_PrefabInstance: {fileID: 0}
  m_PrefabAsset: {fileID: 0}
  m_GameObject: {fileID: 0}
  m_Enabled: 1
  m_EditorHideFlags: 0
  m_Script: {fileID: 11500000, guid: c901bf6a5c161504b8eb4b4d94a13ac8, type: 3}
  m_Name: dataCharacterCollection
  m_EditorClassIdentifier: 
  characterSettings:
  - {fileID: 11400000, guid: 5aab05967871327418aca0ea56deff6d, type: 2}
  - {fileID: 11400000, guid: 82be08e8abc1bba45b5d58a33a2bfb95, type: 2}
  - {fileID: 11400000, guid: c32a77eb81fcc544cb2e9831f2377705, type: 2}
  - {fileID: 11400000, guid: 0d2abb13f1b1eea47bdd48a9da547505, type: 2}
  - {fileID: 11400000, guid: ae8ead25c87a37e469368bcb011dd795, type: 2}
  characterStats:
  - {fileID: 11400000, guid: 6ef713b79b50eb04d8f0e8938a0004cd, type: 2}
  - {fileID: 11400000, guid: b31214bf901170c48a0c56854d1a4ddc, type: 2}
  - {fileID: 11400000, guid: 0fc53ece7c1648e459253a0a960d6468, type: 2}
  - {fileID: 11400000, guid: f50f24672ae647645ac827c47ff9a98e, type: 2}
  - {fileID: 11400000, guid: 8ed5bc85c8c74b14f9479f95d576396d, type: 2}
  playingConfirmed: 0
  PlayingCharacterIndex: -1
  FriendCharacterIndex: -1
