%YAML 1.1
%TAG !u! tag:unity3d.com,2011:
--- !u!1 &7119980808637662159
GameObject:
  m_ObjectHideFlags: 0
  m_CorrespondingSourceObject: {fileID: 0}
  m_PrefabInstance: {fileID: 0}
  m_PrefabAsset: {fileID: 0}
  serializedVersion: 6
  m_Component:
  - component: {fileID: 7050320387103119669}
  - component: {fileID: 4952972370613643938}
  m_Layer: 5
  m_Name: BuffTooltipPopup
  m_TagString: Untagged
  m_Icon: {fileID: 0}
  m_NavMeshLayer: 0
  m_StaticEditorFlags: 0
  m_IsActive: 1
--- !u!224 &7050320387103119669
RectTransform:
  m_ObjectHideFlags: 0
  m_CorrespondingSourceObject: {fileID: 0}
  m_PrefabInstance: {fileID: 0}
  m_PrefabAsset: {fileID: 0}
  m_GameObject: {fileID: 7119980808637662159}
  m_LocalRotation: {x: -0, y: -0, z: -0, w: 1}
  m_LocalPosition: {x: 0, y: 0, z: 0}
  m_LocalScale: {x: 1, y: 1, z: 1}
  m_Children:
  - {fileID: 9161279844628130433}
  m_Father: {fileID: 0}
  m_RootOrder: 0
  m_LocalEulerAnglesHint: {x: 0, y: 0, z: 0}
  m_AnchorMin: {x: 0, y: 0}
  m_AnchorMax: {x: 1, y: 1}
  m_AnchoredPosition: {x: 0, y: 0}
  m_SizeDelta: {x: 0, y: 0}
  m_Pivot: {x: 0, y: 0}
--- !u!114 &4952972370613643938
MonoBehaviour:
  m_ObjectHideFlags: 0
  m_CorrespondingSourceObject: {fileID: 0}
  m_PrefabInstance: {fileID: 0}
  m_PrefabAsset: {fileID: 0}
  m_GameObject: {fileID: 7119980808637662159}
  m_Enabled: 1
  m_EditorHideFlags: 0
  m_Script: {fileID: 11500000, guid: e70b46496e9927e48b9f245863741fcd, type: 3}
  m_Name: 
  m_EditorClassIdentifier: 
  masterCanvas: {fileID: 0}
  buff_tooltip: {fileID: 2602037852165821880}
--- !u!1001 &6133182231293885994
PrefabInstance:
  m_ObjectHideFlags: 0
  serializedVersion: 2
  m_Modification:
    m_TransformParent: {fileID: 7050320387103119669}
    m_Modifications:
    - target: {fileID: 2989856111366586175, guid: 2954ff938e4864b4dbff2578b0746b48,
        type: 3}
      propertyPath: m_AnchorMin.y
      value: 1
      objectReference: {fileID: 0}
    - target: {fileID: 2989856111366586175, guid: 2954ff938e4864b4dbff2578b0746b48,
        type: 3}
      propertyPath: m_AnchorMax.y
      value: 1
      objectReference: {fileID: 0}
    - target: {fileID: 2989856111366586175, guid: 2954ff938e4864b4dbff2578b0746b48,
        type: 3}
      propertyPath: m_AnchoredPosition.x
      value: 100
      objectReference: {fileID: 0}
    - target: {fileID: 2989856111366586175, guid: 2954ff938e4864b4dbff2578b0746b48,
        type: 3}
      propertyPath: m_AnchoredPosition.y
      value: -60
      objectReference: {fileID: 0}
    - target: {fileID: 3043896530407986347, guid: 2954ff938e4864b4dbff2578b0746b48,
        type: 3}
      propertyPath: m_LocalPosition.x
      value: 0
      objectReference: {fileID: 0}
    - target: {fileID: 3043896530407986347, guid: 2954ff938e4864b4dbff2578b0746b48,
        type: 3}
      propertyPath: m_LocalPosition.y
      value: 0
      objectReference: {fileID: 0}
    - target: {fileID: 3043896530407986347, guid: 2954ff938e4864b4dbff2578b0746b48,
        type: 3}
      propertyPath: m_LocalPosition.z
      value: 0
      objectReference: {fileID: 0}
    - target: {fileID: 3043896530407986347, guid: 2954ff938e4864b4dbff2578b0746b48,
        type: 3}
      propertyPath: m_LocalRotation.x
      value: -0
      objectReference: {fileID: 0}
    - target: {fileID: 3043896530407986347, guid: 2954ff938e4864b4dbff2578b0746b48,
        type: 3}
      propertyPath: m_LocalRotation.y
      value: -0
      objectReference: {fileID: 0}
    - target: {fileID: 3043896530407986347, guid: 2954ff938e4864b4dbff2578b0746b48,
        type: 3}
      propertyPath: m_LocalRotation.z
      value: -0
      objectReference: {fileID: 0}
    - target: {fileID: 3043896530407986347, guid: 2954ff938e4864b4dbff2578b0746b48,
        type: 3}
      propertyPath: m_LocalRotation.w
      value: 1
      objectReference: {fileID: 0}
    - target: {fileID: 3043896530407986347, guid: 2954ff938e4864b4dbff2578b0746b48,
        type: 3}
      propertyPath: m_RootOrder
      value: 0
      objectReference: {fileID: 0}
    - target: {fileID: 3043896530407986347, guid: 2954ff938e4864b4dbff2578b0746b48,
        type: 3}
      propertyPath: m_LocalEulerAnglesHint.x
      value: 0
      objectReference: {fileID: 0}
    - target: {fileID: 3043896530407986347, guid: 2954ff938e4864b4dbff2578b0746b48,
        type: 3}
      propertyPath: m_LocalEulerAnglesHint.y
      value: 0
      objectReference: {fileID: 0}
    - target: {fileID: 3043896530407986347, guid: 2954ff938e4864b4dbff2578b0746b48,
        type: 3}
      propertyPath: m_LocalEulerAnglesHint.z
      value: 0
      objectReference: {fileID: 0}
    - target: {fileID: 3043896530407986347, guid: 2954ff938e4864b4dbff2578b0746b48,
        type: 3}
      propertyPath: m_AnchoredPosition.x
      value: 960
      objectReference: {fileID: 0}
    - target: {fileID: 3043896530407986347, guid: 2954ff938e4864b4dbff2578b0746b48,
        type: 3}
      propertyPath: m_AnchoredPosition.y
      value: 540
      objectReference: {fileID: 0}
    - target: {fileID: 3043896530407986347, guid: 2954ff938e4864b4dbff2578b0746b48,
        type: 3}
      propertyPath: m_SizeDelta.x
      value: 200
      objectReference: {fileID: 0}
    - target: {fileID: 3043896530407986347, guid: 2954ff938e4864b4dbff2578b0746b48,
        type: 3}
      propertyPath: m_SizeDelta.y
      value: 200
      objectReference: {fileID: 0}
    - target: {fileID: 3043896530407986347, guid: 2954ff938e4864b4dbff2578b0746b48,
        type: 3}
      propertyPath: m_AnchorMin.x
      value: 0
      objectReference: {fileID: 0}
    - target: {fileID: 3043896530407986347, guid: 2954ff938e4864b4dbff2578b0746b48,
        type: 3}
      propertyPath: m_AnchorMin.y
      value: 0
      objectReference: {fileID: 0}
    - target: {fileID: 3043896530407986347, guid: 2954ff938e4864b4dbff2578b0746b48,
        type: 3}
      propertyPath: m_AnchorMax.x
      value: 0
      objectReference: {fileID: 0}
    - target: {fileID: 3043896530407986347, guid: 2954ff938e4864b4dbff2578b0746b48,
        type: 3}
      propertyPath: m_AnchorMax.y
      value: 0
      objectReference: {fileID: 0}
    - target: {fileID: 3043896530407986347, guid: 2954ff938e4864b4dbff2578b0746b48,
        type: 3}
      propertyPath: m_Pivot.x
      value: 0.5
      objectReference: {fileID: 0}
    - target: {fileID: 3043896530407986347, guid: 2954ff938e4864b4dbff2578b0746b48,
        type: 3}
      propertyPath: m_Pivot.y
      value: 0.5
      objectReference: {fileID: 0}
    - target: {fileID: 6578276029236040654, guid: 2954ff938e4864b4dbff2578b0746b48,
        type: 3}
      propertyPath: m_Name
      value: buff_tooltips
      objectReference: {fileID: 0}
    - target: {fileID: 6578276029236040654, guid: 2954ff938e4864b4dbff2578b0746b48,
        type: 3}
      propertyPath: m_IsActive
      value: 0
      objectReference: {fileID: 0}
    - target: {fileID: 6911243540396732820, guid: 2954ff938e4864b4dbff2578b0746b48,
        type: 3}
      propertyPath: m_AnchorMin.y
      value: 1
      objectReference: {fileID: 0}
    - target: {fileID: 6911243540396732820, guid: 2954ff938e4864b4dbff2578b0746b48,
        type: 3}
      propertyPath: m_AnchorMax.y
      value: 1
      objectReference: {fileID: 0}
    - target: {fileID: 6911243540396732820, guid: 2954ff938e4864b4dbff2578b0746b48,
        type: 3}
      propertyPath: m_AnchoredPosition.x
      value: 100
      objectReference: {fileID: 0}
    - target: {fileID: 6911243540396732820, guid: 2954ff938e4864b4dbff2578b0746b48,
        type: 3}
      propertyPath: m_AnchoredPosition.y
      value: -160
      objectReference: {fileID: 0}
    m_RemovedComponents: []
  m_SourcePrefab: {fileID: 100100000, guid: 2954ff938e4864b4dbff2578b0746b48, type: 3}
--- !u!224 &9161279844628130433 stripped
RectTransform:
  m_CorrespondingSourceObject: {fileID: 3043896530407986347, guid: 2954ff938e4864b4dbff2578b0746b48,
    type: 3}
  m_PrefabInstance: {fileID: 6133182231293885994}
  m_PrefabAsset: {fileID: 0}
--- !u!114 &2602037852165821880 stripped
MonoBehaviour:
  m_CorrespondingSourceObject: {fileID: 8142854598637693842, guid: 2954ff938e4864b4dbff2578b0746b48,
    type: 3}
  m_PrefabInstance: {fileID: 6133182231293885994}
  m_PrefabAsset: {fileID: 0}
  m_GameObject: {fileID: 0}
  m_Enabled: 1
  m_EditorHideFlags: 0
  m_Script: {fileID: 11500000, guid: 2347062ad2180154ab1afcc2617bfc24, type: 3}
  m_Name: 
  m_EditorClassIdentifier: 
