%YAML 1.1
%TAG !u! tag:unity3d.com,2011:
--- !u!1001 &7640683428189358391
PrefabInstance:
  m_ObjectHideFlags: 0
  serializedVersion: 2
  m_Modification:
    m_TransformParent: {fileID: 0}
    m_Modifications:
    - target: {fileID: 794531437057247984, guid: f52931132925c0542bfc7c3a5aedb3e7,
        type: 3}
      propertyPath: m_LocalRotation.x
      value: 0
      objectReference: {fileID: 0}
    - target: {fileID: 794531437057247984, guid: f52931132925c0542bfc7c3a5aedb3e7,
        type: 3}
      propertyPath: m_LocalRotation.y
      value: 0
      objectReference: {fileID: 0}
    - target: {fileID: 794531437057247984, guid: f52931132925c0542bfc7c3a5aedb3e7,
        type: 3}
      propertyPath: m_LocalRotation.z
      value: 0.7071068
      objectReference: {fileID: 0}
    - target: {fileID: 794531437057247984, guid: f52931132925c0542bfc7c3a5aedb3e7,
        type: 3}
      propertyPath: m_LocalRotation.w
      value: 0.7071068
      objectReference: {fileID: 0}
    - target: {fileID: 794531437057247984, guid: f52931132925c0542bfc7c3a5aedb3e7,
        type: 3}
      propertyPath: m_LocalEulerAnglesHint.z
      value: 90
      objectReference: {fileID: 0}
    - target: {fileID: 794531437057247984, guid: f52931132925c0542bfc7c3a5aedb3e7,
        type: 3}
      propertyPath: m_SizeDelta.y
      value: 35
      objectReference: {fileID: 0}
    - target: {fileID: 794531437057247984, guid: f52931132925c0542bfc7c3a5aedb3e7,
        type: 3}
      propertyPath: m_AnchoredPosition.x
      value: -190.8
      objectReference: {fileID: 0}
    - target: {fileID: 794531437057247984, guid: f52931132925c0542bfc7c3a5aedb3e7,
        type: 3}
      propertyPath: m_AnchoredPosition.y
      value: 232.1
      objectReference: {fileID: 0}
    - target: {fileID: 794531437057247984, guid: f52931132925c0542bfc7c3a5aedb3e7,
        type: 3}
      propertyPath: m_SizeDelta.x
      value: 88
      objectReference: {fileID: 0}
    - target: {fileID: 5054629175078790143, guid: f52931132925c0542bfc7c3a5aedb3e7,
        type: 3}
      propertyPath: m_SizeDelta.x
      value: 0
      objectReference: {fileID: 0}
    - target: {fileID: 5054629175078790143, guid: f52931132925c0542bfc7c3a5aedb3e7,
        type: 3}
      propertyPath: m_SizeDelta.y
      value: 0
      objectReference: {fileID: 0}
    - target: {fileID: 5226951758709480898, guid: f52931132925c0542bfc7c3a5aedb3e7,
        type: 3}
      propertyPath: m_AnchoredPosition.y
      value: -38.1
      objectReference: {fileID: 0}
    - target: {fileID: 5226951758709480898, guid: f52931132925c0542bfc7c3a5aedb3e7,
        type: 3}
      propertyPath: m_AnchoredPosition.x
      value: 35.4
      objectReference: {fileID: 0}
    - target: {fileID: 5421670902817166356, guid: f52931132925c0542bfc7c3a5aedb3e7,
        type: 3}
      propertyPath: m_IsActive
      value: 0
      objectReference: {fileID: 0}
    - target: {fileID: 5446133848608097410, guid: f52931132925c0542bfc7c3a5aedb3e7,
        type: 3}
      propertyPath: m_AnchorMin.y
      value: 0
      objectReference: {fileID: 0}
    - target: {fileID: 5446133848608097410, guid: f52931132925c0542bfc7c3a5aedb3e7,
        type: 3}
      propertyPath: m_AnchorMax.y
      value: 0
      objectReference: {fileID: 0}
    - target: {fileID: 5446133848608097410, guid: f52931132925c0542bfc7c3a5aedb3e7,
        type: 3}
      propertyPath: m_AnchoredPosition.x
      value: 0
      objectReference: {fileID: 0}
    - target: {fileID: 5446133848608097410, guid: f52931132925c0542bfc7c3a5aedb3e7,
        type: 3}
      propertyPath: m_AnchoredPosition.y
      value: 0
      objectReference: {fileID: 0}
    - target: {fileID: 5446133848608097410, guid: f52931132925c0542bfc7c3a5aedb3e7,
        type: 3}
      propertyPath: m_SizeDelta.x
      value: 0
      objectReference: {fileID: 0}
    - target: {fileID: 5446133848608097410, guid: f52931132925c0542bfc7c3a5aedb3e7,
        type: 3}
      propertyPath: m_SizeDelta.y
      value: 0
      objectReference: {fileID: 0}
    - target: {fileID: 5561234867481634228, guid: f52931132925c0542bfc7c3a5aedb3e7,
        type: 3}
      propertyPath: m_Sprite
      value: 
      objectReference: {fileID: 21300000, guid: 9a5c9f54bb0f0d2439e1c90caefdb970,
        type: 3}
    - target: {fileID: 6133153138134624755, guid: f52931132925c0542bfc7c3a5aedb3e7,
        type: 3}
      propertyPath: m_LocalPosition.x
      value: 0
      objectReference: {fileID: 0}
    - target: {fileID: 6133153138134624755, guid: f52931132925c0542bfc7c3a5aedb3e7,
        type: 3}
      propertyPath: m_LocalPosition.y
      value: 0
      objectReference: {fileID: 0}
    - target: {fileID: 6133153138134624755, guid: f52931132925c0542bfc7c3a5aedb3e7,
        type: 3}
      propertyPath: m_LocalPosition.z
      value: 0
      objectReference: {fileID: 0}
    - target: {fileID: 6133153138134624755, guid: f52931132925c0542bfc7c3a5aedb3e7,
        type: 3}
      propertyPath: m_LocalRotation.x
      value: -0
      objectReference: {fileID: 0}
    - target: {fileID: 6133153138134624755, guid: f52931132925c0542bfc7c3a5aedb3e7,
        type: 3}
      propertyPath: m_LocalRotation.y
      value: -0
      objectReference: {fileID: 0}
    - target: {fileID: 6133153138134624755, guid: f52931132925c0542bfc7c3a5aedb3e7,
        type: 3}
      propertyPath: m_LocalRotation.z
      value: -0.000000004485409
      objectReference: {fileID: 0}
    - target: {fileID: 6133153138134624755, guid: f52931132925c0542bfc7c3a5aedb3e7,
        type: 3}
      propertyPath: m_LocalRotation.w
      value: 1
      objectReference: {fileID: 0}
    - target: {fileID: 6133153138134624755, guid: f52931132925c0542bfc7c3a5aedb3e7,
        type: 3}
      propertyPath: m_RootOrder
      value: 0
      objectReference: {fileID: 0}
    - target: {fileID: 6133153138134624755, guid: f52931132925c0542bfc7c3a5aedb3e7,
        type: 3}
      propertyPath: m_LocalEulerAnglesHint.x
      value: 0
      objectReference: {fileID: 0}
    - target: {fileID: 6133153138134624755, guid: f52931132925c0542bfc7c3a5aedb3e7,
        type: 3}
      propertyPath: m_LocalEulerAnglesHint.y
      value: 0
      objectReference: {fileID: 0}
    - target: {fileID: 6133153138134624755, guid: f52931132925c0542bfc7c3a5aedb3e7,
        type: 3}
      propertyPath: m_LocalEulerAnglesHint.z
      value: 0
      objectReference: {fileID: 0}
    - target: {fileID: 6133153138134624755, guid: f52931132925c0542bfc7c3a5aedb3e7,
        type: 3}
      propertyPath: m_AnchoredPosition.x
      value: 0
      objectReference: {fileID: 0}
    - target: {fileID: 6133153138134624755, guid: f52931132925c0542bfc7c3a5aedb3e7,
        type: 3}
      propertyPath: m_AnchoredPosition.y
      value: 0
      objectReference: {fileID: 0}
    - target: {fileID: 6133153138134624755, guid: f52931132925c0542bfc7c3a5aedb3e7,
        type: 3}
      propertyPath: m_SizeDelta.x
      value: 500
      objectReference: {fileID: 0}
    - target: {fileID: 6133153138134624755, guid: f52931132925c0542bfc7c3a5aedb3e7,
        type: 3}
      propertyPath: m_SizeDelta.y
      value: 700
      objectReference: {fileID: 0}
    - target: {fileID: 6133153138134624755, guid: f52931132925c0542bfc7c3a5aedb3e7,
        type: 3}
      propertyPath: m_AnchorMin.x
      value: 0.5
      objectReference: {fileID: 0}
    - target: {fileID: 6133153138134624755, guid: f52931132925c0542bfc7c3a5aedb3e7,
        type: 3}
      propertyPath: m_AnchorMin.y
      value: 0.5
      objectReference: {fileID: 0}
    - target: {fileID: 6133153138134624755, guid: f52931132925c0542bfc7c3a5aedb3e7,
        type: 3}
      propertyPath: m_AnchorMax.x
      value: 0.5
      objectReference: {fileID: 0}
    - target: {fileID: 6133153138134624755, guid: f52931132925c0542bfc7c3a5aedb3e7,
        type: 3}
      propertyPath: m_AnchorMax.y
      value: 0.5
      objectReference: {fileID: 0}
    - target: {fileID: 6133153138134624755, guid: f52931132925c0542bfc7c3a5aedb3e7,
        type: 3}
      propertyPath: m_Pivot.x
      value: 0.5
      objectReference: {fileID: 0}
    - target: {fileID: 6133153138134624755, guid: f52931132925c0542bfc7c3a5aedb3e7,
        type: 3}
      propertyPath: m_Pivot.y
      value: 0.5
      objectReference: {fileID: 0}
    - target: {fileID: 7037005767472313771, guid: f52931132925c0542bfc7c3a5aedb3e7,
        type: 3}
      propertyPath: m_LocalRotation.x
      value: 0
      objectReference: {fileID: 0}
    - target: {fileID: 7037005767472313771, guid: f52931132925c0542bfc7c3a5aedb3e7,
        type: 3}
      propertyPath: m_LocalRotation.y
      value: 0
      objectReference: {fileID: 0}
    - target: {fileID: 7037005767472313771, guid: f52931132925c0542bfc7c3a5aedb3e7,
        type: 3}
      propertyPath: m_LocalRotation.z
      value: 0.7071068
      objectReference: {fileID: 0}
    - target: {fileID: 7037005767472313771, guid: f52931132925c0542bfc7c3a5aedb3e7,
        type: 3}
      propertyPath: m_LocalRotation.w
      value: 0.7071068
      objectReference: {fileID: 0}
    - target: {fileID: 7037005767472313771, guid: f52931132925c0542bfc7c3a5aedb3e7,
        type: 3}
      propertyPath: m_LocalEulerAnglesHint.z
      value: 90
      objectReference: {fileID: 0}
    - target: {fileID: 7037005767472313771, guid: f52931132925c0542bfc7c3a5aedb3e7,
        type: 3}
      propertyPath: m_SizeDelta.x
      value: 57
      objectReference: {fileID: 0}
    - target: {fileID: 7037005767472313771, guid: f52931132925c0542bfc7c3a5aedb3e7,
        type: 3}
      propertyPath: m_AnchoredPosition.x
      value: -96.7
      objectReference: {fileID: 0}
    - target: {fileID: 7037005767472313771, guid: f52931132925c0542bfc7c3a5aedb3e7,
        type: 3}
      propertyPath: m_AnchoredPosition.y
      value: 263.2
      objectReference: {fileID: 0}
    - target: {fileID: 7168899438674253157, guid: f52931132925c0542bfc7c3a5aedb3e7,
        type: 3}
      propertyPath: m_Name
      value: pfb_journal_token_set
      objectReference: {fileID: 0}
    - target: {fileID: 7951877360572281729, guid: f52931132925c0542bfc7c3a5aedb3e7,
        type: 3}
      propertyPath: m_LocalRotation.x
      value: 0
      objectReference: {fileID: 0}
    - target: {fileID: 7951877360572281729, guid: f52931132925c0542bfc7c3a5aedb3e7,
        type: 3}
      propertyPath: m_LocalRotation.y
      value: 0
      objectReference: {fileID: 0}
    - target: {fileID: 7951877360572281729, guid: f52931132925c0542bfc7c3a5aedb3e7,
        type: 3}
      propertyPath: m_LocalRotation.z
      value: 0.7071068
      objectReference: {fileID: 0}
    - target: {fileID: 7951877360572281729, guid: f52931132925c0542bfc7c3a5aedb3e7,
        type: 3}
      propertyPath: m_LocalRotation.w
      value: 0.7071068
      objectReference: {fileID: 0}
    - target: {fileID: 7951877360572281729, guid: f52931132925c0542bfc7c3a5aedb3e7,
        type: 3}
      propertyPath: m_LocalEulerAnglesHint.z
      value: 90
      objectReference: {fileID: 0}
    - target: {fileID: 7951877360572281729, guid: f52931132925c0542bfc7c3a5aedb3e7,
        type: 3}
      propertyPath: m_SizeDelta.y
      value: 45
      objectReference: {fileID: 0}
    - target: {fileID: 7951877360572281729, guid: f52931132925c0542bfc7c3a5aedb3e7,
        type: 3}
      propertyPath: m_SizeDelta.x
      value: 128
      objectReference: {fileID: 0}
    - target: {fileID: 7951877360572281729, guid: f52931132925c0542bfc7c3a5aedb3e7,
        type: 3}
      propertyPath: m_AnchoredPosition.y
      value: 194.1
      objectReference: {fileID: 0}
    - target: {fileID: 7951877360572281729, guid: f52931132925c0542bfc7c3a5aedb3e7,
        type: 3}
      propertyPath: m_AnchoredPosition.x
      value: -338.7
      objectReference: {fileID: 0}
    - target: {fileID: 8953867352724239586, guid: f52931132925c0542bfc7c3a5aedb3e7,
        type: 3}
      propertyPath: m_AnchorMin.y
      value: 0
      objectReference: {fileID: 0}
    - target: {fileID: 8953867352724239586, guid: f52931132925c0542bfc7c3a5aedb3e7,
        type: 3}
      propertyPath: m_AnchorMax.y
      value: 0
      objectReference: {fileID: 0}
    - target: {fileID: 8953867352724239586, guid: f52931132925c0542bfc7c3a5aedb3e7,
        type: 3}
      propertyPath: m_AnchoredPosition.x
      value: 0
      objectReference: {fileID: 0}
    - target: {fileID: 8953867352724239586, guid: f52931132925c0542bfc7c3a5aedb3e7,
        type: 3}
      propertyPath: m_AnchoredPosition.y
      value: 0
      objectReference: {fileID: 0}
    - target: {fileID: 8953867352724239586, guid: f52931132925c0542bfc7c3a5aedb3e7,
        type: 3}
      propertyPath: m_SizeDelta.x
      value: 0
      objectReference: {fileID: 0}
    - target: {fileID: 8953867352724239586, guid: f52931132925c0542bfc7c3a5aedb3e7,
        type: 3}
      propertyPath: m_SizeDelta.y
      value: 0
      objectReference: {fileID: 0}
    - target: {fileID: 9178291947832831394, guid: f52931132925c0542bfc7c3a5aedb3e7,
        type: 3}
      propertyPath: m_AnchorMin.y
      value: 0
      objectReference: {fileID: 0}
    - target: {fileID: 9178291947832831394, guid: f52931132925c0542bfc7c3a5aedb3e7,
        type: 3}
      propertyPath: m_AnchorMax.y
      value: 0
      objectReference: {fileID: 0}
    - target: {fileID: 9178291947832831394, guid: f52931132925c0542bfc7c3a5aedb3e7,
        type: 3}
      propertyPath: m_AnchoredPosition.x
      value: 0
      objectReference: {fileID: 0}
    - target: {fileID: 9178291947832831394, guid: f52931132925c0542bfc7c3a5aedb3e7,
        type: 3}
      propertyPath: m_AnchoredPosition.y
      value: 0
      objectReference: {fileID: 0}
    - target: {fileID: 9178291947832831394, guid: f52931132925c0542bfc7c3a5aedb3e7,
        type: 3}
      propertyPath: m_SizeDelta.x
      value: 0
      objectReference: {fileID: 0}
    - target: {fileID: 9178291947832831394, guid: f52931132925c0542bfc7c3a5aedb3e7,
        type: 3}
      propertyPath: m_SizeDelta.y
      value: 0
      objectReference: {fileID: 0}
    m_RemovedComponents: []
  m_SourcePrefab: {fileID: 100100000, guid: f52931132925c0542bfc7c3a5aedb3e7, type: 3}
