%YAML 1.1
%TAG !u! tag:unity3d.com,2011:
--- !u!114 &11400000
MonoBehaviour:
  m_ObjectHideFlags: 0
  m_CorrespondingSourceObject: {fileID: 0}
  m_PrefabInstance: {fileID: 0}
  m_PrefabAsset: {fileID: 0}
  m_GameObject: {fileID: 0}
  m_Enabled: 1
  m_EditorHideFlags: 0
  m_Script: {fileID: 11500000, guid: a5529ce2012ace64da594acdbfd157bb, type: 3}
  m_Name: BgMusicAssets
  m_EditorClassIdentifier: 
  Assets:
  - {fileID: 0}
  - {fileID: 8300000, guid: 3a5d687cabfe5b3419a8521cfad935dc, type: 3}
  - {fileID: 8300000, guid: f86f1e78550c82547bb18cd3da7be0cc, type: 3}
  - {fileID: 8300000, guid: 1f3971d25738cad42a1d23062f28e213, type: 3}
  - {fileID: 8300000, guid: cdacbf8f884777048bca658138b5be00, type: 3}
  - {fileID: 8300000, guid: 1f3971d25738cad42a1d23062f28e213, type: 3}
  - {fileID: 8300000, guid: ffff83710867cac44a893141f76257c0, type: 3}
  - {fileID: 8300000, guid: 59b7d1068611f0b4bb68d313f0f0f621, type: 3}
  - {fileID: 8300000, guid: 8f7fb68659491c34892085baeedbf4d3, type: 3}
  AssetNames:
  - EMPTY
  - village
  - school
  - forest_bg
  - mountain_bg
  - swamp_bg
  - lake_bg
  - desert_bg
  - sea_bg
