%YAML 1.1
%TAG !u! tag:unity3d.com,2011:
--- !u!114 &11400000
MonoBehaviour:
  m_ObjectHideFlags: 0
  m_CorrespondingSourceObject: {fileID: 0}
  m_PrefabInstance: {fileID: 0}
  m_PrefabAsset: {fileID: 0}
  m_GameObject: {fileID: 0}
  m_Enabled: 1
  m_EditorHideFlags: 0
  m_Script: {fileID: 11500000, guid: 0f401ab09687aa34e9c90714fd231699, type: 3}
  m_Name: TierColor
  m_EditorClassIdentifier: 
  Assets:
  - {r: 0.8, g: 0.8, b: 0.8, a: 1}
  - {r: 0.5176471, g: 0.8509804, b: 0.4745098, a: 1}
  - {r: 0.4745098, g: 0.54509807, b: 0.8509804, a: 1}
  - {r: 0.6392157, g: 0.4745098, b: 0.8509804, a: 1}
  - {r: 0.9529412, g: 0.5882353, b: 0.3764706, a: 1}
  AssetNames:
  - 1
  - 2
  - 3
  - 4
  - 5
