%YAML 1.1
%TAG !u! tag:unity3d.com,2011:
--- !u!114 &11400000
MonoBehaviour:
  m_ObjectHideFlags: 0
  m_CorrespondingSourceObject: {fileID: 0}
  m_PrefabInstance: {fileID: 0}
  m_PrefabAsset: {fileID: 0}
  m_GameObject: {fileID: 0}
  m_Enabled: 1
  m_EditorHideFlags: 0
  m_Script: {fileID: 11500000, guid: 94ad9e9f3fedf5b4495f511107452eef, type: 3}
  m_Name: cn_keywords
  m_EditorClassIdentifier: 
  Assets:
  - "\u5C71\u6C34"
  - "\u5947\u517D"
  - "\u5EFA\u7B51"
  - "\u6D77"
  - "\u6797"
  - "\u6CBC"
  - "\u5C71"
  - "\u8352"
  - "\u6CB3"
  - "\u6E56"
  - "\u6D1E"
  - "\u539F"
  - "\u5FE7\u90C1"
  - "\u6109\u60A6"
  - "\u5E73\u9759"
  - "\u5E9E\u7136"
  - "\u5D07\u9AD8"
  - "\u795E\u79D8"
  - "\u6625"
  - "\u590F"
  - "\u79CB"
  - "\u51AC"
  - "\u7F55\u89C1"
  - "\u4FE1\u4EF0"
  - "\u4F20\u8BF4"
  - "\u5730\u52BF"
  - "\u60C5\u611F"
  - "\u5B63\u8282"
  - "\u7279\u6B8A"
  AssetNames:
  - natural
  - animal
  - structure
  - sea
  - forest
  - swamp
  - mountain
  - desert
  - river
  - lake
  - cave
  - plain
  - sad
  - happy
  - calm
  - giant
  - sublime
  - mysterious
  - spring
  - summer
  - autumn
  - winter
  - rare
  - religious
  - lore
  - geo
  - feeling
  - season
  - special
