%YAML 1.1
%TAG !u! tag:unity3d.com,2011:
--- !u!1001 &3719573588557752777
PrefabInstance:
  m_ObjectHideFlags: 0
  serializedVersion: 2
  m_Modification:
    m_TransformParent: {fileID: 0}
    m_Modifications:
    - target: {fileID: 1263166609956431677, guid: f9a2c6b14db236441be6aa9def963b37,
        type: 3}
      propertyPath: m_IsActive
      value: 0
      objectReference: {fileID: 0}
    - target: {fileID: 1665047429917403755, guid: f9a2c6b14db236441be6aa9def963b37,
        type: 3}
      propertyPath: m_LocalPosition.x
      value: 0
      objectReference: {fileID: 0}
    - target: {fileID: 1665047429917403755, guid: f9a2c6b14db236441be6aa9def963b37,
        type: 3}
      propertyPath: m_LocalPosition.y
      value: 0
      objectReference: {fileID: 0}
    - target: {fileID: 1665047429917403755, guid: f9a2c6b14db236441be6aa9def963b37,
        type: 3}
      propertyPath: m_LocalPosition.z
      value: 0
      objectReference: {fileID: 0}
    - target: {fileID: 1665047429917403755, guid: f9a2c6b14db236441be6aa9def963b37,
        type: 3}
      propertyPath: m_LocalRotation.x
      value: -0
      objectReference: {fileID: 0}
    - target: {fileID: 1665047429917403755, guid: f9a2c6b14db236441be6aa9def963b37,
        type: 3}
      propertyPath: m_LocalRotation.y
      value: -0
      objectReference: {fileID: 0}
    - target: {fileID: 1665047429917403755, guid: f9a2c6b14db236441be6aa9def963b37,
        type: 3}
      propertyPath: m_LocalRotation.z
      value: -0
      objectReference: {fileID: 0}
    - target: {fileID: 1665047429917403755, guid: f9a2c6b14db236441be6aa9def963b37,
        type: 3}
      propertyPath: m_LocalRotation.w
      value: 1
      objectReference: {fileID: 0}
    - target: {fileID: 1665047429917403755, guid: f9a2c6b14db236441be6aa9def963b37,
        type: 3}
      propertyPath: m_RootOrder
      value: 0
      objectReference: {fileID: 0}
    - target: {fileID: 1665047429917403755, guid: f9a2c6b14db236441be6aa9def963b37,
        type: 3}
      propertyPath: m_LocalEulerAnglesHint.x
      value: 0
      objectReference: {fileID: 0}
    - target: {fileID: 1665047429917403755, guid: f9a2c6b14db236441be6aa9def963b37,
        type: 3}
      propertyPath: m_LocalEulerAnglesHint.y
      value: 0
      objectReference: {fileID: 0}
    - target: {fileID: 1665047429917403755, guid: f9a2c6b14db236441be6aa9def963b37,
        type: 3}
      propertyPath: m_LocalEulerAnglesHint.z
      value: 0
      objectReference: {fileID: 0}
    - target: {fileID: 1665047429917403755, guid: f9a2c6b14db236441be6aa9def963b37,
        type: 3}
      propertyPath: m_AnchoredPosition.x
      value: 0
      objectReference: {fileID: 0}
    - target: {fileID: 1665047429917403755, guid: f9a2c6b14db236441be6aa9def963b37,
        type: 3}
      propertyPath: m_AnchoredPosition.y
      value: 0
      objectReference: {fileID: 0}
    - target: {fileID: 1665047429917403755, guid: f9a2c6b14db236441be6aa9def963b37,
        type: 3}
      propertyPath: m_SizeDelta.x
      value: 60
      objectReference: {fileID: 0}
    - target: {fileID: 1665047429917403755, guid: f9a2c6b14db236441be6aa9def963b37,
        type: 3}
      propertyPath: m_SizeDelta.y
      value: 60
      objectReference: {fileID: 0}
    - target: {fileID: 1665047429917403755, guid: f9a2c6b14db236441be6aa9def963b37,
        type: 3}
      propertyPath: m_AnchorMin.x
      value: 0.5
      objectReference: {fileID: 0}
    - target: {fileID: 1665047429917403755, guid: f9a2c6b14db236441be6aa9def963b37,
        type: 3}
      propertyPath: m_AnchorMin.y
      value: 0.5
      objectReference: {fileID: 0}
    - target: {fileID: 1665047429917403755, guid: f9a2c6b14db236441be6aa9def963b37,
        type: 3}
      propertyPath: m_AnchorMax.x
      value: 0.5
      objectReference: {fileID: 0}
    - target: {fileID: 1665047429917403755, guid: f9a2c6b14db236441be6aa9def963b37,
        type: 3}
      propertyPath: m_AnchorMax.y
      value: 0.5
      objectReference: {fileID: 0}
    - target: {fileID: 1665047429917403755, guid: f9a2c6b14db236441be6aa9def963b37,
        type: 3}
      propertyPath: m_Pivot.x
      value: 0.5
      objectReference: {fileID: 0}
    - target: {fileID: 1665047429917403755, guid: f9a2c6b14db236441be6aa9def963b37,
        type: 3}
      propertyPath: m_Pivot.y
      value: 0.5
      objectReference: {fileID: 0}
    - target: {fileID: 3000806809822551360, guid: f9a2c6b14db236441be6aa9def963b37,
        type: 3}
      propertyPath: m_SizeDelta.x
      value: 50
      objectReference: {fileID: 0}
    - target: {fileID: 3000806809822551360, guid: f9a2c6b14db236441be6aa9def963b37,
        type: 3}
      propertyPath: m_SizeDelta.y
      value: 50
      objectReference: {fileID: 0}
    - target: {fileID: 3692552469548567906, guid: f9a2c6b14db236441be6aa9def963b37,
        type: 3}
      propertyPath: m_IsActive
      value: 0
      objectReference: {fileID: 0}
    - target: {fileID: 4591452830459257460, guid: f9a2c6b14db236441be6aa9def963b37,
        type: 3}
      propertyPath: m_IsActive
      value: 0
      objectReference: {fileID: 0}
    - target: {fileID: 5810174812233675647, guid: f9a2c6b14db236441be6aa9def963b37,
        type: 3}
      propertyPath: m_Name
      value: collectible_xs
      objectReference: {fileID: 0}
    - target: {fileID: 7051648742372142639, guid: f9a2c6b14db236441be6aa9def963b37,
        type: 3}
      propertyPath: m_AnchoredPosition.x
      value: 0
      objectReference: {fileID: 0}
    - target: {fileID: 7051648742372142639, guid: f9a2c6b14db236441be6aa9def963b37,
        type: 3}
      propertyPath: m_SizeDelta.x
      value: 4.5
      objectReference: {fileID: 0}
    - target: {fileID: 7051648742372142639, guid: f9a2c6b14db236441be6aa9def963b37,
        type: 3}
      propertyPath: m_AnchoredPosition.y
      value: 0
      objectReference: {fileID: 0}
    - target: {fileID: 7051648742372142639, guid: f9a2c6b14db236441be6aa9def963b37,
        type: 3}
      propertyPath: m_SizeDelta.y
      value: 4.5
      objectReference: {fileID: 0}
    - target: {fileID: 7722806075214100142, guid: f9a2c6b14db236441be6aa9def963b37,
        type: 3}
      propertyPath: m_IsActive
      value: 0
      objectReference: {fileID: 0}
    - target: {fileID: 8101971994270562951, guid: f9a2c6b14db236441be6aa9def963b37,
        type: 3}
      propertyPath: m_IsActive
      value: 1
      objectReference: {fileID: 0}
    - target: {fileID: 9038968557693846380, guid: f9a2c6b14db236441be6aa9def963b37,
        type: 3}
      propertyPath: m_IsActive
      value: 0
      objectReference: {fileID: 0}
    m_RemovedComponents: []
  m_SourcePrefab: {fileID: 100100000, guid: f9a2c6b14db236441be6aa9def963b37, type: 3}
