%YAML 1.1
%TAG !u! tag:unity3d.com,2011:
--- !u!114 &11400000
MonoBehaviour:
  m_ObjectHideFlags: 0
  m_CorrespondingSourceObject: {fileID: 0}
  m_PrefabInstance: {fileID: 0}
  m_PrefabAsset: {fileID: 0}
  m_GameObject: {fileID: 0}
  m_Enabled: 1
  m_EditorHideFlags: 0
  m_Script: {fileID: 11500000, guid: 0f401ab09687aa34e9c90714fd231699, type: 3}
  m_Name: CollectibleNamePalette
  m_EditorClassIdentifier: 
  Assets:
  - {r: 0, g: 0, b: 0, a: 1}
  - {r: 0, g: 0, b: 0, a: 1}
  - {r: 0, g: 0, b: 0, a: 1}
  - {r: 0, g: 0, b: 0, a: 1}
  - {r: 0, g: 0, b: 0, a: 1}
  - {r: 0, g: 0, b: 0, a: 1}
  AssetNames:
  - 1
  - 2
  - 3
  - 4
  - 5
  - 6
