%YAML 1.1
%TAG !u! tag:unity3d.com,2011:
--- !u!1001 &8709816728418367717
PrefabInstance:
  m_ObjectHideFlags: 0
  serializedVersion: 2
  m_Modification:
    m_TransformParent: {fileID: 0}
    m_Modifications:
    - target: {fileID: 1198170470519546476, guid: 66427cddc7e2fd544aa7cfa69ed9eb74,
        type: 3}
      propertyPath: m_fontSize
      value: 24
      objectReference: {fileID: 0}
    - target: {fileID: 1198170470519546476, guid: 66427cddc7e2fd544aa7cfa69ed9eb74,
        type: 3}
      propertyPath: m_fontSizeBase
      value: 24
      objectReference: {fileID: 0}
    - target: {fileID: 1198170470519546479, guid: 66427cddc7e2fd544aa7cfa69ed9eb74,
        type: 3}
      propertyPath: m_SizeDelta.x
      value: 52
      objectReference: {fileID: 0}
    - target: {fileID: 1198170470519546479, guid: 66427cddc7e2fd544aa7cfa69ed9eb74,
        type: 3}
      propertyPath: m_SizeDelta.y
      value: 52
      objectReference: {fileID: 0}
    - target: {fileID: 1198170470519546479, guid: 66427cddc7e2fd544aa7cfa69ed9eb74,
        type: 3}
      propertyPath: m_AnchoredPosition.x
      value: -2
      objectReference: {fileID: 0}
    - target: {fileID: 1198170470519546479, guid: 66427cddc7e2fd544aa7cfa69ed9eb74,
        type: 3}
      propertyPath: m_AnchoredPosition.y
      value: 2
      objectReference: {fileID: 0}
    - target: {fileID: 2887825645255243818, guid: 66427cddc7e2fd544aa7cfa69ed9eb74,
        type: 3}
      propertyPath: m_LocalPosition.x
      value: 0
      objectReference: {fileID: 0}
    - target: {fileID: 2887825645255243818, guid: 66427cddc7e2fd544aa7cfa69ed9eb74,
        type: 3}
      propertyPath: m_LocalPosition.y
      value: 0
      objectReference: {fileID: 0}
    - target: {fileID: 2887825645255243818, guid: 66427cddc7e2fd544aa7cfa69ed9eb74,
        type: 3}
      propertyPath: m_LocalPosition.z
      value: 0
      objectReference: {fileID: 0}
    - target: {fileID: 2887825645255243818, guid: 66427cddc7e2fd544aa7cfa69ed9eb74,
        type: 3}
      propertyPath: m_LocalRotation.x
      value: -0
      objectReference: {fileID: 0}
    - target: {fileID: 2887825645255243818, guid: 66427cddc7e2fd544aa7cfa69ed9eb74,
        type: 3}
      propertyPath: m_LocalRotation.y
      value: -0
      objectReference: {fileID: 0}
    - target: {fileID: 2887825645255243818, guid: 66427cddc7e2fd544aa7cfa69ed9eb74,
        type: 3}
      propertyPath: m_LocalRotation.z
      value: -0
      objectReference: {fileID: 0}
    - target: {fileID: 2887825645255243818, guid: 66427cddc7e2fd544aa7cfa69ed9eb74,
        type: 3}
      propertyPath: m_LocalRotation.w
      value: 1
      objectReference: {fileID: 0}
    - target: {fileID: 2887825645255243818, guid: 66427cddc7e2fd544aa7cfa69ed9eb74,
        type: 3}
      propertyPath: m_RootOrder
      value: 0
      objectReference: {fileID: 0}
    - target: {fileID: 2887825645255243818, guid: 66427cddc7e2fd544aa7cfa69ed9eb74,
        type: 3}
      propertyPath: m_LocalEulerAnglesHint.x
      value: 0
      objectReference: {fileID: 0}
    - target: {fileID: 2887825645255243818, guid: 66427cddc7e2fd544aa7cfa69ed9eb74,
        type: 3}
      propertyPath: m_LocalEulerAnglesHint.y
      value: 0
      objectReference: {fileID: 0}
    - target: {fileID: 2887825645255243818, guid: 66427cddc7e2fd544aa7cfa69ed9eb74,
        type: 3}
      propertyPath: m_LocalEulerAnglesHint.z
      value: 0
      objectReference: {fileID: 0}
    - target: {fileID: 2887825645255243818, guid: 66427cddc7e2fd544aa7cfa69ed9eb74,
        type: 3}
      propertyPath: m_AnchoredPosition.x
      value: 0
      objectReference: {fileID: 0}
    - target: {fileID: 2887825645255243818, guid: 66427cddc7e2fd544aa7cfa69ed9eb74,
        type: 3}
      propertyPath: m_AnchoredPosition.y
      value: 0
      objectReference: {fileID: 0}
    - target: {fileID: 2887825645255243818, guid: 66427cddc7e2fd544aa7cfa69ed9eb74,
        type: 3}
      propertyPath: m_SizeDelta.x
      value: 52
      objectReference: {fileID: 0}
    - target: {fileID: 2887825645255243818, guid: 66427cddc7e2fd544aa7cfa69ed9eb74,
        type: 3}
      propertyPath: m_SizeDelta.y
      value: 52
      objectReference: {fileID: 0}
    - target: {fileID: 2887825645255243818, guid: 66427cddc7e2fd544aa7cfa69ed9eb74,
        type: 3}
      propertyPath: m_AnchorMin.x
      value: 0.5
      objectReference: {fileID: 0}
    - target: {fileID: 2887825645255243818, guid: 66427cddc7e2fd544aa7cfa69ed9eb74,
        type: 3}
      propertyPath: m_AnchorMin.y
      value: 0.5
      objectReference: {fileID: 0}
    - target: {fileID: 2887825645255243818, guid: 66427cddc7e2fd544aa7cfa69ed9eb74,
        type: 3}
      propertyPath: m_AnchorMax.x
      value: 0.5
      objectReference: {fileID: 0}
    - target: {fileID: 2887825645255243818, guid: 66427cddc7e2fd544aa7cfa69ed9eb74,
        type: 3}
      propertyPath: m_AnchorMax.y
      value: 0.5
      objectReference: {fileID: 0}
    - target: {fileID: 2887825645255243818, guid: 66427cddc7e2fd544aa7cfa69ed9eb74,
        type: 3}
      propertyPath: m_Pivot.x
      value: 0.5
      objectReference: {fileID: 0}
    - target: {fileID: 2887825645255243818, guid: 66427cddc7e2fd544aa7cfa69ed9eb74,
        type: 3}
      propertyPath: m_Pivot.y
      value: 0.5
      objectReference: {fileID: 0}
    - target: {fileID: 5871732038036223418, guid: 66427cddc7e2fd544aa7cfa69ed9eb74,
        type: 3}
      propertyPath: m_Sprite
      value: 
      objectReference: {fileID: 4557035481623394073, guid: 76fc86b3b2925c84fbc2fc489de9cb6a,
        type: 3}
    - target: {fileID: 8045983074943033662, guid: 66427cddc7e2fd544aa7cfa69ed9eb74,
        type: 3}
      propertyPath: m_Name
      value: star_s
      objectReference: {fileID: 0}
    m_RemovedComponents: []
  m_SourcePrefab: {fileID: 100100000, guid: 66427cddc7e2fd544aa7cfa69ed9eb74, type: 3}
