%YAML 1.1
%TAG !u! tag:unity3d.com,2011:
--- !u!114 &11400000
MonoBehaviour:
  m_ObjectHideFlags: 0
  m_CorrespondingSourceObject: {fileID: 0}
  m_PrefabInstance: {fileID: 0}
  m_PrefabAsset: {fileID: 0}
  m_GameObject: {fileID: 0}
  m_Enabled: 1
  m_EditorHideFlags: 0
  m_Script: {fileID: 11500000, guid: 0d622a2445904754d9426ab72422d954, type: 3}
  m_Name: tag_sprites_s
  m_EditorClassIdentifier: 
  Assets:
  - {fileID: 5522418377915978444, guid: 03ae290c95f48994e940e94b71a55a02, type: 3}
  - {fileID: 5522418377915978444, guid: 03ae290c95f48994e940e94b71a55a02, type: 3}
  - {fileID: 5522418377915978444, guid: 03ae290c95f48994e940e94b71a55a02, type: 3}
  - {fileID: -4758115354566945777, guid: 03ae290c95f48994e940e94b71a55a02, type: 3}
  - {fileID: -4758115354566945777, guid: 03ae290c95f48994e940e94b71a55a02, type: 3}
  - {fileID: -4758115354566945777, guid: 03ae290c95f48994e940e94b71a55a02, type: 3}
  - {fileID: -4758115354566945777, guid: 03ae290c95f48994e940e94b71a55a02, type: 3}
  - {fileID: -4758115354566945777, guid: 03ae290c95f48994e940e94b71a55a02, type: 3}
  - {fileID: -4758115354566945777, guid: 03ae290c95f48994e940e94b71a55a02, type: 3}
  - {fileID: -4758115354566945777, guid: 03ae290c95f48994e940e94b71a55a02, type: 3}
  - {fileID: -4758115354566945777, guid: 03ae290c95f48994e940e94b71a55a02, type: 3}
  - {fileID: -4758115354566945777, guid: 03ae290c95f48994e940e94b71a55a02, type: 3}
  - {fileID: -2082628627308181875, guid: 03ae290c95f48994e940e94b71a55a02, type: 3}
  - {fileID: -2082628627308181875, guid: 03ae290c95f48994e940e94b71a55a02, type: 3}
  - {fileID: -2082628627308181875, guid: 03ae290c95f48994e940e94b71a55a02, type: 3}
  - {fileID: -2082628627308181875, guid: 03ae290c95f48994e940e94b71a55a02, type: 3}
  - {fileID: -2082628627308181875, guid: 03ae290c95f48994e940e94b71a55a02, type: 3}
  - {fileID: -2082628627308181875, guid: 03ae290c95f48994e940e94b71a55a02, type: 3}
  - {fileID: 2266102909458810567, guid: 03ae290c95f48994e940e94b71a55a02, type: 3}
  - {fileID: 2266102909458810567, guid: 03ae290c95f48994e940e94b71a55a02, type: 3}
  - {fileID: 2266102909458810567, guid: 03ae290c95f48994e940e94b71a55a02, type: 3}
  - {fileID: 2266102909458810567, guid: 03ae290c95f48994e940e94b71a55a02, type: 3}
  - {fileID: -6373458799533598062, guid: 03ae290c95f48994e940e94b71a55a02, type: 3}
  - {fileID: -6373458799533598062, guid: 03ae290c95f48994e940e94b71a55a02, type: 3}
  - {fileID: -6373458799533598062, guid: 03ae290c95f48994e940e94b71a55a02, type: 3}
  - {fileID: -4758115354566945777, guid: 03ae290c95f48994e940e94b71a55a02, type: 3}
  - {fileID: -2082628627308181875, guid: 03ae290c95f48994e940e94b71a55a02, type: 3}
  - {fileID: 2266102909458810567, guid: 03ae290c95f48994e940e94b71a55a02, type: 3}
  - {fileID: -6373458799533598062, guid: 03ae290c95f48994e940e94b71a55a02, type: 3}
  AssetNames:
  - natural
  - animal
  - structure
  - sea
  - forest
  - swamp
  - mountain
  - desert
  - river
  - lake
  - cave
  - plain
  - sad
  - happy
  - calm
  - giant
  - sublime
  - mysterious
  - spring
  - summer
  - autumn
  - winter
  - rare
  - religious
  - lore
  - geo
  - feeling
  - season
  - special
