%YAML 1.1
%TAG !u! tag:unity3d.com,2011:
--- !u!1001 &414780805937625666
PrefabInstance:
  m_ObjectHideFlags: 0
  serializedVersion: 2
  m_Modification:
    m_TransformParent: {fileID: 0}
    m_Modifications:
    - target: {fileID: 2270260328626993871, guid: 5fe4a6cf22d51cb4d94e9ce50768f5ad,
        type: 3}
      propertyPath: m_LocalPosition.x
      value: 0
      objectReference: {fileID: 0}
    - target: {fileID: 2270260328626993871, guid: 5fe4a6cf22d51cb4d94e9ce50768f5ad,
        type: 3}
      propertyPath: m_LocalPosition.y
      value: 0
      objectReference: {fileID: 0}
    - target: {fileID: 2270260328626993871, guid: 5fe4a6cf22d51cb4d94e9ce50768f5ad,
        type: 3}
      propertyPath: m_LocalPosition.z
      value: 0
      objectReference: {fileID: 0}
    - target: {fileID: 2270260328626993871, guid: 5fe4a6cf22d51cb4d94e9ce50768f5ad,
        type: 3}
      propertyPath: m_LocalRotation.x
      value: -0
      objectReference: {fileID: 0}
    - target: {fileID: 2270260328626993871, guid: 5fe4a6cf22d51cb4d94e9ce50768f5ad,
        type: 3}
      propertyPath: m_LocalRotation.y
      value: -0
      objectReference: {fileID: 0}
    - target: {fileID: 2270260328626993871, guid: 5fe4a6cf22d51cb4d94e9ce50768f5ad,
        type: 3}
      propertyPath: m_LocalRotation.z
      value: -0
      objectReference: {fileID: 0}
    - target: {fileID: 2270260328626993871, guid: 5fe4a6cf22d51cb4d94e9ce50768f5ad,
        type: 3}
      propertyPath: m_LocalRotation.w
      value: 1
      objectReference: {fileID: 0}
    - target: {fileID: 2270260328626993871, guid: 5fe4a6cf22d51cb4d94e9ce50768f5ad,
        type: 3}
      propertyPath: m_RootOrder
      value: 0
      objectReference: {fileID: 0}
    - target: {fileID: 2270260328626993871, guid: 5fe4a6cf22d51cb4d94e9ce50768f5ad,
        type: 3}
      propertyPath: m_LocalEulerAnglesHint.x
      value: 0
      objectReference: {fileID: 0}
    - target: {fileID: 2270260328626993871, guid: 5fe4a6cf22d51cb4d94e9ce50768f5ad,
        type: 3}
      propertyPath: m_LocalEulerAnglesHint.y
      value: 0
      objectReference: {fileID: 0}
    - target: {fileID: 2270260328626993871, guid: 5fe4a6cf22d51cb4d94e9ce50768f5ad,
        type: 3}
      propertyPath: m_LocalEulerAnglesHint.z
      value: 0
      objectReference: {fileID: 0}
    - target: {fileID: 2270260328626993871, guid: 5fe4a6cf22d51cb4d94e9ce50768f5ad,
        type: 3}
      propertyPath: m_AnchoredPosition.x
      value: 0
      objectReference: {fileID: 0}
    - target: {fileID: 2270260328626993871, guid: 5fe4a6cf22d51cb4d94e9ce50768f5ad,
        type: 3}
      propertyPath: m_AnchoredPosition.y
      value: 0
      objectReference: {fileID: 0}
    - target: {fileID: 2270260328626993871, guid: 5fe4a6cf22d51cb4d94e9ce50768f5ad,
        type: 3}
      propertyPath: m_SizeDelta.x
      value: 50
      objectReference: {fileID: 0}
    - target: {fileID: 2270260328626993871, guid: 5fe4a6cf22d51cb4d94e9ce50768f5ad,
        type: 3}
      propertyPath: m_SizeDelta.y
      value: 50
      objectReference: {fileID: 0}
    - target: {fileID: 2270260328626993871, guid: 5fe4a6cf22d51cb4d94e9ce50768f5ad,
        type: 3}
      propertyPath: m_AnchorMin.x
      value: 0.5
      objectReference: {fileID: 0}
    - target: {fileID: 2270260328626993871, guid: 5fe4a6cf22d51cb4d94e9ce50768f5ad,
        type: 3}
      propertyPath: m_AnchorMin.y
      value: 0.5
      objectReference: {fileID: 0}
    - target: {fileID: 2270260328626993871, guid: 5fe4a6cf22d51cb4d94e9ce50768f5ad,
        type: 3}
      propertyPath: m_AnchorMax.x
      value: 0.5
      objectReference: {fileID: 0}
    - target: {fileID: 2270260328626993871, guid: 5fe4a6cf22d51cb4d94e9ce50768f5ad,
        type: 3}
      propertyPath: m_AnchorMax.y
      value: 0.5
      objectReference: {fileID: 0}
    - target: {fileID: 2270260328626993871, guid: 5fe4a6cf22d51cb4d94e9ce50768f5ad,
        type: 3}
      propertyPath: m_Pivot.x
      value: 0.5
      objectReference: {fileID: 0}
    - target: {fileID: 2270260328626993871, guid: 5fe4a6cf22d51cb4d94e9ce50768f5ad,
        type: 3}
      propertyPath: m_Pivot.y
      value: 0.5
      objectReference: {fileID: 0}
    - target: {fileID: 2787070321832023631, guid: 5fe4a6cf22d51cb4d94e9ce50768f5ad,
        type: 3}
      propertyPath: m_AnchoredPosition.x
      value: 0
      objectReference: {fileID: 0}
    - target: {fileID: 2787070321832023631, guid: 5fe4a6cf22d51cb4d94e9ce50768f5ad,
        type: 3}
      propertyPath: m_SizeDelta.x
      value: -2
      objectReference: {fileID: 0}
    - target: {fileID: 2787070321832023631, guid: 5fe4a6cf22d51cb4d94e9ce50768f5ad,
        type: 3}
      propertyPath: m_AnchoredPosition.y
      value: 0
      objectReference: {fileID: 0}
    - target: {fileID: 2787070321832023631, guid: 5fe4a6cf22d51cb4d94e9ce50768f5ad,
        type: 3}
      propertyPath: m_SizeDelta.y
      value: -2
      objectReference: {fileID: 0}
    - target: {fileID: 6339073155949726112, guid: 5fe4a6cf22d51cb4d94e9ce50768f5ad,
        type: 3}
      propertyPath: m_AnchoredPosition.x
      value: 0
      objectReference: {fileID: 0}
    - target: {fileID: 6339073155949726112, guid: 5fe4a6cf22d51cb4d94e9ce50768f5ad,
        type: 3}
      propertyPath: m_SizeDelta.x
      value: 4.9999995
      objectReference: {fileID: 0}
    - target: {fileID: 6339073155949726112, guid: 5fe4a6cf22d51cb4d94e9ce50768f5ad,
        type: 3}
      propertyPath: m_AnchoredPosition.y
      value: 0
      objectReference: {fileID: 0}
    - target: {fileID: 6339073155949726112, guid: 5fe4a6cf22d51cb4d94e9ce50768f5ad,
        type: 3}
      propertyPath: m_SizeDelta.y
      value: 4.9999995
      objectReference: {fileID: 0}
    - target: {fileID: 6357703164829000667, guid: 5fe4a6cf22d51cb4d94e9ce50768f5ad,
        type: 3}
      propertyPath: m_Name
      value: view_xs
      objectReference: {fileID: 0}
    m_RemovedComponents: []
  m_SourcePrefab: {fileID: 100100000, guid: 5fe4a6cf22d51cb4d94e9ce50768f5ad, type: 3}
