%YAML 1.1
%TAG !u! tag:unity3d.com,2011:
--- !u!114 &11400000
MonoBehaviour:
  m_ObjectHideFlags: 0
  m_CorrespondingSourceObject: {fileID: 0}
  m_PrefabInstance: {fileID: 0}
  m_PrefabAsset: {fileID: 0}
  m_GameObject: {fileID: 0}
  m_Enabled: 1
  m_EditorHideFlags: 0
  m_Script: {fileID: 11500000, guid: 0d622a2445904754d9426ab72422d954, type: 3}
  m_Name: _temp_btnAsset
  m_EditorClassIdentifier: 
  Assets:
  - {fileID: 21300000, guid: 1d8ff408224a2b142b1ce7ebb4abe9a2, type: 3}
  - {fileID: 21300000, guid: 1d8ff408224a2b142b1ce7ebb4abe9a2, type: 3}
  - {fileID: 21300000, guid: 1d8ff408224a2b142b1ce7ebb4abe9a2, type: 3}
  - {fileID: 21300000, guid: 1d8ff408224a2b142b1ce7ebb4abe9a2, type: 3}
  - {fileID: 21300000, guid: 1d8ff408224a2b142b1ce7ebb4abe9a2, type: 3}
  AssetNames:
  - hidden
  - disabled
  - blank
  - normal
  - active
