%YAML 1.1
%TAG !u! tag:unity3d.com,2011:
--- !u!114 &11400000
MonoBehaviour:
  m_ObjectHideFlags: 0
  m_CorrespondingSourceObject: {fileID: 0}
  m_PrefabInstance: {fileID: 0}
  m_PrefabAsset: {fileID: 0}
  m_GameObject: {fileID: 0}
  m_Enabled: 1
  m_EditorHideFlags: 0
  m_Script: {fileID: 11500000, guid: 0d622a2445904754d9426ab72422d954, type: 3}
  m_Name: CollectibleFrames
  m_EditorClassIdentifier: 
  Assets:
  - {fileID: -5646621450694648251, guid: 76fc86b3b2925c84fbc2fc489de9cb6a, type: 3}
  - {fileID: 5853251194287751232, guid: 76fc86b3b2925c84fbc2fc489de9cb6a, type: 3}
  AssetNames:
  - empty
  - filled
