%YAML 1.1
%TAG !u! tag:unity3d.com,2011:
--- !u!114 &11400000
MonoBehaviour:
  m_ObjectHideFlags: 0
  m_CorrespondingSourceObject: {fileID: 0}
  m_PrefabInstance: {fileID: 0}
  m_PrefabAsset: {fileID: 0}
  m_GameObject: {fileID: 0}
  m_Enabled: 1
  m_EditorHideFlags: 0
  m_Script: {fileID: 11500000, guid: 0d622a2445904754d9426ab72422d954, type: 3}
  m_Name: CurrencyAsset
  m_EditorClassIdentifier: 
  Assets:
  - {fileID: 21300000, guid: 6f76ebee224a3974e899d9d3f891c4e7, type: 3}
  - {fileID: 21300000, guid: 3c53067a9796996409736bc8c3b29152, type: 3}
  - {fileID: 21300000, guid: 6309f9a9afd10cb47ab01355886064f2, type: 3}
  - {fileID: 21300000, guid: 462fe9c8b5759c6408a390fa0ee33b4b, type: 3}
  - {fileID: 21300000, guid: b4bf8cf49ef3c7f4b87e201fdb02f4a4, type: 3}
  - {fileID: 21300000, guid: d6f82b4fd7703e7429f3881f6bcedf06, type: 3}
  AssetNames:
  - currency_coin
  - currency_fame
  - currency_trait
  - random_equipment
  - perm_persona
  - perm_relationship
