%YAML 1.1
%TAG !u! tag:unity3d.com,2011:
--- !u!114 &11400000
MonoBehaviour:
  m_ObjectHideFlags: 0
  m_CorrespondingSourceObject: {fileID: 0}
  m_PrefabInstance: {fileID: 0}
  m_PrefabAsset: {fileID: 0}
  m_GameObject: {fileID: 0}
  m_Enabled: 1
  m_EditorHideFlags: 0
  m_Script: {fileID: 11500000, guid: a3aa07b30b059c848838d0489c4de752, type: 3}
  m_Name: dataCharacSetting_5
  m_EditorClassIdentifier: 
  UID: character_5
  status: 0
  otherUID:
  - character_1
  - character_2
  - character_3
  - character_4
  availability: 00000101
  relationship:
  - curValue: 0
    capValue: 0
  - curValue: 0
    capValue: 0
  - curValue: 0
    capValue: 300
  - curValue: 0
    capValue: 300
