%YAML 1.1
%TAG !u! tag:unity3d.com,2011:
--- !u!114 &11400000
MonoBehaviour:
  m_ObjectHideFlags: 0
  m_CorrespondingSourceObject: {fileID: 0}
  m_PrefabInstance: {fileID: 0}
  m_PrefabAsset: {fileID: 0}
  m_GameObject: {fileID: 0}
  m_Enabled: 1
  m_EditorHideFlags: 0
  m_Script: {fileID: 11500000, guid: a865835a49f238a448dd9d6c026fbd8d, type: 3}
  m_Name: dataChronicle
  m_EditorClassIdentifier: 
  parkUID: 
  activityUID: 
  currentRegion: 
  status: 1
  skipIntro: 1
  activityQueued: 0
  secondActivity: 0
  endOptionSelected: 0
  QueuedSpecialEvent: 
  allowSkip: 0
  pastActions:
  - actionIndex: 1
    date:
      yearIndex: 1
      milestoneIndex: 0
      monthIndex: 8
      dayIndex: 42
    actionType: 
    actionUID: 
    desc: "\u8DF3\u8FC7\u6559\u7A0B"
    tokenPaths: []
    viewPaths: []
  - actionIndex: 0
    date:
      yearIndex: 1
      milestoneIndex: 0
      monthIndex: 8
      dayIndex: 43
    actionType: 
    actionUID: 
    desc: "\u6E38\u4E8E\u90BB\u5BB6\u5C0F\u5C71,\u9971\u89C8\u7F8E\u666F"
    tokenPaths: []
    viewPaths:
    - view_qingkong
  - actionIndex: 1
    date:
      yearIndex: 1
      milestoneIndex: 0
      monthIndex: 8
      dayIndex: 43
    actionType: 
    actionUID: 
    desc: "\u90BB\u5BB6\u5C0F\u5C71\u7684\u65C5\u884C\u6FC0\u8D77\u4E86\u4E66\u751F\u5185\u5FC3\u7684\u6CE2\u6F9C\uFF0C\u4E00\u53D1\u4E0D\u53EF\u6536\u62FE\uFF0C\u8E0F\u4E0A\u4E86\u81EA\u5DF1\u4F20\u5947\u7684\u65C5\u9014..."
    tokenPaths: []
    viewPaths: []
  - actionIndex: 2
    date:
      yearIndex: 1
      milestoneIndex: 0
      monthIndex: 8
      dayIndex: 43
    actionType: 
    actionUID: 
    desc: "\u544A\u77E5\u5BB6\u4EBA\u51FA\u884C\u7684\u8BA1\u5212"
    tokenPaths: []
    viewPaths: []
  - actionIndex: 3
    date:
      yearIndex: 1
      milestoneIndex: 0
      monthIndex: 8
      dayIndex: 43
    actionType: 
    actionUID: 
    desc: "\u53D6\u51FA\u81EA\u5DF1\u7684\u4E00\u4E9B\u79EF\u84C4"
    tokenPaths: []
    viewPaths: []
  currentAction:
    actionIndex: 0
    date:
      yearIndex: 1
      milestoneIndex: 0
      monthIndex: 8
      dayIndex: 43
    actionType: 
    actionUID: 
    desc: "\u4E34\u884C\u7684\u524D\u4E00\u665A..."
    tokenPaths: []
    viewPaths: []
  currentOptions:
  - activity_start_xiuxi
  - activity_start_zhiyou
  - activity_start_fumu
  actionLogCount: 4
  inSessionStartSequenceIndex: 7
  visitedParks: []
  artFilepath: []
