%YAML 1.1
%TAG !u! tag:unity3d.com,2011:
--- !u!114 &2620984576037916367
MonoBehaviour:
  m_ObjectHideFlags: 0
  m_CorrespondingSourceObject: {fileID: 0}
  m_PrefabInstance: {fileID: 0}
  m_PrefabAsset: {fileID: 0}
  m_GameObject: {fileID: 6165505557448725517}
  m_Enabled: 1
  m_EditorHideFlags: 0
  m_Script: {fileID: 11500000, guid: 306cc8c2b49d7114eaa3623786fc2126, type: 3}
  m_Name: 
  m_EditorClassIdentifier: 
  m_IgnoreLayout: 0
  m_MinWidth: 40
  m_MinHeight: 40
  m_PreferredWidth: 80
  m_PreferredHeight: 80
  m_FlexibleWidth: -1
  m_FlexibleHeight: -1
  m_LayoutPriority: 1
--- !u!114 &6317045289327110707
MonoBehaviour:
  m_ObjectHideFlags: 0
  m_CorrespondingSourceObject: {fileID: 0}
  m_PrefabInstance: {fileID: 0}
  m_PrefabAsset: {fileID: 0}
  m_GameObject: {fileID: 6165505557448725517}
  m_Enabled: 1
  m_EditorHideFlags: 0
  m_Script: {fileID: 11500000, guid: 86710e43de46f6f4bac7c8e50813a599, type: 3}
  m_Name: 
  m_EditorClassIdentifier: 
  m_AspectMode: 1
  m_AspectRatio: 1
--- !u!1001 &5024448312647631961
PrefabInstance:
  m_ObjectHideFlags: 0
  serializedVersion: 2
  m_Modification:
    m_TransformParent: {fileID: 0}
    m_Modifications:
    - target: {fileID: 467670229794291692, guid: 1dc23ddd37d3fe342a6605b0475749fc,
        type: 3}
      propertyPath: m_LocalPosition.x
      value: 0
      objectReference: {fileID: 0}
    - target: {fileID: 467670229794291692, guid: 1dc23ddd37d3fe342a6605b0475749fc,
        type: 3}
      propertyPath: m_LocalPosition.y
      value: 0
      objectReference: {fileID: 0}
    - target: {fileID: 467670229794291692, guid: 1dc23ddd37d3fe342a6605b0475749fc,
        type: 3}
      propertyPath: m_LocalPosition.z
      value: 0
      objectReference: {fileID: 0}
    - target: {fileID: 467670229794291692, guid: 1dc23ddd37d3fe342a6605b0475749fc,
        type: 3}
      propertyPath: m_LocalRotation.x
      value: -0
      objectReference: {fileID: 0}
    - target: {fileID: 467670229794291692, guid: 1dc23ddd37d3fe342a6605b0475749fc,
        type: 3}
      propertyPath: m_LocalRotation.y
      value: -0
      objectReference: {fileID: 0}
    - target: {fileID: 467670229794291692, guid: 1dc23ddd37d3fe342a6605b0475749fc,
        type: 3}
      propertyPath: m_LocalRotation.z
      value: -0
      objectReference: {fileID: 0}
    - target: {fileID: 467670229794291692, guid: 1dc23ddd37d3fe342a6605b0475749fc,
        type: 3}
      propertyPath: m_LocalRotation.w
      value: 1
      objectReference: {fileID: 0}
    - target: {fileID: 467670229794291692, guid: 1dc23ddd37d3fe342a6605b0475749fc,
        type: 3}
      propertyPath: m_RootOrder
      value: 0
      objectReference: {fileID: 0}
    - target: {fileID: 467670229794291692, guid: 1dc23ddd37d3fe342a6605b0475749fc,
        type: 3}
      propertyPath: m_LocalEulerAnglesHint.x
      value: 0
      objectReference: {fileID: 0}
    - target: {fileID: 467670229794291692, guid: 1dc23ddd37d3fe342a6605b0475749fc,
        type: 3}
      propertyPath: m_LocalEulerAnglesHint.y
      value: 0
      objectReference: {fileID: 0}
    - target: {fileID: 467670229794291692, guid: 1dc23ddd37d3fe342a6605b0475749fc,
        type: 3}
      propertyPath: m_LocalEulerAnglesHint.z
      value: 0
      objectReference: {fileID: 0}
    - target: {fileID: 467670229794291692, guid: 1dc23ddd37d3fe342a6605b0475749fc,
        type: 3}
      propertyPath: m_AnchoredPosition.x
      value: 0
      objectReference: {fileID: 0}
    - target: {fileID: 467670229794291692, guid: 1dc23ddd37d3fe342a6605b0475749fc,
        type: 3}
      propertyPath: m_AnchoredPosition.y
      value: 0
      objectReference: {fileID: 0}
    - target: {fileID: 467670229794291692, guid: 1dc23ddd37d3fe342a6605b0475749fc,
        type: 3}
      propertyPath: m_SizeDelta.x
      value: 0
      objectReference: {fileID: 0}
    - target: {fileID: 467670229794291692, guid: 1dc23ddd37d3fe342a6605b0475749fc,
        type: 3}
      propertyPath: m_SizeDelta.y
      value: 0
      objectReference: {fileID: 0}
    - target: {fileID: 467670229794291692, guid: 1dc23ddd37d3fe342a6605b0475749fc,
        type: 3}
      propertyPath: m_AnchorMin.x
      value: 0
      objectReference: {fileID: 0}
    - target: {fileID: 467670229794291692, guid: 1dc23ddd37d3fe342a6605b0475749fc,
        type: 3}
      propertyPath: m_AnchorMin.y
      value: 0
      objectReference: {fileID: 0}
    - target: {fileID: 467670229794291692, guid: 1dc23ddd37d3fe342a6605b0475749fc,
        type: 3}
      propertyPath: m_AnchorMax.x
      value: 0
      objectReference: {fileID: 0}
    - target: {fileID: 467670229794291692, guid: 1dc23ddd37d3fe342a6605b0475749fc,
        type: 3}
      propertyPath: m_AnchorMax.y
      value: 0
      objectReference: {fileID: 0}
    - target: {fileID: 467670229794291692, guid: 1dc23ddd37d3fe342a6605b0475749fc,
        type: 3}
      propertyPath: m_Pivot.x
      value: 0.5
      objectReference: {fileID: 0}
    - target: {fileID: 467670229794291692, guid: 1dc23ddd37d3fe342a6605b0475749fc,
        type: 3}
      propertyPath: m_Pivot.y
      value: 0.5
      objectReference: {fileID: 0}
    - target: {fileID: 1164791547728875604, guid: 1dc23ddd37d3fe342a6605b0475749fc,
        type: 3}
      propertyPath: m_Name
      value: icon_stamina_token
      objectReference: {fileID: 0}
    - target: {fileID: 1829670316492874857, guid: 1dc23ddd37d3fe342a6605b0475749fc,
        type: 3}
      propertyPath: m_AnchoredPosition.x
      value: 0
      objectReference: {fileID: 0}
    - target: {fileID: 1829670316492874857, guid: 1dc23ddd37d3fe342a6605b0475749fc,
        type: 3}
      propertyPath: m_SizeDelta.x
      value: 0
      objectReference: {fileID: 0}
    - target: {fileID: 1829670316492874857, guid: 1dc23ddd37d3fe342a6605b0475749fc,
        type: 3}
      propertyPath: m_AnchoredPosition.y
      value: 0
      objectReference: {fileID: 0}
    - target: {fileID: 1829670316492874857, guid: 1dc23ddd37d3fe342a6605b0475749fc,
        type: 3}
      propertyPath: m_SizeDelta.y
      value: 0
      objectReference: {fileID: 0}
    - target: {fileID: 5395837422720612757, guid: 1dc23ddd37d3fe342a6605b0475749fc,
        type: 3}
      propertyPath: m_Sprite
      value: 
      objectReference: {fileID: 3748590592567112561, guid: a89411effdb2b264eb07328c0cfae008,
        type: 3}
    - target: {fileID: 5395837422720612757, guid: 1dc23ddd37d3fe342a6605b0475749fc,
        type: 3}
      propertyPath: m_Type
      value: 3
      objectReference: {fileID: 0}
    - target: {fileID: 5395837422720612757, guid: 1dc23ddd37d3fe342a6605b0475749fc,
        type: 3}
      propertyPath: m_FillAmount
      value: 0.872
      objectReference: {fileID: 0}
    - target: {fileID: 5395837422720612757, guid: 1dc23ddd37d3fe342a6605b0475749fc,
        type: 3}
      propertyPath: m_FillOrigin
      value: 2
      objectReference: {fileID: 0}
    - target: {fileID: 5395837422720612757, guid: 1dc23ddd37d3fe342a6605b0475749fc,
        type: 3}
      propertyPath: m_FillClockwise
      value: 0
      objectReference: {fileID: 0}
    - target: {fileID: 6821591658599616572, guid: 1dc23ddd37d3fe342a6605b0475749fc,
        type: 3}
      propertyPath: m_IsActive
      value: 0
      objectReference: {fileID: 0}
    - target: {fileID: 7321981290613875138, guid: 1dc23ddd37d3fe342a6605b0475749fc,
        type: 3}
      propertyPath: m_Sprite
      value: 
      objectReference: {fileID: 3748590592567112561, guid: a89411effdb2b264eb07328c0cfae008,
        type: 3}
    - target: {fileID: 7321981290613875138, guid: 1dc23ddd37d3fe342a6605b0475749fc,
        type: 3}
      propertyPath: m_Color.a
      value: 0.29803923
      objectReference: {fileID: 0}
    - target: {fileID: 7321981290613875138, guid: 1dc23ddd37d3fe342a6605b0475749fc,
        type: 3}
      propertyPath: m_Type
      value: 3
      objectReference: {fileID: 0}
    - target: {fileID: 7321981290613875138, guid: 1dc23ddd37d3fe342a6605b0475749fc,
        type: 3}
      propertyPath: m_FillOrigin
      value: 2
      objectReference: {fileID: 0}
    - target: {fileID: 7321981290613875138, guid: 1dc23ddd37d3fe342a6605b0475749fc,
        type: 3}
      propertyPath: m_FillClockwise
      value: 0
      objectReference: {fileID: 0}
    - target: {fileID: 8261375661939156173, guid: 1dc23ddd37d3fe342a6605b0475749fc,
        type: 3}
      propertyPath: m_AnchoredPosition.x
      value: 0
      objectReference: {fileID: 0}
    - target: {fileID: 8261375661939156173, guid: 1dc23ddd37d3fe342a6605b0475749fc,
        type: 3}
      propertyPath: m_SizeDelta.x
      value: 0
      objectReference: {fileID: 0}
    - target: {fileID: 8261375661939156173, guid: 1dc23ddd37d3fe342a6605b0475749fc,
        type: 3}
      propertyPath: m_AnchoredPosition.y
      value: 0
      objectReference: {fileID: 0}
    - target: {fileID: 8261375661939156173, guid: 1dc23ddd37d3fe342a6605b0475749fc,
        type: 3}
      propertyPath: m_SizeDelta.y
      value: 0
      objectReference: {fileID: 0}
    m_RemovedComponents: []
  m_SourcePrefab: {fileID: 100100000, guid: 1dc23ddd37d3fe342a6605b0475749fc, type: 3}
--- !u!1 &6165505557448725517 stripped
GameObject:
  m_CorrespondingSourceObject: {fileID: 1164791547728875604, guid: 1dc23ddd37d3fe342a6605b0475749fc,
    type: 3}
  m_PrefabInstance: {fileID: 5024448312647631961}
  m_PrefabAsset: {fileID: 0}
