%YAML 1.1
%TAG !u! tag:unity3d.com,2011:
--- !u!1001 &321291071510901897
PrefabInstance:
  m_ObjectHideFlags: 0
  serializedVersion: 2
  m_Modification:
    m_TransformParent: {fileID: 0}
    m_Modifications:
    - target: {fileID: 2133696698596762359, guid: e9a4562d43eaaf54b94a66965577bf4a,
        type: 3}
      propertyPath: m_Name
      value: action_danger_minor
      objectReference: {fileID: 0}
    - target: {fileID: 3169464939609038433, guid: e9a4562d43eaaf54b94a66965577bf4a,
        type: 3}
      propertyPath: m_LocalPosition.x
      value: 0
      objectReference: {fileID: 0}
    - target: {fileID: 3169464939609038433, guid: e9a4562d43eaaf54b94a66965577bf4a,
        type: 3}
      propertyPath: m_LocalPosition.y
      value: 0
      objectReference: {fileID: 0}
    - target: {fileID: 3169464939609038433, guid: e9a4562d43eaaf54b94a66965577bf4a,
        type: 3}
      propertyPath: m_LocalPosition.z
      value: 0
      objectReference: {fileID: 0}
    - target: {fileID: 3169464939609038433, guid: e9a4562d43eaaf54b94a66965577bf4a,
        type: 3}
      propertyPath: m_LocalRotation.x
      value: -0
      objectReference: {fileID: 0}
    - target: {fileID: 3169464939609038433, guid: e9a4562d43eaaf54b94a66965577bf4a,
        type: 3}
      propertyPath: m_LocalRotation.y
      value: -0
      objectReference: {fileID: 0}
    - target: {fileID: 3169464939609038433, guid: e9a4562d43eaaf54b94a66965577bf4a,
        type: 3}
      propertyPath: m_LocalRotation.z
      value: -0.000000004485409
      objectReference: {fileID: 0}
    - target: {fileID: 3169464939609038433, guid: e9a4562d43eaaf54b94a66965577bf4a,
        type: 3}
      propertyPath: m_LocalRotation.w
      value: 1
      objectReference: {fileID: 0}
    - target: {fileID: 3169464939609038433, guid: e9a4562d43eaaf54b94a66965577bf4a,
        type: 3}
      propertyPath: m_RootOrder
      value: 0
      objectReference: {fileID: 0}
    - target: {fileID: 3169464939609038433, guid: e9a4562d43eaaf54b94a66965577bf4a,
        type: 3}
      propertyPath: m_LocalEulerAnglesHint.x
      value: 0
      objectReference: {fileID: 0}
    - target: {fileID: 3169464939609038433, guid: e9a4562d43eaaf54b94a66965577bf4a,
        type: 3}
      propertyPath: m_LocalEulerAnglesHint.y
      value: 0
      objectReference: {fileID: 0}
    - target: {fileID: 3169464939609038433, guid: e9a4562d43eaaf54b94a66965577bf4a,
        type: 3}
      propertyPath: m_LocalEulerAnglesHint.z
      value: 0
      objectReference: {fileID: 0}
    - target: {fileID: 3169464939609038433, guid: e9a4562d43eaaf54b94a66965577bf4a,
        type: 3}
      propertyPath: m_AnchoredPosition.x
      value: 0
      objectReference: {fileID: 0}
    - target: {fileID: 3169464939609038433, guid: e9a4562d43eaaf54b94a66965577bf4a,
        type: 3}
      propertyPath: m_AnchoredPosition.y
      value: 0
      objectReference: {fileID: 0}
    - target: {fileID: 3169464939609038433, guid: e9a4562d43eaaf54b94a66965577bf4a,
        type: 3}
      propertyPath: m_SizeDelta.x
      value: 250
      objectReference: {fileID: 0}
    - target: {fileID: 3169464939609038433, guid: e9a4562d43eaaf54b94a66965577bf4a,
        type: 3}
      propertyPath: m_SizeDelta.y
      value: 250
      objectReference: {fileID: 0}
    - target: {fileID: 3169464939609038433, guid: e9a4562d43eaaf54b94a66965577bf4a,
        type: 3}
      propertyPath: m_AnchorMin.x
      value: 0.5
      objectReference: {fileID: 0}
    - target: {fileID: 3169464939609038433, guid: e9a4562d43eaaf54b94a66965577bf4a,
        type: 3}
      propertyPath: m_AnchorMin.y
      value: 0.5
      objectReference: {fileID: 0}
    - target: {fileID: 3169464939609038433, guid: e9a4562d43eaaf54b94a66965577bf4a,
        type: 3}
      propertyPath: m_AnchorMax.x
      value: 0.5
      objectReference: {fileID: 0}
    - target: {fileID: 3169464939609038433, guid: e9a4562d43eaaf54b94a66965577bf4a,
        type: 3}
      propertyPath: m_AnchorMax.y
      value: 0.5
      objectReference: {fileID: 0}
    - target: {fileID: 3169464939609038433, guid: e9a4562d43eaaf54b94a66965577bf4a,
        type: 3}
      propertyPath: m_Pivot.x
      value: 0.5
      objectReference: {fileID: 0}
    - target: {fileID: 3169464939609038433, guid: e9a4562d43eaaf54b94a66965577bf4a,
        type: 3}
      propertyPath: m_Pivot.y
      value: 0.5
      objectReference: {fileID: 0}
    - target: {fileID: 4711171451613690433, guid: e9a4562d43eaaf54b94a66965577bf4a,
        type: 3}
      propertyPath: m_IsActive
      value: 0
      objectReference: {fileID: 0}
    - target: {fileID: 7958921529554170415, guid: e9a4562d43eaaf54b94a66965577bf4a,
        type: 3}
      propertyPath: m_Sprite
      value: 
      objectReference: {fileID: -3675194206708342828, guid: a89411effdb2b264eb07328c0cfae008,
        type: 3}
    m_RemovedComponents: []
  m_SourcePrefab: {fileID: 100100000, guid: e9a4562d43eaaf54b94a66965577bf4a, type: 3}
