%YAML 1.1
%TAG !u! tag:unity3d.com,2011:
--- !u!114 &11400000
MonoBehaviour:
  m_ObjectHideFlags: 0
  m_CorrespondingSourceObject: {fileID: 0}
  m_PrefabInstance: {fileID: 0}
  m_PrefabAsset: {fileID: 0}
  m_GameObject: {fileID: 0}
  m_Enabled: 1
  m_EditorHideFlags: 0
  m_Script: {fileID: 11500000, guid: 0d622a2445904754d9426ab72422d954, type: 3}
  m_Name: diceSprites
  m_EditorClassIdentifier: 
  Assets:
  - {fileID: 3313806268199431930, guid: 76fc86b3b2925c84fbc2fc489de9cb6a, type: 3}
  - {fileID: 1774068545477281215, guid: 76fc86b3b2925c84fbc2fc489de9cb6a, type: 3}
  - {fileID: -8301560479335364176, guid: 76fc86b3b2925c84fbc2fc489de9cb6a, type: 3}
  - {fileID: 3042903253118073129, guid: 76fc86b3b2925c84fbc2fc489de9cb6a, type: 3}
  - {fileID: 4496627261669979216, guid: 76fc86b3b2925c84fbc2fc489de9cb6a, type: 3}
  - {fileID: 77192115590056640, guid: 76fc86b3b2925c84fbc2fc489de9cb6a, type: 3}
  AssetNames:
  - 1
  - 2
  - 3
  - 4
  - 5
  - 6
